{
    "lang": "arag",
    "year": 2021,
    "month": 8,
    "day": 16,
    "title": "16 d'agosto de 1884",
    "body": " Naixe lo pionero d'a sciencia ficci\u00f3n Hugo Gernsback. Lo suyo enchenyo y imachinaci\u00f3n van estar desbordants y va rechistrar buena cosa de patents. Per eixemplo: un estrumento pa captar millor lo son en a radio, un nuevo metodo de depilaci\u00f3n sin cera u una plataforma d'aterrizache pa maquinas voladeras",
    "eventYear": "1884",
    "image": "https://calendario-cientifico-escolar.github.io/images/personajes/228.png"
}