{
    "lang": "arag",
    "year": 2021,
    "month": 8,
    "day": 24,
    "title": "24 d'agosto de 1890",
    "body": " Naixe la bacteriologa Pearl Louella Kendrick. Ye conoixida per desenrollar la primer vacuna contra la tosferina. Lo va fer en colaboraci\u00f3n con a experta en salut publica Grace Eldering y la quimica Loney Gordon",
    "eventYear": "1890",
    "image": "https://calendario-cientifico-escolar.github.io/images/personajes/236.png"
}