{
    "lang": "arag",
    "year": 2021,
    "month": 7,
    "day": 29,
    "title": "29 de chuliol de 1796",
    "body": " Naixe l'inventor Walter Hunt. Ye conoixiu per haber creau l'imperdible",
    "eventYear": "1796",
    "image": "https://calendario-cientifico-escolar.github.io/images/personajes/210.png"
}