{
    "lang": "arag",
    "year": 2021,
    "month": 7,
    "day": 30,
    "title": "30 de chuliol de 1889",
    "body": " Naixe l'inchenyero Vladimir Zworykin. Va inventar lo tubo de rayos catodicos y, per ixo, se le conoix como lo pai d'a televisi\u00f3n",
    "eventYear": "1889",
    "image": "https://calendario-cientifico-escolar.github.io/images/personajes/211.png"
}