{
    "lang": "cat",
    "year": 2021,
    "month": 12,
    "day": 20,
    "title": "20 de desembre de 1852",
    "body": " Va n\u00e9ixer el bacteri\u00f2leg Kitasato Shibasabur\u014d. Va ser codescubridor del bacteri que causa la pesta bub\u00f2nica i va desenvolupar tractaments per al t\u00e8tanus, la dift\u00e8ria i l'\u00e0ntrax. Tamb\u00e9 va donar nom a un instrument de laboratori: el matr\u00e0s kitasato",
    "eventYear": "1852",
    "image": "https://calendario-cientifico-escolar.github.io/images/personajes/354.png"
}