{
    "lang": "gal",
    "year": 2021,
    "month": 8,
    "day": 12,
    "title": "12 de agosto de 1898",
    "body": " Naceu a xe\u00f3loga mari\u00f1a Mar\u00eda Vas\u00edlievna Kli\u00f3nova. Foi a primeira muller que investigou na Ant\u00e1rtida",
    "eventYear": "1898",
    "image": "https://calendario-cientifico-escolar.github.io/images/personajes/224.png"
}