{
    "lang": "gal",
    "year": 2021,
    "month": 8,
    "day": 20,
    "title": "20 de agosto de 1994",
    "body": " O continente americano quedou declarado libre de poliomielite grazas \u00e1s campa\u00f1as de vacinaci\u00f3n",
    "eventYear": "1994",
    "image": "https://calendario-cientifico-escolar.github.io/images/personajes/232.png"
}