{
    "lang": "gal",
    "year": 2021,
    "month": 8,
    "day": 24,
    "title": "24 de agosto de 1890",
    "body": " Naceu a bacteri\u00f3loga Pearl Louella Kendrick. \u00c9 co\u00f1ecida por desenvolver a primeira vacina contra a tose ferina. F\u00edxoo en colaboraci\u00f3n coa experta en sa\u00fade p\u00fablica Grace Eldering e a qu\u00edmica Loney Gordon",
    "eventYear": "1890",
    "image": "https://calendario-cientifico-escolar.github.io/images/personajes/236.png"
}