{
    "lang": "gal",
    "year": 2021,
    "month": 8,
    "day": 25,
    "title": "25 de agosto de 1900",
    "body": " Naceu o Premio Nobel Hans Adolf Krebs. Deu nome ao ciclo de Krebs, unha ruta metab\u00f3lica que permite a obtenci\u00f3n de enerx\u00eda para as c\u00e9lulas aerobias",
    "eventYear": "1900",
    "image": "https://calendario-cientifico-escolar.github.io/images/personajes/237.png"
}