{
    "lang": "gal",
    "year": 2021,
    "month": 8,
    "day": 30,
    "title": "30 de agosto de 1984",
    "body": " A nave espacial Discovery despegou por primeira vez. Chegou a realizar 39 misi\u00f3ns para a NASA",
    "eventYear": "1984",
    "image": "https://calendario-cientifico-escolar.github.io/images/personajes/242.png"
}