{
    "lang": "gal",
    "year": 2021,
    "month": 8,
    "day": 6,
    "title": "6 de agosto de 1991",
    "body": " O cient\u00edfico da computaci\u00f3n Tim Berners-Lee puxo en li\u00f1a o primeiro servidor web. Este servidor atop\u00e1base na Organizaci\u00f3n Europea para a Investigaci\u00f3n Nuclear (CERN)",
    "eventYear": "1991",
    "image": "https://calendario-cientifico-escolar.github.io/images/personajes/218.png"
}