{
    "lang": "gal",
    "year": 2021,
    "month": 8,
    "day": 8,
    "title": "8 de agosto de 1948",
    "body": " Naceu a enxe\u00f1eira e cosmonauta Svetlana Sav\u00edtskaya. Foi a primeira muller en realizar d\u00faas viaxes ao espazo exterior e en cami\u00f1ar por el",
    "eventYear": "1948",
    "image": "https://calendario-cientifico-escolar.github.io/images/personajes/220.png"
}