{
    "lang": "gal",
    "year": 2021,
    "month": 7,
    "day": 25,
    "title": "25 de xullo de 1938",
    "body": " Naceu a psic\u00f3loga Davida Teller. O seu traballo contribu\u00edu \u00e1 comprensi\u00f3n do desenvolvemento visual infantil",
    "eventYear": "1938",
    "image": "https://calendario-cientifico-escolar.github.io/images/personajes/206.png"
}