{
    "lang": "gal",
    "year": 2021,
    "month": 7,
    "day": 3,
    "title": "3 de xullo de 1865",
    "body": " Naceu a profesora Mary A. Kingsbury. Estivo a cargo da biblioteca do Instituto Erasmus Hall e converteuse na primeira bibliotecaria escolar da historia",
    "eventYear": "1865",
    "image": "https://calendario-cientifico-escolar.github.io/images/personajes/184.png"
}