{
    "lang": "arag",
    "year": 2021,
    "month": 11,
    "day": 10,
    "title": "10 de noviembre de 1983",
    "body": " Lo estudiant de doctorau Fred Cohen crea un programa informatico que ye capable d'instalar-se ell mesmo, replicar-se y propagar-se a atras maquinas. Va naixer asinas lo primer virus informatico",
    "eventYear": "1983",
    "image": "https://calendario-cientifico-escolar.github.io/images/personajes/314.png"
}