{
    "lang": "es",
    "year": 2021,
    "month": 11,
    "day": 10,
    "title": "10 de noviembre de 1983",
    "body": " El estudiante de doctorado Fred Cohen cre\u00f3 un programa inform\u00e1tico que es capaz de instalarse a s\u00ed mismo, replicarse y propagarse a otras m\u00e1quinas. Naci\u00f3 as\u00ed el primer virus inform\u00e1tico",
    "eventYear": "1983",
    "image": "https://calendario-cientifico-escolar.github.io/images/personajes/314.png"
}