{
    "lang": "astu",
    "year": 2021,
    "month": 11,
    "day": 11,
    "title": "11 de payares de 1930",
    "body": " Naci\u00f3 la f\u00edsica Mildred Dresselhaus. Ye conocida como la reina de la ciencia del carb\u00f3n polos sos notables trabayos sobre\u2019l grafitu",
    "eventYear": "1930",
    "image": "https://calendario-cientifico-escolar.github.io/images/personajes/315.png"
}