{
    "lang": "gal",
    "year": 2021,
    "month": 11,
    "day": 11,
    "title": "11 de novembro de 1930",
    "body": " Naceu a f\u00edsica Mildred Dresselhaus. \u00c9 co\u00f1ecida como a ra\u00ed\u00f1a da ciencia do carb\u00f3n polos seus notables traballos sobre o grafito",
    "eventYear": "1930",
    "image": "https://calendario-cientifico-escolar.github.io/images/personajes/315.png"
}