{
    "lang": "astu",
    "year": 2021,
    "month": 11,
    "day": 12,
    "title": "12 de payares de 1919",
    "body": " Naci\u00f3 la bi\u00f3loga molecular Grete Kellenberger-Gujer. El so prestixu deriva de los sos descubrimientos sobre la recombinaci\u00f3n xen\u00e9tica y la restricci\u00f3n del ADN",
    "eventYear": "1919",
    "image": "https://calendario-cientifico-escolar.github.io/images/personajes/316.png"
}