{
    "lang": "cat",
    "year": 2021,
    "month": 11,
    "day": 12,
    "title": "12 de novembre de 1919",
    "body": " Va n\u00e9ixer la bi\u00f2loga molecular Grete Kellenberg-Gujer. El seu prestigi deriva dels seus descobriments sobre la recombinaci\u00f3 gen\u00e8tica i la restricci\u00f3 de l'ADN",
    "eventYear": "1919",
    "image": "https://calendario-cientifico-escolar.github.io/images/personajes/316.png"
}