{
    "lang": "eus",
    "year": 2021,
    "month": 11,
    "day": 12,
    "title": "1919/11/12",
    "body": " Grete Kellenberger-Gujer biologo molekularra jaio zen. Ospea lortu du birkonbinazio genetikoaren eta DNAren murrizketaren gainean egin dituen aurkikuntzengatik",
    "eventYear": "1919",
    "image": "https://calendario-cientifico-escolar.github.io/images/personajes/316.png"
}