{
    "lang": "es",
    "year": 2021,
    "month": 11,
    "day": 13,
    "title": "13 de noviembre de 2013",
    "body": " La NASA public\u00f3 un v\u00eddeo que presenta a Marte como podr\u00eda haber sido hace 4.000 millones de a\u00f1os, con cielos azules y agua",
    "eventYear": "2013",
    "image": "https://calendario-cientifico-escolar.github.io/images/personajes/317.png"
}