{
    "lang": "cat",
    "year": 2021,
    "month": 11,
    "day": 14,
    "title": "14 de novembre de 1863",
    "body": " Va n\u00e9ixer el qu\u00edmic Leo Baekeland. Va inventar la baquelita, el primer pl\u00e0stic sint\u00e8tic. El seu baix cost i versatilitat la van fer molt popular",
    "eventYear": "1863",
    "image": "https://calendario-cientifico-escolar.github.io/images/personajes/318.png"
}