{
    "lang": "gal",
    "year": 2021,
    "month": 11,
    "day": 14,
    "title": "14 de novembro de 1863",
    "body": " Naceu o qu\u00edmico Leo Baekeland. Inventou a baquelita, o primeiro pl\u00e1stico sint\u00e9tico. O seu baixo custo e versatilidade fix\u00e9rona moi popular",
    "eventYear": "1863",
    "image": "https://calendario-cientifico-escolar.github.io/images/personajes/318.png"
}