{
    "lang": "cat",
    "year": 2021,
    "month": 11,
    "day": 15,
    "title": "15 de novembre de 1873",
    "body": " Va n\u00e9ixer la m\u00e8dica Sara Josephine Baker. Va realitzar importants contribucions per disminuir la taxa de mortalitat infantil",
    "eventYear": "1873",
    "image": "https://calendario-cientifico-escolar.github.io/images/personajes/319.png"
}