{
    "lang": "es",
    "year": 2021,
    "month": 11,
    "day": 15,
    "title": "15 de noviembre de 1873",
    "body": " Naci\u00f3 la m\u00e9dica Sara Josephine Baker. Realiz\u00f3 importantes contribuciones para disminuir la tasa de mortalidad infantil",
    "eventYear": "1873",
    "image": "https://calendario-cientifico-escolar.github.io/images/personajes/319.png"
}