{
    "lang": "eus",
    "year": 2021,
    "month": 11,
    "day": 16,
    "title": "1940/11/16",
    "body": " Mar\u00eda Josefa Yzuel Gim\u00e9nez fisikaria jaio zen. Optikaren alorreko ikerlanak egin ditu, eta hainbat sari jaso ditu estatuan eta nazioartean",
    "eventYear": "1940",
    "image": "https://calendario-cientifico-escolar.github.io/images/personajes/320.png"
}