{
    "lang": "arag",
    "year": 2021,
    "month": 11,
    "day": 19,
    "title": "19 de noviembre de 2006",
    "body": " La company\u00eda chaponesa de videochuegos Nintendo lanza a lo mercau la consola Wii",
    "eventYear": "2006",
    "image": "https://calendario-cientifico-escolar.github.io/images/personajes/323.png"
}