{
    "lang": "eus",
    "year": 2021,
    "month": 11,
    "day": 1,
    "title": "1952/11/1",
    "body": " 100 atomo-zenbakia daraman elementu kimikoa lehen aldiz isolatu zen. Fermio izena jarri zioten, Enrico Fermi fisikariaren omenez",
    "eventYear": "1952",
    "image": "https://calendario-cientifico-escolar.github.io/images/personajes/305.png"
}