{
    "lang": "es",
    "year": 2021,
    "month": 11,
    "day": 21,
    "title": "21 de noviembre de 2013",
    "body": " El observatorio IceCube del Polo Sur detect\u00f3 neutrinos de alta energ\u00eda de origen extraterrestre. Su procedencia se sit\u00faa fuera de nuestro sistema solar",
    "eventYear": "2013",
    "image": "https://calendario-cientifico-escolar.github.io/images/personajes/325.png"
}