{
    "lang": "eus",
    "year": 2021,
    "month": 11,
    "day": 21,
    "title": "2013/11/21",
    "body": " Hego Poloko IceCube behatokiak energia handiko neutrinoak detektatu zituen, jatorri estralurtarrekoak. Gure eguzki-sistemaren kanpotik datoz",
    "eventYear": "2013",
    "image": "https://calendario-cientifico-escolar.github.io/images/personajes/325.png"
}