{
    "lang": "eus",
    "year": 2021,
    "month": 11,
    "day": 22,
    "title": "2013/11/22",
    "body": " B\u00f6nneko Unibertsitateko ikerketa-talde batek jatorri neandertaleko gene bat aurkitu zuen gaur egungo pertsonengan. Immunitatearen genea da, giza gorputz barrura sartzen diren arrotz arriskutsuak ezagutzeko eta erantzun immune bat emanez haien aurrean defendatzeko aukera ematen duena",
    "eventYear": "2013",
    "image": "https://calendario-cientifico-escolar.github.io/images/personajes/326.png"
}