{
    "lang": "eus",
    "year": 2021,
    "month": 11,
    "day": 23,
    "title": "2002/11/23",
    "body": " \u00c1ngel Mart\u00edn Municio biokimikaria hil zen, Biologia Molekularreko Europako Erakundeko lehen kide espainiarra. Zientzia Zehatzen, Fisikoen eta Naturalen Errege Akademiako presidentea izan zen, 17 urtez",
    "eventYear": "2002",
    "image": "https://calendario-cientifico-escolar.github.io/images/personajes/327.png"
}