{
    "lang": "cat",
    "year": 2021,
    "month": 11,
    "day": 24,
    "title": "24 de novembre de 2021",
    "body": " Dia de l'Evoluci\u00f3. Es commemora la publicaci\u00f3 el 1859 del llibre \"L'origen de les esp\u00e8cies\", de Charles Darwin",
    "eventYear": "2021",
    "image": "https://calendario-cientifico-escolar.github.io/images/personajes/328.png"
}