{
    "lang": "arag",
    "year": 2021,
    "month": 11,
    "day": 25,
    "title": "25 de noviembre de 1884",
    "body": " Se patenta un metodo pa producir leit evaporada, pa poder conservar la leit mas tiempo. Ixe mesmo d\u00eda, se patenta tami\u00e9n una maquina pa esterilizar las latas an que se conservaba esta leit",
    "eventYear": "1884",
    "image": "https://calendario-cientifico-escolar.github.io/images/personajes/329.png"
}