{
    "lang": "eus",
    "year": 2021,
    "month": 11,
    "day": 26,
    "title": "1857/11/26",
    "body": " Ferdinand de Saussure hizkuntzalaria jaio zen. Hizkuntzalaritza zientifikoaren aitzindaria da",
    "eventYear": "1857",
    "image": "https://calendario-cientifico-escolar.github.io/images/personajes/330.png"
}