{
    "lang": "es",
    "year": 2021,
    "month": 11,
    "day": 26,
    "title": "26 de noviembre de 1857",
    "body": " Naci\u00f3 el ling\u00fcista Ferdinand de Saussure. Es reconocido como el pionero de la ling\u00fc\u00edstica cient\u00edfica",
    "eventYear": "1857",
    "image": "https://calendario-cientifico-escolar.github.io/images/personajes/330.png"
}