{
    "lang": "arag",
    "year": 2021,
    "month": 11,
    "day": 28,
    "title": "28 de noviembre de 1920",
    "body": " Naixe la quimica Sagrario Ram\u00edrez Gallardo. Va inventar y patentar la benzina solida",
    "eventYear": "1920",
    "image": "https://calendario-cientifico-escolar.github.io/images/personajes/332.png"
}