{
    "lang": "cat",
    "year": 2021,
    "month": 11,
    "day": 28,
    "title": "28 de novembre de 1920",
    "body": " Va n\u00e9ixer la qu\u00edmica Sagrario Ram\u00edrez Gallardo. Va inventar i patentar la benzina s\u00f2lida",
    "eventYear": "1920",
    "image": "https://calendario-cientifico-escolar.github.io/images/personajes/332.png"
}