{
    "lang": "arag",
    "year": 2021,
    "month": 11,
    "day": 2,
    "title": "2 de noviembre de 1919",
    "body": " Naixe Marie Morisawa, una d'as fundadoras d'a cheomorfoloch\u00eda ambiental. La cheomorfoloch\u00eda une cheograf\u00eda y cheoloch\u00eda pa estudiar las formas d'a superficie terrestre y entender la suya formaci\u00f3n y comportamiento actual",
    "eventYear": "1919",
    "image": "https://calendario-cientifico-escolar.github.io/images/personajes/306.png"
}