{
    "lang": "arag",
    "year": 2021,
    "month": 11,
    "day": 3,
    "title": "3 de noviembre de 1957",
    "body": " Laika viacha ta lo espacio a bordo d'o Sputnik 2. Se convirti\u00f3 asinas en o primer animal en fer un vuelo espacial",
    "eventYear": "1957",
    "image": "https://calendario-cientifico-escolar.github.io/images/personajes/307.png"
}