{
    "lang": "astu",
    "year": 2021,
    "month": 11,
    "day": 3,
    "title": "3 de payares de 1957",
    "body": " Laika viax\u00f3 al espaciu a bordu del Sputnik 2. Convirti\u00f3se asina nel primer animal en facer un vuelu espacial",
    "eventYear": "1957",
    "image": "https://calendario-cientifico-escolar.github.io/images/personajes/307.png"
}