{
    "lang": "gal",
    "year": 2021,
    "month": 11,
    "day": 4,
    "title": "4 de novembro de 2008",
    "body": " Un equipo de investigaci\u00f3n do IGME deu a co\u00f1ecer o xacemento de \u00e1mbar cret\u00e1cico de El Soplao. Ten unha dimensi\u00f3n e riqueza excepcionais e o seu \u00e1mbar azul-p\u00farpura mostra unha luminescencia sen parang\u00f3n no mundo",
    "eventYear": "2008",
    "image": "https://calendario-cientifico-escolar.github.io/images/personajes/308.png"
}