{
    "lang": "es",
    "year": 2021,
    "month": 11,
    "day": 6,
    "title": "6 de noviembre de 1935",
    "body": " El ingeniero Edwin Armstrong present\u00f3 el estudio titulado Un m\u00e9todo de reducci\u00f3n de molestias en la radio mediante un sistema de modulaci\u00f3n por frecuencia. Se cre\u00f3 as\u00ed la radio FM (frecuencia modulada)",
    "eventYear": "1935",
    "image": "https://calendario-cientifico-escolar.github.io/images/personajes/310.png"
}