{
    "lang": "gal",
    "year": 2021,
    "month": 11,
    "day": 6,
    "title": "6 de novembro de 1935",
    "body": " O enxe\u00f1eiro Edwin Armstrong presentou o estudo titulado Un m\u00e9todo de reduci\u00f3n de molestias na radio mediante un sistema de modulaci\u00f3n por frecuencia. Creouse as\u00ed a radio FM (frecuencia modulada)",
    "eventYear": "1935",
    "image": "https://calendario-cientifico-escolar.github.io/images/personajes/310.png"
}