{
    "lang": "arag",
    "year": 2021,
    "month": 11,
    "day": 8,
    "title": "8 de noviembre de 1878",
    "body": " Naixe la paleontologa y zoologa Dorothea Bate. Va estar pionera en zooarqueoloch\u00eda y, chunto a Dorothy Garrod, van trobar las restas fosils de buena cosa d'especies que no heban estau descritas antes",
    "eventYear": "1878",
    "image": "https://calendario-cientifico-escolar.github.io/images/personajes/312.png"
}