{
    "lang": "es",
    "year": 2021,
    "month": 7,
    "day": 26,
    "title": "26 de julio de 2005",
    "body": " Se celebr\u00f3 el primer D\u00eda Internacional para la defensa del ecosistema manglar",
    "eventYear": "2005",
    "image": "https://calendario-cientifico-escolar.github.io/images/personajes/207.png"
}