{
    "lang": "es",
    "year": 2021,
    "month": 7,
    "day": 27,
    "title": "27 de julio de 1995",
    "body": " La profesora Sheila Rowan present\u00f3 su tesis doctoral sobre las ondas gravitacionales",
    "eventYear": "1995",
    "image": "https://calendario-cientifico-escolar.github.io/images/personajes/208.png"
}