{
    "lang": "es",
    "year": 2021,
    "month": 7,
    "day": 31,
    "title": "31 de julio de 1923",
    "body": " Naci\u00f3 la qu\u00edmica Stephanie Kwolek. Sintetiz\u00f3 por primera vez el Kevlar, un pol\u00edmero que se usa en la fabricaci\u00f3n de neum\u00e1ticos, velas n\u00e1uticas o chalecos antibalas por su ligereza y extraordinaria resistencia",
    "eventYear": "1923",
    "image": "https://calendario-cientifico-escolar.github.io/images/personajes/212.png"
}