{
    "lang": "eus",
    "year": 2021,
    "month": 7,
    "day": 11,
    "title": "1901/7/11",
    "body": " Ang\u00e9lique Arvanitaki neurofisiologoa jaio zen. Nick Chalazonitisekin batera, neuronen jarduera elektrikoa ikertu zuen, barraskilo arruntaren nerbio-zuntzak erabiliz",
    "eventYear": "1901",
    "image": "https://calendario-cientifico-escolar.github.io/images/personajes/192.png"
}