{
    "lang": "eus",
    "year": 2021,
    "month": 7,
    "day": 17,
    "title": "1819/7/17",
    "body": " Eunice Newton Foote klimatologo eta asmatzailea jaio zen. Aitzindaria izan zen berotegi-efektuaren ikerketan. Hiru urtez aurrea hartu zien John Tyndallen esperimentuei; CO2ak atmosferan eragindako efektuaren aurkitzailetzat hartzen zen Tyndall",
    "eventYear": "1819",
    "image": "https://calendario-cientifico-escolar.github.io/images/personajes/198.png"
}