{
    "lang": "eus",
    "year": 2021,
    "month": 7,
    "day": 2,
    "title": "1982/7/2",
    "body": " Richard Walters Lawrencek heliozko 45 globo lotu zituen lorategiko aulki batera, eta aulkia 4.500 metrotik gora igo zen. Estatu Batuetako Indar Amatuetako pilotua izateko ametsa zapuztuta, modu xelebre horretan bere kasa hegan egitea erabaki zuen",
    "eventYear": "1982",
    "image": "https://calendario-cientifico-escolar.github.io/images/personajes/183.png"
}