{
    "lang": "eus",
    "year": 2021,
    "month": 7,
    "day": 20,
    "title": "1969/7/20",
    "body": " Apolo 11 misioaren Eagle izeneko ilargi-modulua Ilargiratzeko saioa arrakastaz burutu zen",
    "eventYear": "1969",
    "image": "https://calendario-cientifico-escolar.github.io/images/personajes/201.png"
}