{
    "lang": "eus",
    "year": 2021,
    "month": 7,
    "day": 21,
    "title": "2013/7/21",
    "body": " Larruazal elektroniko sentikor eta malgu bat garatu zen, benetako giza larruazalaren antzekoa. Larruazal horrek zenbait presio-maila detekta ditzake, eta horien aurrean erantzun dezake",
    "eventYear": "2013",
    "image": "https://calendario-cientifico-escolar.github.io/images/personajes/202.png"
}