{
    "lang": "eus",
    "year": 2021,
    "month": 7,
    "day": 31,
    "title": "1923/7/31",
    "body": " Stephanie Kwolek kimikaria jaio zen. Kevlar polimeroa sintetizatu zuen lehen aldiz. Pneumatikoen, itsas belen edo balen aurkako txalekoen fabrikazioan erabiltzen da polimero hori, arina delako eta aparteko erresistentzia duelako",
    "eventYear": "1923",
    "image": "https://calendario-cientifico-escolar.github.io/images/personajes/212.png"
}