{
    "lang": "eus",
    "year": 2021,
    "month": 7,
    "day": 7,
    "title": "1924/7/7",
    "body": " Natalia Petrovna Bekhtereva neurozientifiko eta psikologoa jaio zen. Pentsamenduaren, oroimenaren, emozioen eta sormenaren garun-mekanismoak aztertzeko metodo konplexu bat jarri zuen abian",
    "eventYear": "1924",
    "image": "https://calendario-cientifico-escolar.github.io/images/personajes/188.png"
}