{
    "lang": "en",
    "year": 2021,
    "month": 11,
    "day": 2,
    "title": "November 2, 1919",
    "body": " Marie Morisawa, one of the founders of environmental geomorphology, was born. Geomorphology unites geography and geology to study the shapes of the earth's surface and understand its formation and current behavior",
    "eventYear": "1919",
    "image": "https://calendario-cientifico-escolar.github.io/images/personajes/306.png"
}