{
    "lang": "en",
    "year": 2021,
    "month": 11,
    "day": 20,
    "title": "November 20, 1985",
    "body": " Surgeon Leonard Lee Bailey performed the first successful heart transplant in a newborn",
    "eventYear": "1985",
    "image": "https://calendario-cientifico-escolar.github.io/images/personajes/324.png"
}