{
    "lang": "en",
    "year": 2021,
    "month": 11,
    "day": 24,
    "title": "November 24, 2021",
    "body": " Evolution Day. This day commemorates the publication in 1859 of the book The Origin of Species by Charles Darwin",
    "eventYear": "2021",
    "image": "https://calendario-cientifico-escolar.github.io/images/personajes/328.png"
}