{
    "lang": "en",
    "year": 2021,
    "month": 11,
    "day": 27,
    "title": "November 27, 1895",
    "body": " Alfred Nobel signed his will. In it, he established the creation of a fund that would be used to award five annual prizes: the Nobel Prizes",
    "eventYear": "1895",
    "image": "https://calendario-cientifico-escolar.github.io/images/personajes/331.png"
}