{
    "lang": "astu",
    "year": 2021,
    "month": 10,
    "day": 10,
    "title": "10 d\u2019ochobre de 1966",
    "body": " Naci\u00f3 la qu\u00edmica Carolyn Bertozzi. Estudi\u00f3\u2019l papel de los gl\u00facidos n\u2019enfermedaes como\u2019l c\u00e1ncer, l\u2019artritis o la tuberculosis",
    "eventYear": "1966",
    "image": "https://calendario-cientifico-escolar.github.io/images/personajes/283.png"
}