{
    "lang": "astu",
    "year": 2021,
    "month": 10,
    "day": 15,
    "title": "15 d\u2019ochobre de 1902",
    "body": " Naci\u00f3 la m\u00e9dica Amparo Poch y Gasc\u00f3n. Especializ\u00f3se en puericultura y fixo un gran llabor educativu ente les clases sociales m\u00e1s modestes pa evitar enfermedaes de tipu venereu",
    "eventYear": "1902",
    "image": "https://calendario-cientifico-escolar.github.io/images/personajes/288.png"
}