{
    "lang": "astu",
    "year": 2021,
    "month": 10,
    "day": 23,
    "title": "23 d\u2019ochobre de 1887",
    "body": " L\u2019Armada Espa\u00f1ola escomenz\u00f3 a construyir el submar\u00edn Peral. Esti sumerxible torpederu a propulsi\u00f3n ll\u00e9trica foi\u2019l primer submar\u00edn militar de la historia",
    "eventYear": "1887",
    "image": "https://calendario-cientifico-escolar.github.io/images/personajes/296.png"
}