{
    "lang": "astu",
    "year": 2021,
    "month": 10,
    "day": 25,
    "title": "25 d\u2019ochobre de 1906",
    "body": " Santiago Ram\u00f3n y Cajal recibi\u00f3 la notificaci\u00f3n de que ganara\u2019l premiu Nobel de Medicina. Al paecer, la so primer reaici\u00f3n foi comentar que se trataba de \u00abuna chancia de los estudiantes\u00bb. Al otru d\u00eda lle\u00f3lu nos peri\u00f3dicos",
    "eventYear": "1906",
    "image": "https://calendario-cientifico-escolar.github.io/images/personajes/298.png"
}