{
    "lang": "astu",
    "year": 2021,
    "month": 10,
    "day": 4,
    "title": "4 d\u2019ochobre de 1949",
    "body": " Naci\u00f3\u2019l bioqu\u00edmicu Mariano Barbacid. Aisll\u00f3\u2019l primera oncox\u00e9n humanu (H-ras). Los oncoxenes son los responsables de qu\u2019una c\u00e9lula normal se tresforme nuna c\u00e9lula malina que va desendolcar un c\u00e1ncanu",
    "eventYear": "1949",
    "image": "https://calendario-cientifico-escolar.github.io/images/personajes/277.png"
}