{
    "lang": "eus",
    "year": 2021,
    "month": 6,
    "day": 14,
    "title": "1880/6/14",
    "body": " Nicol\u00e1s Ach\u00facarro neurozientifikoa jaio zen. Ram\u00f3n y Cajalen dizipuluetako bat izan zen, eta zelula glialen azterketan espezializatu zen",
    "eventYear": "1880",
    "image": "https://calendario-cientifico-escolar.github.io/images/personajes/165.png"
}