{
    "lang": "eus",
    "year": 2021,
    "month": 6,
    "day": 16,
    "title": "1963/6/16",
    "body": " Valentina Tereshkova espaziora bidaiatu zuen lehen emakumea izan zen",
    "eventYear": "1963",
    "image": "https://calendario-cientifico-escolar.github.io/images/personajes/167.png"
}