{
    "lang": "eus",
    "year": 2021,
    "month": 6,
    "day": 23,
    "title": "1912/6/23",
    "body": " Alan Turing matematikaria, logikaria eta kriptoanalista jaio zen. Informatika modernoaren bide-erakuslea izan zen",
    "eventYear": "1912",
    "image": "https://calendario-cientifico-escolar.github.io/images/personajes/174.png"
}