{
    "lang": "eus",
    "year": 2021,
    "month": 6,
    "day": 6,
    "title": "1907/6/6",
    "body": " \"Persil\" merkaturatu zen. Akzio automatikoko lehen arropa-detergentea izan zen",
    "eventYear": "1907",
    "image": "https://calendario-cientifico-escolar.github.io/images/personajes/157.png"
}