{
    "lang": "es",
    "year": 2021,
    "month": 4,
    "day": 13,
    "title": "13 de abril de 2014",
    "body": " La expedici\u00f3n Subvent del IGME descubri\u00f3 grandes bancos de mejillones quimiosint\u00e9ticos alrededor de manantiales de metano en el Golfo de C\u00e1diz. Tambi\u00e9n descubri\u00f3 nuevos volcanes submarinos en Lanzarote",
    "eventYear": "2014",
    "image": "https://calendario-cientifico-escolar.github.io/images/personajes/103.png"
}