{
    "lang": "es",
    "year": 2021,
    "month": 4,
    "day": 2,
    "title": "2 de abril de 1618",
    "body": " Naci\u00f3 el f\u00edsico Francesco Grimaldi. Descubri\u00f3 la difracci\u00f3n de la luz",
    "eventYear": "1618",
    "image": "https://calendario-cientifico-escolar.github.io/images/personajes/92.png"
}