{
    "lang": "es",
    "year": 2021,
    "month": 4,
    "day": 30,
    "title": "30 de abril de 2010",
    "body": " Investigadores del IGME localizan en mapas del siglo XVIII y XIX un humedal que hab\u00eda desaparecido del registro hist\u00f3rico",
    "eventYear": "2010",
    "image": "https://calendario-cientifico-escolar.github.io/images/personajes/120.png"
}