{
    "lang": "es",
    "year": 2021,
    "month": 4,
    "day": 5,
    "title": "5 de abril de 1952",
    "body": " Naci\u00f3 el qu\u00edmico Venki Ramakrishnan. Recibi\u00f3 el Premio Nobel por el estudio de la estructura y funci\u00f3n del ribosoma",
    "eventYear": "1952",
    "image": "https://calendario-cientifico-escolar.github.io/images/personajes/95.png"
}