{
    "lang": "arag",
    "year": 2021,
    "month": 3,
    "day": 10,
    "title": "10 de marzo de 1876",
    "body": " Alexander Graham Bell fa la primer gritada telefonica exitosa en a historia",
    "eventYear": "1876",
    "image": "https://calendario-cientifico-escolar.github.io/images/personajes/69.png"
}