{
    "lang": "arag",
    "year": 2021,
    "month": 3,
    "day": 23,
    "title": "23 de marzo de 2005",
    "body": " Jos\u00e9 Luis Carrascosa y lo suyo equipo d'o Centro Nacional de Biotecnoloch\u00eda describen per primer vegada la estructura d'o virus d'a picueta",
    "eventYear": "2005",
    "image": "https://calendario-cientifico-escolar.github.io/images/personajes/82.png"
}