{
    "lang": "arag",
    "year": 2021,
    "month": 3,
    "day": 5,
    "title": "5 de marzo de 2013",
    "body": " Lo Prochecto Human Connectome publica imachens muito detalladas de cerebros humanos. Estas imachens permitioron d'estudiar la complexidat d'as estructuras cerebrals y identificar causas d'as malot\u00edas neuronals",
    "eventYear": "2013",
    "image": "https://calendario-cientifico-escolar.github.io/images/personajes/64.png"
}