{
    "lang": "en",
    "year": 2021,
    "month": 6,
    "day": 11,
    "title": "June 11, 1910",
    "body": " Oceanographer and explorer Jacques-Yves Cousteau was born. He is one of the most famous popularizers of the underwater world. He recorded numerous films and documentaries on board his ship Calypso. He was also one of the first people to defend the marine environment against pollution",
    "eventYear": "1910",
    "image": "https://calendario-cientifico-escolar.github.io/images/personajes/162.png"
}