{
    "lang": "en",
    "year": 2021,
    "month": 6,
    "day": 16,
    "title": "June 16, 1963",
    "body": " Cosmonaut Valentina Tereshkova was the first woman to travel to space",
    "eventYear": "1963",
    "image": "https://calendario-cientifico-escolar.github.io/images/personajes/167.png"
}