{
    "lang": "en",
    "year": 2021,
    "month": 6,
    "day": 19,
    "title": "June 19, 1903",
    "body": " Biochemist Rebecca Gerschman was born. She postulated the Gerschman theory of oxygen toxicity through free radicals and revolutionized the scientific environment of that time",
    "eventYear": "1903",
    "image": "https://calendario-cientifico-escolar.github.io/images/personajes/170.png"
}