{
    "lang": "en",
    "year": 2021,
    "month": 6,
    "day": 20,
    "title": "June 20, 2019",
    "body": " Researcher Margarita Salas received the 2019 European Inventor Award. Among her major contributions, the patent of viral DNA polymerase stands out as the most profitable patent of the CSIC",
    "eventYear": "2019",
    "image": "https://calendario-cientifico-escolar.github.io/images/personajes/171.png"
}