{
    "lang": "en",
    "year": 2021,
    "month": 6,
    "day": 23,
    "title": "June 23, 1912",
    "body": " The mathematician, logician, and cryptanalyst Alan Turing was born. He was a pioneer of modern computing",
    "eventYear": "1912",
    "image": "https://calendario-cientifico-escolar.github.io/images/personajes/174.png"
}