{
    "lang": "en",
    "year": 2021,
    "month": 6,
    "day": 8,
    "title": "June 8, 2021",
    "body": " World Oceans Day. Its objective is to remind us of the role that the oceans have in our daily life. They are the lungs of our planet and produce most of the oxygen that we breathe",
    "eventYear": "2021",
    "image": "https://calendario-cientifico-escolar.github.io/images/personajes/159.png"
}