{
    "lang": "astu",
    "year": 2021,
    "month": 5,
    "day": 11,
    "title": "11 de mayu de 2011",
    "body": " Tuvo llugar un terremotu en Lorca (Murcia) con una magnit\u00fa de 5,2 Mw. Caus\u00f3 un gran impautu, con 9 v\u00edctimes mortales y grandes da\u00f1os materiales",
    "eventYear": "2011",
    "image": "https://calendario-cientifico-escolar.github.io/images/personajes/131.png"
}