{
    "lang": "astu",
    "year": 2021,
    "month": 5,
    "day": 14,
    "title": "14 de mayu de 1899",
    "body": " Naci\u00f3 la bi\u00f3loga Charlotte Auerbach. Especializ\u00f3se en zoolox\u00eda y xen\u00e9tica, y contribuy\u00f3 al descubrimientu de la mutax\u00e9nesis y de los sos efeutos. Algam\u00f3 sonad\u00eda en 1942 cuando punxo de manifiestu, xunto con Alfred Joseph Clark y J. M. Robson, que\u2019l gas mostaza pod\u00eda causar mutaciones",
    "eventYear": "1899",
    "image": "https://calendario-cientifico-escolar.github.io/images/personajes/134.png"
}