{
    "lang": "astu",
    "year": 2021,
    "month": 5,
    "day": 18,
    "title": "18 de mayu de 2012",
    "body": " Celebr\u00f3se\u2019l primer D\u00eda Internacional de la Fascinaci\u00f3n poles Plantes. El so oxetivu ye reconocer la importancia de les plantes na nuesa vida, gracies a la producci\u00f3n d\u2019alimentos pa persones y animales, papel, madera, enerx\u00eda y productos farmac\u00e9uticos",
    "eventYear": "2012",
    "image": "https://calendario-cientifico-escolar.github.io/images/personajes/138.png"
}