{
    "lang": "astu",
    "year": 2021,
    "month": 5,
    "day": 19,
    "title": "19 de mayu de 2014",
    "body": " La NASA entam\u00f3 la construcci\u00f3n del rob\u00f3 espacial InSight, que pos\u00f3 en Marte en 2018",
    "eventYear": "2014",
    "image": "https://calendario-cientifico-escolar.github.io/images/personajes/139.png"
}