{
    "lang": "astu",
    "year": 2021,
    "month": 5,
    "day": 2,
    "title": "2 de mayu de 1997",
    "body": " L\u2019equipu cient\u00edficu d\u2019Atapuerca llogr\u00f3\u2019l premiu Pr\u00edncipe d\u2019Asturies d\u2019Investigaci\u00f3n Cient\u00edfica y T\u00e9unica pol descubrimientu del Homo antecessor. Esti hom\u00ednidu vivi\u00f3 n\u2019Europa hai 800.000 a\u00f1os",
    "eventYear": "1997",
    "image": "https://calendario-cientifico-escolar.github.io/images/personajes/122.png"
}