{
    "lang": "gal",
    "year": 2021,
    "month": 4,
    "day": 10,
    "title": "10 de abril de 2011",
    "body": " Un estudo do IGME, CIATF e as universidades Complutense e de Lisboa descubriu dep\u00f3sitos de tsunamis en Tenerife. Os tsunamis provocaron ondas de m\u00e1is de 50 metros de altura e estiveron asociados \u00e1 destruci\u00f3n do edificio volc\u00e1nico de Las Ca\u00f1adas, anterior ao actual Teide",
    "eventYear": "2011",
    "image": "https://calendario-cientifico-escolar.github.io/images/personajes/100.png"
}