{
    "lang": "gal",
    "year": 2021,
    "month": 4,
    "day": 20,
    "title": "20 de abril de 2017",
    "body": " Bryan Keith Holland depositou a s\u00faa tese de doutoramento sobre os microARN do VIH. \u00c9 m\u00e1is co\u00f1ecido polo seu alcume Dexter e mais por ser o cantante e guitarrista da banda punk rock The Offsprings",
    "eventYear": "2017",
    "image": "https://calendario-cientifico-escolar.github.io/images/personajes/110.png"
}