{
    "lang": "gal",
    "year": 2021,
    "month": 4,
    "day": 5,
    "title": "5 de abril de 1952",
    "body": " Naceu o qu\u00edmico Venki Ramakrishnan. Recibiu o Premio Nobel polo estudo da estrutura e funci\u00f3n do ribosoma",
    "eventYear": "1952",
    "image": "https://calendario-cientifico-escolar.github.io/images/personajes/95.png"
}