{
    "lang": "gal",
    "year": 2021,
    "month": 4,
    "day": 6,
    "title": "6 de abril de 1846",
    "body": " Naceu Antonio Machado y \u00c1lvarez, o Dem\u00f3filo, pai dos poetas Antonio e Manuel Machado. Foi un dos primeiros folcloristas en estudar cientificamente o flamenco",
    "eventYear": "1846",
    "image": "https://calendario-cientifico-escolar.github.io/images/personajes/96.png"
}