{
    "lang": "es",
    "year": 2021,
    "month": 2,
    "day": 10,
    "title": "10 de febrero de 1996",
    "body": " En Estados Unidos, la supercomputadora IBM Deep Blue derrot\u00f3 por primera vez a Garry Kasparov, campe\u00f3n mundial de ajedrez",
    "eventYear": "1996",
    "image": "https://calendario-cientifico-escolar.github.io/images/personajes/41.png"
}