{
    "lang": "astu",
    "year": 2021,
    "month": 2,
    "day": 12,
    "title": "12 de febreru de 1809",
    "body": " Naci\u00f3 Charles Darwin, el famosu naturalista qu\u2019ellabor\u00f3 la teor\u00eda de la evoluci\u00f3n per aciu de la seleici\u00f3n natural",
    "eventYear": "1809",
    "image": "https://calendario-cientifico-escolar.github.io/images/personajes/43.png"
}