{
    "lang": "gal",
    "year": 2021,
    "month": 2,
    "day": 13,
    "title": "13 de febreiro de 1946",
    "body": " Naceu a matem\u00e1tica Pilar Bayer. En 1986 fundou o Seminario de Teor\u00eda de N\u00fameros de Barcelona, no cal se enmarca a s\u00faa actividade investigadora",
    "eventYear": "1946",
    "image": "https://calendario-cientifico-escolar.github.io/images/personajes/44.png"
}