{
    "lang": "es",
    "year": 2021,
    "month": 2,
    "day": 14,
    "title": "14 de febrero de 2005",
    "body": " Un equipo de investigadores del CSIC obtuvo y secuenci\u00f3 ADN de un individuo neandertal procedente del yacimiento de El Sidr\u00f3n",
    "eventYear": "2005",
    "image": "https://calendario-cientifico-escolar.github.io/images/personajes/45.png"
}