{
    "lang": "arag",
    "year": 2021,
    "month": 2,
    "day": 17,
    "title": "17 de febrero de 1874",
    "body": " Naixe la cheologa Ida Helen Ogilvie. Descubri\u00f3 propiedatz d'a lava y los efectos de l'aridez sobre la erosi\u00f3n d'os suels",
    "eventYear": "1874",
    "image": "https://calendario-cientifico-escolar.github.io/images/personajes/48.png"
}