{
    "lang": "en",
    "year": 2021,
    "month": 2,
    "day": 17,
    "title": "February 17, 1874",
    "body": " Geologist Ida Helen Ogilvie was born. She discovered the properties of lava and the effects of aridity on soil erosion",
    "eventYear": "1874",
    "image": "https://calendario-cientifico-escolar.github.io/images/personajes/48.png"
}