{
    "lang": "astu",
    "year": 2021,
    "month": 2,
    "day": 1,
    "title": "1 de febreru de 1949",
    "body": " Entr\u00f3 en funcionamientu\u2019l telescopiu Hale, el m\u00e1s grande del mundu nesi momentu (200 pulgaes)",
    "eventYear": "1949",
    "image": "https://calendario-cientifico-escolar.github.io/images/personajes/32.png"
}