{
    "lang": "en",
    "year": 2021,
    "month": 2,
    "day": 1,
    "title": "February 1, 1949",
    "body": " The Hale telescope, the largest in the world at that time (200 inches), came into operation",
    "eventYear": "1949",
    "image": "https://calendario-cientifico-escolar.github.io/images/personajes/32.png"
}