{
    "lang": "eus",
    "year": 2021,
    "month": 2,
    "day": 1,
    "title": "1949/2/1",
    "body": " Hale teleskopioa martxan jarri zen, munduko handiena garai hartan, 200 hazbete baitzeuzkan",
    "eventYear": "1949",
    "image": "https://calendario-cientifico-escolar.github.io/images/personajes/32.png"
}