{
    "lang": "cat",
    "year": 2021,
    "month": 2,
    "day": 20,
    "title": "20 de febrer de 2010",
    "body": " Investigadors de l'IGME van descobrir la primera mantis religiosa f\u00f2ssil i una de les m\u00e9s antigues que es coneixen en el m\u00f3n. Es va trobar al jaciment d'ambre de San Just, a Utrillas (Teruel), que t\u00e9 una edat d'uns 105 milions d'anys (per\u00edode Cretaci)",
    "eventYear": "2010",
    "image": "https://calendario-cientifico-escolar.github.io/images/personajes/51.png"
}