{
    "lang": "astu",
    "year": 2021,
    "month": 2,
    "day": 22,
    "title": "22 de febreru de 1876",
    "body": " Fund\u00f3se la Universid\u00e1 Johns Hopkins. Foi la primer universid\u00e1 dedicada espec\u00edficamente a la investigaci\u00f3n m\u00e9dica nos Estaos Xun\u00edos. La fundaci\u00f3n foi posible gracies al heriedu del empresariu Johns Hopkins",
    "eventYear": "1876",
    "image": "https://calendario-cientifico-escolar.github.io/images/personajes/53.png"
}