{
    "lang": "en",
    "year": 2021,
    "month": 2,
    "day": 23,
    "title": "February 23, 1879",
    "body": " Agnes Arber, botanist specialized in the study of monocotyledonous plants, was born",
    "eventYear": "1879",
    "image": "https://calendario-cientifico-escolar.github.io/images/personajes/54.png"
}