{
    "lang": "arag",
    "year": 2021,
    "month": 2,
    "day": 25,
    "title": "25 de febrero de 1869",
    "body": " Naixe lo quimico Phoebus Levene. Descubri\u00f3 la desoxirribosa, un d'os components principals de l'ADN",
    "eventYear": "1869",
    "image": "https://calendario-cientifico-escolar.github.io/images/personajes/56.png"
}