{
    "lang": "en",
    "year": 2021,
    "month": 2,
    "day": 25,
    "title": "February 25, 1869",
    "body": " Chemist Phoebus Levene was born. He discovered deoxyribose, one of the main components of DNA",
    "eventYear": "1869",
    "image": "https://calendario-cientifico-escolar.github.io/images/personajes/56.png"
}