{
    "lang": "eus",
    "year": 2021,
    "month": 2,
    "day": 25,
    "title": "1869/2/25",
    "body": " Phoebus Levene kimikaria jaio zen. Desoxirribosa aurkitu zuen, DNAren osagai nagusietako bat",
    "eventYear": "1869",
    "image": "https://calendario-cientifico-escolar.github.io/images/personajes/56.png"
}