{
    "lang": "gal",
    "year": 2021,
    "month": 2,
    "day": 26,
    "title": "26 de febreiro de 1958",
    "body": " Naceu Susan Helms, muller astronauta que bateu o r\u00e9cord do paseo espacial m\u00e1is longo (case 9 horas)",
    "eventYear": "1958",
    "image": "https://calendario-cientifico-escolar.github.io/images/personajes/57.png"
}