{
    "lang": "eus",
    "year": 2021,
    "month": 2,
    "day": 28,
    "title": "1953/2/28",
    "body": " Francis Crickek eta James Watsonek DNAren egituraren aurkikuntza argitaratu zuten. Biek Nobel Saria jaso zuten, 1962. urtean. Rosalind Franklin, haien laguntzailea zena, 1958an hil zen inolako errekonozimendurik jaso gabe",
    "eventYear": "1953",
    "image": "https://calendario-cientifico-escolar.github.io/images/personajes/59.png"
}