{
    "lang": "arag",
    "year": 2021,
    "month": 2,
    "day": 2,
    "title": "2 de febrero de 1939",
    "body": " Naixe la biotecnologa Mary-Dell Chilton. Va estar una d'as fundadoras d'a biotecnoloch\u00eda moderna en plantas",
    "eventYear": "1939",
    "image": "https://calendario-cientifico-escolar.github.io/images/personajes/33.png"
}