{
    "lang": "en",
    "year": 2021,
    "month": 2,
    "day": 2,
    "title": "February 2, 1939",
    "body": " Biotechnologist Mary-Dell Chilton was born. She was one of the founders of modern plant biotechnology",
    "eventYear": "1939",
    "image": "https://calendario-cientifico-escolar.github.io/images/personajes/33.png"
}