{
    "lang": "eus",
    "year": 2021,
    "month": 2,
    "day": 2,
    "title": "1939/2/2",
    "body": " Mary-Dell Chilton bioteknologoa jaio zen. Landareetarako bioteknologia modernoaren fundatzaileetako bat izan zen",
    "eventYear": "1939",
    "image": "https://calendario-cientifico-escolar.github.io/images/personajes/33.png"
}