{
    "lang": "en",
    "year": 2021,
    "month": 2,
    "day": 3,
    "title": "February 3, 1900",
    "body": " Juana \u00c1lvarez-Prida y Vega was born. She was one of the first Spanish chemists. In 1990, she received the first Progressive Women in Science Award",
    "eventYear": "1900",
    "image": "https://calendario-cientifico-escolar.github.io/images/personajes/34.png"
}