{
    "lang": "astu",
    "year": 2021,
    "month": 2,
    "day": 4,
    "title": "4 de febreru de 1896",
    "body": " Thaddeus Cahill solicit\u00f3 la patente del telarmoniu, el primer instrumentu musical dafechamente electr\u00f3nicu y polif\u00f3nicu. El primer prototipu pesaba 200 tonelaes y ten\u00eda un llargor de 18 metros",
    "eventYear": "1896",
    "image": "https://calendario-cientifico-escolar.github.io/images/personajes/35.png"
}