{
    "lang": "cat",
    "year": 2021,
    "month": 2,
    "day": 5,
    "title": "5 de febrer de 1949",
    "body": " Va n\u00e9ixer la paleont\u00f2loga Nieves L\u00f3pez Mart\u00ednez. Va ser reconeguda internacionalment com a experta en l'evoluci\u00f3 dels lagomorfs (conills, llebres i piques) i en els esdeveniments bi\u00f2tics i ambientals relacionats amb l'extinci\u00f3 massiva del Cretaci-Terciari",
    "eventYear": "1949",
    "image": "https://calendario-cientifico-escolar.github.io/images/personajes/36.png"
}