{
    "lang": "en",
    "year": 2021,
    "month": 2,
    "day": 6,
    "title": "February 6, 2014",
    "body": " NASA published the first image taken by the Curiosity Rover: the image of the Earth and the Moon in the sky of Mars",
    "eventYear": "2014",
    "image": "https://calendario-cientifico-escolar.github.io/images/personajes/37.png"
}