{
    "lang": "arag",
    "year": 2021,
    "month": 2,
    "day": 7,
    "title": "7 de febrero de 1824",
    "body": " Naixe William Huggins. Revolucion\u00f3 l'astronom\u00eda aplicando metodos pa determinar la composici\u00f3n quimica d'as estrelas",
    "eventYear": "1824",
    "image": "https://calendario-cientifico-escolar.github.io/images/personajes/38.png"
}