{
    "lang": "cat",
    "year": 2021,
    "month": 2,
    "day": 7,
    "title": "7 de febrer de 1824",
    "body": " Va n\u00e9ixer William Huggins. Va revolucionar l'astronomia aplicant m\u00e8todes per determinar la composici\u00f3 qu\u00edmica de les estrelles",
    "eventYear": "1824",
    "image": "https://calendario-cientifico-escolar.github.io/images/personajes/38.png"
}