{
    "lang": "arag",
    "year": 2021,
    "month": 2,
    "day": 9,
    "title": "9 de febrero de 1859",
    "body": " Naixe lo constructor d'organos Robert Hope-Jones. Desenroll\u00f3 un organo de teatro pa acompanyar a las cintas mudas. Basando-se en o suyo mecanismo, patent\u00f3 lo diafono, que ye la potent sirena que se plaza chunto a los faros y puede guiar a los barcos en a boira baixa",
    "eventYear": "1859",
    "image": "https://calendario-cientifico-escolar.github.io/images/personajes/40.png"
}