{
    "lang": "eus",
    "year": 2021,
    "month": 2,
    "day": 9,
    "title": "1859/2/9",
    "body": " Robert Hope-Jones organogilea jaio zen. Film mutuetan laguntzeko teatro-organo bat garatu zuen. Haren mekanismoan oinarrituta, diafonoa patentatu zuen, hau da, itsasargien ondoan kokaturik, itsasontziak lanbro artean gida ditzakeen sirena ozena",
    "eventYear": "1859",
    "image": "https://calendario-cientifico-escolar.github.io/images/personajes/40.png"
}