{
    "lang": "astu",
    "year": 2021,
    "month": 6,
    "day": 1,
    "title": "1 de xunu de 1974",
    "body": " La revista Emergency Medicine public\u00f3 la maniobra de Heimlich. Esta operaci\u00f3n destorga les v\u00edes a\u00e9rees torgaes por un oxetu estra\u00f1u",
    "eventYear": "1974",
    "image": "https://calendario-cientifico-escolar.github.io/images/personajes/152.png"
}