{
    "lang": "astu",
    "year": 2021,
    "month": 6,
    "day": 11,
    "title": "11 de xunu de 1910",
    "body": " Naci\u00f3 l\u2019ocean\u00f3grafu y esplorador Jacques-Yves Cousteau. Ye \u00fan de los divulgadores del mundu submar\u00edn de m\u00e1s sonad\u00eda. Grab\u00f3 numberoses pel\u00edcules y documentales a bordu del so buque Calypso. Tami\u00e9n foi una de les primeres persones en defender l\u2019ambiente mar\u00edn frente a la contaminaci\u00f3n",
    "eventYear": "1910",
    "image": "https://calendario-cientifico-escolar.github.io/images/personajes/162.png"
}