{
    "lang": "astu",
    "year": 2021,
    "month": 6,
    "day": 13,
    "title": "13 de xunu de 1868",
    "body": " Naci\u00f3\u2019l f\u00edsicu Wallace Clement Sabine. Foi\u2019l fundador de l\u2019ac\u00fastica arquiteut\u00f3nica y el consultor ac\u00fasticu del Boston\u2019s Symphony Hall. Esta sala de conciertos consid\u00e9rase una de les meyores del mundu pola mor de la so ac\u00fastica perbona",
    "eventYear": "1868",
    "image": "https://calendario-cientifico-escolar.github.io/images/personajes/164.png"
}