{
    "lang": "es",
    "year": 2021,
    "month": 3,
    "day": 7,
    "title": "7 de marzo de 2009",
    "body": " Se lanz\u00f3 el observatorio espacial Kepler. Su misi\u00f3n era descubrir planetas similares a la Tierra alrededor de otras estrellas",
    "eventYear": "2009",
    "image": "https://calendario-cientifico-escolar.github.io/images/personajes/66.png"
}