{
    "lang": "cat",
    "year": 2021,
    "month": 9,
    "day": 10,
    "title": "10 de setembre de 1984",
    "body": " Es va posar a punt la t\u00e8cnica d'empremta gen\u00e8tica, que permet identificar les persones segons el seu ADN. Aquesta t\u00e8cnica va comen\u00e7ar a utilitzar-se en criminologia poc despr\u00e9s",
    "eventYear": "1984",
    "image": "https://calendario-cientifico-escolar.github.io/images/personajes/253.png"
}