{
    "lang": "cat",
    "year": 2021,
    "month": 9,
    "day": 20,
    "title": "20 de setembre de 1906",
    "body": " Va n\u00e9ixer la matem\u00e0tica Vera Fadd\u00e9yeva. Va publicar alguns dels primers treballs sobre \u00e0lgebra lineal",
    "eventYear": "1906",
    "image": "https://calendario-cientifico-escolar.github.io/images/personajes/263.png"
}