{
    "lang": "es",
    "year": 2021,
    "month": 9,
    "day": 11,
    "title": "11 de septiembre de 1942",
    "body": " Naci\u00f3 la economista e historiadora econ\u00f3mica Deirdre McCloskey. Sus investigaciones incluyen el estudio de los or\u00edgenes del mundo moderno, el mal uso de la significaci\u00f3n estad\u00edstica en la econom\u00eda y otras ciencias, y el estudio del capitalismo",
    "eventYear": "1942",
    "image": "https://calendario-cientifico-escolar.github.io/images/personajes/254.png"
}