{
    "lang": "es",
    "year": 2021,
    "month": 9,
    "day": 18,
    "title": "18 de septiembre de 1819",
    "body": " Naci\u00f3 el f\u00edsico Jean Foucault. Invent\u00f3 el giroscopio y el p\u00e9ndulo que demuestra la rotaci\u00f3n de la Tierra",
    "eventYear": "1819",
    "image": "https://calendario-cientifico-escolar.github.io/images/personajes/261.png"
}