{
    "lang": "es",
    "year": 2021,
    "month": 9,
    "day": 22,
    "title": "22 de septiembre de 1863",
    "body": " Naci\u00f3 el microbi\u00f3logo Alexandre Yersin. Fue codescubridor de la bacteria responsable de la peste bub\u00f3nica, que se llama Yersinia pestis en su honor",
    "eventYear": "1863",
    "image": "https://calendario-cientifico-escolar.github.io/images/personajes/265.png"
}