{
    "lang": "es",
    "year": 2021,
    "month": 9,
    "day": 29,
    "title": "29 de septiembre de 1938",
    "body": " Naci\u00f3 el f\u00edsico Enrico Fermi. En 1938, recibi\u00f3 el Premio Nobel de F\u00edsica por sus trabajos sobre radiactividad inducida. Cuatro a\u00f1os despu\u00e9s, realiz\u00f3 la primera reacci\u00f3n nuclear de origen humano",
    "eventYear": "1938",
    "image": "https://calendario-cientifico-escolar.github.io/images/personajes/272.png"
}