{
    "lang": "es",
    "year": 2021,
    "month": 9,
    "day": 4,
    "title": "4 de septiembre de 1998",
    "body": " Larry Page y Sergei Brin fundaron Google. El buscador comenz\u00f3 a desarrollarse en 1996 como un proyecto de investigaci\u00f3n, cuando ellos dos eran estudiantes de doctorado",
    "eventYear": "1998",
    "image": "https://calendario-cientifico-escolar.github.io/images/personajes/247.png"
}