{
    "lang": "es",
    "year": 2021,
    "month": 9,
    "day": 9,
    "title": "9 de septiembre de 1936",
    "body": " Naci\u00f3 la microbi\u00f3loga molecular Daisy Roulland-Dussoix. Colabor\u00f3 en el descubrimiento de las enzimas de restricci\u00f3n",
    "eventYear": "1936",
    "image": "https://calendario-cientifico-escolar.github.io/images/personajes/252.png"
}