{
    "lang": "en",
    "year": 2021,
    "month": 9,
    "day": 28,
    "title": "September 28, 1889",
    "body": " The first General Conference on Weights and Measures defined the meter length as the distance between two lines on a bar made of a platinum alloy with 10% iridium, measured at the melting point of ice",
    "eventYear": "1889",
    "image": "https://calendario-cientifico-escolar.github.io/images/personajes/271.png"
}