{
    "lang": "en",
    "year": 2021,
    "month": 9,
    "day": 9,
    "title": "September 9, 1936",
    "body": " Molecular microbiologist Daisy Roulland-Dussoix was born. She collaborated in the discovery of restriction enzymes",
    "eventYear": "1936",
    "image": "https://calendario-cientifico-escolar.github.io/images/personajes/252.png"
}