{
    "lang": "cat",
    "year": 2021,
    "month": 3,
    "day": 11,
    "title": "11 de mar\u00e7 de 1926",
    "body": " Va n\u00e9ixer el metge i investigador Thomas Earl Starzl. El 1967, va dur a terme el primer trasplantament de fetge amb \u00e8xit (despr\u00e9s de diversos intents fallits)",
    "eventYear": "1926",
    "image": "https://calendario-cientifico-escolar.github.io/images/personajes/70.png"
}