{
    "lang": "cat",
    "year": 2021,
    "month": 3,
    "day": 23,
    "title": "23 de mar\u00e7 de 2005",
    "body": " Jos\u00e9 Luis Carrascosa i el seu equip del Centre Nacional de Biotecnologia van descriure per primera vegada l'estructura del virus de la verola",
    "eventYear": "2005",
    "image": "https://calendario-cientifico-escolar.github.io/images/personajes/82.png"
}