{
    "lang": "cat",
    "year": 2021,
    "month": 3,
    "day": 24,
    "title": "24 de mar\u00e7 de 1882",
    "body": " Robert Koch va anunciar el descobriment del bacteri responsable de la tuberculosi. Era el Mycobacterium tuberculosi (bacil de Koch)",
    "eventYear": "1882",
    "image": "https://calendario-cientifico-escolar.github.io/images/personajes/83.png"
}