{
    "lang": "cat",
    "year": 2021,
    "month": 3,
    "day": 29,
    "title": "29 de mar\u00e7 de 1942",
    "body": " Va n\u00e9ixer la bi\u00f2loga Ann A. Kiessling. Al costat de Mehran Goulian, va descobrir l'activitat de la transcriptasa inversa en c\u00e8l\u00b7lules humanes. Anteriorment es pensava que aquest enzim es trobava nom\u00e9s en els retrovirus",
    "eventYear": "1942",
    "image": "https://calendario-cientifico-escolar.github.io/images/personajes/88.png"
}