{
    "lang": "cat",
    "year": 2021,
    "month": 3,
    "day": 3,
    "title": "3 de mar\u00e7 de 1886",
    "body": " Va n\u00e9ixer l'educadora i pedagoga Helen Parkhurst. Va crear el Pla Dalton. Aquest pla es basa en l'abs\u00e8ncia d'assignatures i l'\u00fas de guies d'investigaci\u00f3 en lloc de llibres de text. La classe es converteix en un laboratori on l'alumnat completa l'aprenentatge a qu\u00e8 es compromet mitjan\u00e7ant un \u00abcontracte\u00bb amb el professorat",
    "eventYear": "1886",
    "image": "https://calendario-cientifico-escolar.github.io/images/personajes/62.png"
}