{
    "lang": "cat",
    "year": 2021,
    "month": 3,
    "day": 6,
    "title": "6 de mar\u00e7 de 1937",
    "body": " Va n\u00e9ixer l'enginyera i cosmonauta Valentina Tereshkova. Va ser la primera dona que va viatjar a l'espai exterior, a bord de la nau Vostok 6",
    "eventYear": "1937",
    "image": "https://calendario-cientifico-escolar.github.io/images/personajes/65.png"
}