{
    "lang": "es",
    "year": 2021,
    "month": 8,
    "day": 18,
    "title": "18 de agosto de 1824",
    "body": " Se fund\u00f3 el Real Conservatorio de Artes y Oficios, que almacena toda la informaci\u00f3n tecnol\u00f3gica y es el registro de la propiedad intelectual",
    "eventYear": "1824",
    "image": "https://calendario-cientifico-escolar.github.io/images/personajes/230.png"
}