{
    "lang": "es",
    "year": 2021,
    "month": 8,
    "day": 21,
    "title": "21 de agosto de 1961",
    "body": " Naci\u00f3 la neurobi\u00f3loga Mara Dierssen. Es una experta mundial en el campo de la neurobiolog\u00eda y la farmacolog\u00eda, y una de las investigadoras m\u00e1s destacadas en el s\u00edndrome de Down",
    "eventYear": "1961",
    "image": "https://calendario-cientifico-escolar.github.io/images/personajes/233.png"
}