{
    "lang": "es",
    "year": 2021,
    "month": 8,
    "day": 25,
    "title": "25 de agosto de 1900",
    "body": " Naci\u00f3 el Premio Nobel Hans Adolf Krebs. Dio nombre al ciclo de Krebs, una ruta metab\u00f3lica que permite la obtenci\u00f3n de energ\u00eda para las c\u00e9lulas aerobias",
    "eventYear": "1900",
    "image": "https://calendario-cientifico-escolar.github.io/images/personajes/237.png"
}