{
    "lang": "es",
    "year": 2021,
    "month": 8,
    "day": 3,
    "title": "3 de agosto de 1958",
    "body": " El submarino at\u00f3mico Nautilus pas\u00f3 bajo la corteza helada del oc\u00e9ano \u00c1rtico, desde el oc\u00e9ano Pac\u00edfico hasta el Atl\u00e1ntico",
    "eventYear": "1958",
    "image": "https://calendario-cientifico-escolar.github.io/images/personajes/215.png"
}