{
    "lang": "es",
    "year": 2021,
    "month": 8,
    "day": 4,
    "title": "4 de agosto de 1932",
    "body": " Naci\u00f3 la inform\u00e1tica Frances Elizabeth Allen. En 2006 se convirti\u00f3 en la primera mujer ganadora del Premio Turing",
    "eventYear": "1932",
    "image": "https://calendario-cientifico-escolar.github.io/images/personajes/216.png"
}