{
    "lang": "arag",
    "year": 2021,
    "month": 4,
    "day": 14,
    "title": "14 d'abril de 1977",
    "body": " Rosemary Hutton publica un articlo sobre c\u00f3mo la conductividat electrica d'as penyas puede usar-se pa investigar la historia cheolochica",
    "eventYear": "1977",
    "image": "https://calendario-cientifico-escolar.github.io/images/personajes/104.png"
}