{
    "lang": "arag",
    "year": 2021,
    "month": 4,
    "day": 17,
    "title": "17 d'abril de 1887",
    "body": " Naixe Clodomiro Picau. Fue pionero en a investigaci\u00f3n sobre serpients y los suyos verenos. Tami\u00e9n esti\u00f3 un d'os precursors d'o descubrimiento d'a penicilina",
    "eventYear": "1887",
    "image": "https://calendario-cientifico-escolar.github.io/images/personajes/107.png"
}