{
    "lang": "arag",
    "year": 2021,
    "month": 4,
    "day": 20,
    "title": "20 d'abril de 2017",
    "body": " Bryan Keith Holland deposita la suya tesi doctoral sobre los microARN d'o VIH. Ye mas conoixiu per la suya embotada \u00abDexter\u00bb y per estar lo cantant y guitarrista d'a banda punk rock The Offsprings",
    "eventYear": "2017",
    "image": "https://calendario-cientifico-escolar.github.io/images/personajes/110.png"
}