{
    "lang": "arag",
    "year": 2021,
    "month": 4,
    "day": 28,
    "title": "28 d'abril de 1932",
    "body": " Se descubre la vacuna contra la fiebre amariella",
    "eventYear": "1932",
    "image": "https://calendario-cientifico-escolar.github.io/images/personajes/118.png"
}