{
    "lang": "es",
    "year": 2021,
    "month": 10,
    "day": 15,
    "title": "15 de octubre de 1902",
    "body": " Naci\u00f3 la m\u00e9dica Amparo Poch y Gasc\u00f3n. Se especializ\u00f3 en puericultura y realiz\u00f3 una gran labor educativa entre las clases sociales m\u00e1s modestas para evitar enfermedades de tipo ven\u00e9reo",
    "eventYear": "1902",
    "image": "https://calendario-cientifico-escolar.github.io/images/personajes/288.png"
}