{
    "lang": "es",
    "year": 2021,
    "month": 10,
    "day": 18,
    "title": "18 de octubre de 1799",
    "body": " Naci\u00f3 el qu\u00edmico Christian Schoenbein. Descubri\u00f3 la nitrocelulosa y puso nombre al ozono",
    "eventYear": "1799",
    "image": "https://calendario-cientifico-escolar.github.io/images/personajes/291.png"
}