{
    "lang": "es",
    "year": 2021,
    "month": 10,
    "day": 29,
    "title": "29 de octubre de 1969",
    "body": " Dos ordenadores de distintas universidades californianas consiguieron conectarse y enviar un mensaje a trav\u00e9s de un nuevo protocolo, ARPANET. Esta red es la precursora de internet",
    "eventYear": "1969",
    "image": "https://calendario-cientifico-escolar.github.io/images/personajes/302.png"
}