{
    "lang": "es",
    "year": 2021,
    "month": 10,
    "day": 3,
    "title": "3 de octubre de 1946",
    "body": " La qu\u00edmica y cristal\u00f3grafa Rosalind Franklin public\u00f3 su doctorado sobre qu\u00edmica del carb\u00f3n. El trabajo fue clave para comprender la estructura molecular del ADN",
    "eventYear": "1946",
    "image": "https://calendario-cientifico-escolar.github.io/images/personajes/276.png"
}