{
    "lang": "es",
    "year": 2021,
    "month": 10,
    "day": 6,
    "title": "6 de octubre de 1897",
    "body": " Naci\u00f3 la bioqu\u00edmica Florence Barbara Seibert. Desarroll\u00f3 un m\u00e9todo para purificar la prote\u00edna derivada de la tuberculina (PPD-S). Esto permiti\u00f3 la creaci\u00f3n de un test fiable para la tuberculosis",
    "eventYear": "1897",
    "image": "https://calendario-cientifico-escolar.github.io/images/personajes/279.png"
}