{
    "lang": "gal",
    "year": 2021,
    "month": 5,
    "day": 15,
    "title": "15 de maio de 1925",
    "body": " Naceu a xenetista Mary Frances Lyon. Descubriu a lionizaci\u00f3n, un fen\u00f3meno mediante o cal se inactiva unha das d\u00faas copias do cromosoma X nas c\u00e9lulas das femias mam\u00edferas",
    "eventYear": "1925",
    "image": "https://calendario-cientifico-escolar.github.io/images/personajes/135.png"
}