{
    "lang": "gal",
    "year": 2021,
    "month": 5,
    "day": 19,
    "title": "19 de maio de 2014",
    "body": " A NASA comezou a construci\u00f3n do robot espacial InSight, que aterrou en Marte en 2018",
    "eventYear": "2014",
    "image": "https://calendario-cientifico-escolar.github.io/images/personajes/139.png"
}