{
    "lang": "gal",
    "year": 2021,
    "month": 5,
    "day": 27,
    "title": "27 de maio de 1931",
    "body": " Naceu o economista Philip Kotler. \u00c9 considerado o pai do m\u00e1rketing moderno",
    "eventYear": "1931",
    "image": "https://calendario-cientifico-escolar.github.io/images/personajes/147.png"
}