{
    "lang": "en",
    "year": 2021,
    "month": 1,
    "day": 18,
    "title": "January 18, 1969",
    "body": " An astronomy team at the University of Arizona detected the optical signals from a pulsar for the first time",
    "eventYear": "1969",
    "image": "https://calendario-cientifico-escolar.github.io/images/personajes/18.png"
}