{
    "lang": "en",
    "year": 2021,
    "month": 1,
    "day": 23,
    "title": "January 23, 1921",
    "body": " Archaeologist Marija Gimbutas was born. She proposed the Kurgan hypothesis. This hypothesis combined archeology and linguistics to locate the original settlements of the people who spoke the Proto-Indo-European language",
    "eventYear": "1921",
    "image": "https://calendario-cientifico-escolar.github.io/images/personajes/23.png"
}