{
    "lang": "en",
    "year": 2021,
    "month": 1,
    "day": 26,
    "title": "January 26, 1941",
    "body": " Biochemist Joan Elaine Argetsinger Steitz was born. She gained international fame for her discoveries about RNA",
    "eventYear": "1941",
    "image": "https://calendario-cientifico-escolar.github.io/images/personajes/26.png"
}