{
    "lang": "en",
    "year": 2021,
    "month": 1,
    "day": 5,
    "title": "January 5, 1895",
    "body": " Microbiologist Rebecca Craighill Lancefield was born. She invented a new method to classify bacteria from the Streptococcus group",
    "eventYear": "1895",
    "image": "https://calendario-cientifico-escolar.github.io/images/personajes/5.png"
}