{
    "lang": "en",
    "year": 2021,
    "month": 1,
    "day": 9,
    "title": "January 9, 1923",
    "body": " Inventor Juan de la Cierva used the autogyro successfully. This aircraft is a mixture of an airplane and a helicopter",
    "eventYear": "1923",
    "image": "https://calendario-cientifico-escolar.github.io/images/personajes/9.png"
}