{
    "lang": "astu",
    "year": 2021,
    "month": 2,
    "day": 26,
    "title": "26 de febreru de 1958",
    "body": " Naci\u00f3 Susan Helms, muyer astronauta que bati\u00f3\u2019l r\u00e9cor del pas\u00e9u espacial m\u00e1s llargu (cuasi 9 hores)",
    "eventYear": "1958",
    "image": "https://calendario-cientifico-escolar.github.io/images/personajes/57.png"
}