{
    "lang": "astu",
    "year": 2021,
    "month": 2,
    "day": 7,
    "title": "7 de febreru de 1824",
    "body": " Naci\u00f3 William Huggins. Revolucion\u00f3 l\u2019astronom\u00eda al aplicar m\u00e9todos pa determinar la composici\u00f3n qu\u00edmica de les estrelles",
    "eventYear": "1824",
    "image": "https://calendario-cientifico-escolar.github.io/images/personajes/38.png"
}