{
    "lang": "eus",
    "year": 2021,
    "month": 11,
    "day": 18,
    "title": "2010/11/18",
    "body": " ASURrek Eskola Egutegi Zientifikoaren lehen edizioa kaleratu zuen, Errumanian",
    "eventYear": "2010",
    "image": "https://calendario-cientifico-escolar.github.io/images/personajes/322.png"
}