{
    "lang": "eus",
    "year": 2021,
    "month": 11,
    "day": 20,
    "title": "1985/11/20",
    "body": " Leonard Lee Bailey zirujauak haur jaio berri bati lehen bihotz-transplante arrakastatsua egin zion",
    "eventYear": "1985",
    "image": "https://calendario-cientifico-escolar.github.io/images/personajes/324.png"
}