{
    "lang": "eus",
    "year": 2021,
    "month": 11,
    "day": 24,
    "title": "2021/11/24",
    "body": " Eboluzioaren eguna. 1859an Charles Darwinen \"Espezieen jatorria\" liburua argitaratu izana ospatzen da",
    "eventYear": "2021",
    "image": "https://calendario-cientifico-escolar.github.io/images/personajes/328.png"
}