{
    "lang": "eus",
    "year": 2021,
    "month": 11,
    "day": 3,
    "title": "1957/11/3",
    "body": " Laikak espaziora bidaia egin zuen, Sputnik 2 ontzian. Hala, hegaldi espazial bat egin zuen lehen animalia izan zen",
    "eventYear": "1957",
    "image": "https://calendario-cientifico-escolar.github.io/images/personajes/307.png"
}