{
    "lang": "arag",
    "year": 2021,
    "month": 11,
    "day": 1,
    "title": "1 de noviembre de 1952",
    "body": " S'a\u00edsla per primer vegada l'elemento quimico con numero atomico 100. Lo suyo nombre (fermio) ye un homenache a lo fisico Enrico Fermi",
    "eventYear": "1952",
    "image": "https://calendario-cientifico-escolar.github.io/images/personajes/305.png"
}