{
    "lang": "arag",
    "year": 2021,
    "month": 11,
    "day": 14,
    "title": "14 de noviembre de 1863",
    "body": " Naixe lo quimico Leo Baekeland. Va inventar la baquelita, lo primer plastico sintetico. Lo suyo baixo coste y versatilidat la van fer muito popular",
    "eventYear": "1863",
    "image": "https://calendario-cientifico-escolar.github.io/images/personajes/318.png"
}