{
    "lang": "arag",
    "year": 2021,
    "month": 11,
    "day": 17,
    "title": "17 de noviembre de 2015",
    "body": " Un total de 195 estaus ratifican la creaci\u00f3n d'os Cheoparques Mundials d'a UNESCO. Se tracta de puestos con un patrimonio cheolochico de relevancia internacional que s'emplegan pa promover lo desenrollo sostenible d'as comunidatz que habitan en ells",
    "eventYear": "2015",
    "image": "https://calendario-cientifico-escolar.github.io/images/personajes/321.png"
}