{
    "lang": "arag",
    "year": 2021,
    "month": 11,
    "day": 23,
    "title": "23 de noviembre de 2002",
    "body": " Muere lo bioquimico \u00c1ngel Mart\u00edn Municio, lo primer miembro espanyol d'a Organizaci\u00f3n Europea de Bioloch\u00eda Molecular. Fue president d'a Reyal Academia de Sciencias Exactas, Fisicas y Naturals, per 17 anyos",
    "eventYear": "2002",
    "image": "https://calendario-cientifico-escolar.github.io/images/personajes/327.png"
}