{
    "lang": "arag",
    "year": 2021,
    "month": 11,
    "day": 27,
    "title": "27 de noviembre de 1895",
    "body": " Alfred Nobel signa lo suyo testamento. En ell establiba la creaci\u00f3n d'un fondo que s'emplegar\u00eda pa atorgar cinco premios anyals: los Premios Nobel",
    "eventYear": "1895",
    "image": "https://calendario-cientifico-escolar.github.io/images/personajes/331.png"
}