{
    "lang": "arag",
    "year": 2021,
    "month": 11,
    "day": 6,
    "title": "6 de noviembre de 1935",
    "body": " L'inchenyero Edwin Armstrong presenta lo estudio titulau \u00abUn metodo de reducci\u00f3n de molestias en a radio per medio d'un sistema de modulaci\u00f3n per freq\u00fcencia\u00bb. Se va crear asinas la radio FM (freq\u00fcencia modulada)",
    "eventYear": "1935",
    "image": "https://calendario-cientifico-escolar.github.io/images/personajes/310.png"
}