{
    "lang": "en",
    "year": 2021,
    "month": 2,
    "day": 14,
    "title": "February 14, 2005",
    "body": " A team of CSIC researchers obtained and sequenced DNA from a Neanderthal individual from the El Sidr\u00f3n site",
    "eventYear": "2005",
    "image": "https://calendario-cientifico-escolar.github.io/images/personajes/45.png"
}