{
    "lang": "cat",
    "year": 2021,
    "month": 7,
    "day": 10,
    "title": "10 de juliol de 2020",
    "body": " El CSIC va desenvolupar nanosondes amb aplicacions en el diagn\u00f2stic i el tractament de malalties. Les nanosondes poden utilitzar-se per detectar els primers estadis d'una malaltia, per dirigir f\u00e0rmacs de forma focalitzada i com a transportadors d'ADN o de virus",
    "eventYear": "2020",
    "image": "https://calendario-cientifico-escolar.github.io/images/personajes/191.png"
}