{
    "lang": "cat",
    "year": 2021,
    "month": 7,
    "day": 17,
    "title": "17 de juliol de 1819",
    "body": " Va n\u00e9ixer la climat\u00f2loga i inventora Eunice Newton Foote. Va ser una pionera en la investigaci\u00f3 de l'efecte hivernacle. Es va anticipar tres anys als experiments de John Tyndall, a qui es considerava descobridor de l'efecte del CO2 en l'atmosfera",
    "eventYear": "1819",
    "image": "https://calendario-cientifico-escolar.github.io/images/personajes/198.png"
}