{
    "lang": "cat",
    "year": 2021,
    "month": 7,
    "day": 20,
    "title": "20 de juliol de 1969",
    "body": " El m\u00f2dul lunar d'Apollo 11, anomenat Eagle, va aterrar amb \u00e8xit a la Lluna",
    "eventYear": "1969",
    "image": "https://calendario-cientifico-escolar.github.io/images/personajes/201.png"
}