{
    "lang": "cat",
    "year": 2021,
    "month": 7,
    "day": 28,
    "title": "28 de juliol de 1635",
    "body": " Va n\u00e9ixer el cient\u00edfic angl\u00e8s Robert Hooke. Va ser la primera persona que va descriure la vida microsc\u00f2pica en el seu llibre Micrographia. Aquest llibre cont\u00e9 per primera vegada la paraula c\u00e8l\u00b7lula",
    "eventYear": "1635",
    "image": "https://calendario-cientifico-escolar.github.io/images/personajes/209.png"
}