{
    "lang": "cat",
    "year": 2021,
    "month": 7,
    "day": 7,
    "title": "7 de juliol de 1924",
    "body": " Va n\u00e9ixer la neurocient\u00edfica i psic\u00f2loga Natalia Petrovna Bekhtereva. Va posar en marxa un m\u00e8tode complex per estudiar els mecanismes cerebrals del pensament, la mem\u00f2ria, les emocions i la creativitat",
    "eventYear": "1924",
    "image": "https://calendario-cientifico-escolar.github.io/images/personajes/188.png"
}