{
    "lang": "eus",
    "year": 2021,
    "month": 2,
    "day": 12,
    "title": "1809/2/12",
    "body": " Charles Darwin jaio zen, hautespen natural bidezko eboluzioaren teoria egin zuen naturalista ospetsua",
    "eventYear": "1809",
    "image": "https://calendario-cientifico-escolar.github.io/images/personajes/43.png"
}