{
    "lang": "eus",
    "year": 2021,
    "month": 2,
    "day": 17,
    "title": "1874/2/17",
    "body": " Ida Helen Ogilvie geologoa jaio zen. Labaren propietateak aurkitu zituen, baita aridotasunak lurzoruen higaduren gainean eragiten dituen efektuak ere",
    "eventYear": "1874",
    "image": "https://calendario-cientifico-escolar.github.io/images/personajes/48.png"
}