{
    "lang": "eus",
    "year": 2021,
    "month": 2,
    "day": 21,
    "title": "1947/2/21",
    "body": " Edwin Herbert Land asmatzaileak, lehen aldiz, argazkien bat-bateko kamera bat aurkeztu zuen jendaurrean: Polaroid Land Camera",
    "eventYear": "1947",
    "image": "https://calendario-cientifico-escolar.github.io/images/personajes/52.png"
}