{
    "lang": "eus",
    "year": 2021,
    "month": 2,
    "day": 26,
    "title": "1958/2/26",
    "body": " Susan Helms jaio zen, espazioan barreneko paseorik luzeenaren marka hautsi zuen emakume astronauta: ia 9 ordu",
    "eventYear": "1958",
    "image": "https://calendario-cientifico-escolar.github.io/images/personajes/57.png"
}