{
    "lang": "eus",
    "year": 2021,
    "month": 2,
    "day": 5,
    "title": "1949/2/5",
    "body": " Nieves L\u00f3pez Mart\u00ednez paleontologoa jaio zen. Nazioartean ospea lortu zuen, logomorfoen eboluzioan (untxiak, erbiak eta pikak) eta Kretazeo-Tertziarioko desagertze masiboarekin lotutako gertaera biotiko eta ingurumenekoen alorrean aditua baitzen",
    "eventYear": "1949",
    "image": "https://calendario-cientifico-escolar.github.io/images/personajes/36.png"
}