{
    "lang": "eus",
    "year": 2021,
    "month": 2,
    "day": 8,
    "title": "1825/2/8",
    "body": " Henry Bates jaio zen. Zera aurkitu zuen, harrapariengandik babesteko, kaltegarriak ez diren tximeleta batzuek beste espezie toxiko batzuen itxura handia hartzen dutela (Batesen mimetismoa)",
    "eventYear": "1825",
    "image": "https://calendario-cientifico-escolar.github.io/images/personajes/39.png"
}