{
    "lang": "gal",
    "year": 2021,
    "month": 5,
    "day": 11,
    "title": "11 de maio de 2011",
    "body": " Tivo lugar un terremoto en Lorca (Murcia) cunha magnitude de 5,2 Mw. Causou un grande impacto, con 9 v\u00edtimas mortais e cuantiosos danos materiais",
    "eventYear": "2011",
    "image": "https://calendario-cientifico-escolar.github.io/images/personajes/131.png"
}