{
    "lang": "arag",
    "year": 2021,
    "month": 5,
    "day": 12,
    "title": "12 de mayo de 1910",
    "body": " Naixe la Premio Nobel Dorothy Crowfoot Hodgkin. Va determinar la estructura 3D de moleculas como la penicilina u la insulina. La estructura 3D ye clau pa entender las suyas funcions",
    "eventYear": "1910",
    "image": "https://calendario-cientifico-escolar.github.io/images/personajes/132.png"
}