{
    "lang": "gal",
    "year": 2021,
    "month": 5,
    "day": 14,
    "title": "14 de maio de 1899",
    "body": " Naceu a bi\u00f3loga Charlotte Auerbach. Especializouse en zoolox\u00eda e xen\u00e9tica, e contribu\u00edu ao descubrimento da mutax\u00e9nese e dos seus efectos. F\u00edxose c\u00e9lebre en 1942 cando puxo de manifesto, xunto con Alfred Joseph Clark e J. M. Robson, que o gas mostaza pod\u00eda causar mutaci\u00f3ns",
    "eventYear": "1899",
    "image": "https://calendario-cientifico-escolar.github.io/images/personajes/134.png"
}