{
    "lang": "arag",
    "year": 2021,
    "month": 5,
    "day": 15,
    "title": "15 de mayo de 1925",
    "body": " Naixe la chenetista Mary Frances Lyon. Descubri\u00f3 la lionizaci\u00f3n, un fenomeno per medio d'o qual s'inactiva una d'as dos copias d'o cromosoma X en as celulas d'as fembras mamiferas",
    "eventYear": "1925",
    "image": "https://calendario-cientifico-escolar.github.io/images/personajes/135.png"
}