{
    "lang": "cat",
    "year": 2021,
    "month": 5,
    "day": 15,
    "title": "15 de maig de 1925",
    "body": " Va n\u00e9ixer la genetista Mary Frances Lyon. Va descobrir la lionitzaci\u00f3 del cromosoma X, un fenomen mitjan\u00e7ant el qual s'inactiva una de les dues c\u00f2pies del cromosoma X en les c\u00e8l\u00b7lules de les femelles mam\u00edferes",
    "eventYear": "1925",
    "image": "https://calendario-cientifico-escolar.github.io/images/personajes/135.png"
}