{
    "lang": "es",
    "year": 2021,
    "month": 5,
    "day": 15,
    "title": "15 de mayo de 1925",
    "body": " Naci\u00f3 la genetista Mary Frances Lyon. Descubri\u00f3 la lionizaci\u00f3n, un fen\u00f3meno mediante el cual se inactiva una de las dos copias del cromosoma X en las c\u00e9lulas de las hembras mam\u00edferas",
    "eventYear": "1925",
    "image": "https://calendario-cientifico-escolar.github.io/images/personajes/135.png"
}