{
    "lang": "es",
    "year": 2021,
    "month": 5,
    "day": 16,
    "title": "16 de mayo de 1919",
    "body": " Naci\u00f3 el ocean\u00f3grafo y ec\u00f3logo Ram\u00f3n Margalef. Introdujo la Teor\u00eda de la Informaci\u00f3n en Ecolog\u00eda y el \u00edndice de Shannon-Weaver como medida de diversidad",
    "eventYear": "1919",
    "image": "https://calendario-cientifico-escolar.github.io/images/personajes/136.png"
}