{
    "lang": "eus",
    "year": 2021,
    "month": 5,
    "day": 16,
    "title": "1919/5/16",
    "body": " Ram\u00f3n Margalef ozeanografo eta ekologoa jaio zen. Informazioaren Teoria Ekologian aplikatu zuen, eta Shannon-Weaverren indizea sortu zuen, dibertsitate-neurri gisa",
    "eventYear": "1919",
    "image": "https://calendario-cientifico-escolar.github.io/images/personajes/136.png"
}