{
    "lang": "astu",
    "year": 2021,
    "month": 5,
    "day": 17,
    "title": "17 de mayu de 1749",
    "body": " Naci\u00f3 l\u2019inmun\u00f3logu Edward Jenner. Llogr\u00f3 la primer vacuna de la historia, concretamente contra la viruela",
    "eventYear": "1749",
    "image": "https://calendario-cientifico-escolar.github.io/images/personajes/137.png"
}