{
    "lang": "en",
    "year": 2021,
    "month": 5,
    "day": 19,
    "title": "May 19, 2014",
    "body": " NASA began construction of the InSight space robot, which landed on Mars in 2018",
    "eventYear": "2014",
    "image": "https://calendario-cientifico-escolar.github.io/images/personajes/139.png"
}