{
    "lang": "es",
    "year": 2021,
    "month": 5,
    "day": 21,
    "title": "21 de mayo de 1921",
    "body": " Naci\u00f3 el f\u00edsico Andr\u00e9i S\u00e1jarov. Particip\u00f3 en el desarrollo de bombas at\u00f3micas en los a\u00f1os 50. Posteriormente, luch\u00f3 contra la proliferaci\u00f3n de armas nucleares y fue galardonado con el Premio Nobel de la Paz en 1975",
    "eventYear": "1921",
    "image": "https://calendario-cientifico-escolar.github.io/images/personajes/141.png"
}