{
    "lang": "cat",
    "year": 2021,
    "month": 5,
    "day": 22,
    "title": "22 de maig de 1960",
    "body": " Va tenir lloc el Gran Terratr\u00e8mol de Xile. \u00c9s el terratr\u00e8mol de major magnitud que hagi estat registrat (9,5 en pot\u00e8ncia de magnitud de moment). Va provocar sismes submarins que van arribar a Hawaii, Jap\u00f3 i R\u00fassia, i l'erupci\u00f3 del volc\u00e0 Puyehue",
    "eventYear": "1960",
    "image": "https://calendario-cientifico-escolar.github.io/images/personajes/142.png"
}