{
    "lang": "en",
    "year": 2021,
    "month": 5,
    "day": 22,
    "title": "May 22, 1960",
    "body": " The Great Earthquake in Chile took place. It is the largest earthquake ever recorded (9.5 on the moment magnitude scale). It caused tidal waves that reached Hawaii, Japan, and Russia, and the eruption of the Puyehue volcano",
    "eventYear": "1960",
    "image": "https://calendario-cientifico-escolar.github.io/images/personajes/142.png"
}