{
    "lang": "cat",
    "year": 2021,
    "month": 5,
    "day": 23,
    "title": "23 de maig de 1954",
    "body": " Va n\u00e9ixer el bi\u00f2leg Keith Campbell. Va ser una persona clau de l'equip que va clonar l'ovella Dolly a l'Institut Roslin d'Edimburg",
    "eventYear": "1954",
    "image": "https://calendario-cientifico-escolar.github.io/images/personajes/143.png"
}