{
    "lang": "gal",
    "year": 2021,
    "month": 5,
    "day": 23,
    "title": "23 de maio de 1954",
    "body": " Naceu o bi\u00f3logo Keith Campbell. Foi unha persoa clave do equipo que clonou a ovella Dolly no Instituto Roslin de Edimburgo",
    "eventYear": "1954",
    "image": "https://calendario-cientifico-escolar.github.io/images/personajes/143.png"
}