{
    "lang": "en",
    "year": 2021,
    "month": 5,
    "day": 25,
    "title": "May 25, 1880",
    "body": " Neurologist Jean Alexandre Barr\u00e9 was born. He identified the Guillain-Barr\u00e9 syndrome, a rare neurological disease",
    "eventYear": "1880",
    "image": "https://calendario-cientifico-escolar.github.io/images/personajes/145.png"
}