{
    "lang": "arag",
    "year": 2021,
    "month": 5,
    "day": 26,
    "title": "26 de mayo de 1872",
    "body": " Naixe Trinidat Arroyo Villaverde. Va estar la primer oftalmologa espanyola",
    "eventYear": "1872",
    "image": "https://calendario-cientifico-escolar.github.io/images/personajes/146.png"
}