{
    "lang": "arag",
    "year": 2021,
    "month": 5,
    "day": 28,
    "title": "28 de mayo de 1912",
    "body": " Naixe l'astronoma Ruby Violet Payne-Scott. Va estudiar la influencia d'o campo magnetico d'a Tierra y las erupcions solars",
    "eventYear": "1912",
    "image": "https://calendario-cientifico-escolar.github.io/images/personajes/148.png"
}