{
    "lang": "gal",
    "year": 2021,
    "month": 5,
    "day": 29,
    "title": "29 de maio de 1826",
    "body": " Naceu o xastre Ebenezer Butterick. Xunto \u00e1 s\u00faa muller, Ellen Augusta Pollard, inventaron e comercializaron os padr\u00f3ns de costura modernos. Tales padr\u00f3ns ti\u00f1an graduaci\u00f3ns con m\u00faltiples talles est\u00e1ndares",
    "eventYear": "1826",
    "image": "https://calendario-cientifico-escolar.github.io/images/personajes/149.png"
}