{
    "lang": "es",
    "year": 2021,
    "month": 5,
    "day": 2,
    "title": "2 de mayo de 1997",
    "body": " El equipo cient\u00edfico de Atapuerca obtuvo el premio Pr\u00edncipe de Asturias de Investigaci\u00f3n Cient\u00edfica y T\u00e9cnica por el descubrimiento del Homo antecessor. Este hom\u00ednido vivi\u00f3 en Europa hace 800.000 a\u00f1os",
    "eventYear": "1997",
    "image": "https://calendario-cientifico-escolar.github.io/images/personajes/122.png"
}