{
    "lang": "astu",
    "year": 2021,
    "month": 5,
    "day": 30,
    "title": "30 de mayu de 2021",
    "body": " D\u00eda Mundial de la Esclerosis M\u00faltiple. Cel\u00e9brase cada a\u00f1u pa compartir hestories, concenciar a la socied\u00e1 y facer campa\u00f1es con y pa tolos afeutaos por esta enfermed\u00e1",
    "eventYear": "2021",
    "image": "https://calendario-cientifico-escolar.github.io/images/personajes/150.png"
}