{
    "lang": "es",
    "year": 2021,
    "month": 5,
    "day": 30,
    "title": "30 de mayo de 2021",
    "body": " D\u00eda Mundial de la Esclerosis M\u00faltiple. Se celebra cada a\u00f1o para compartir historias, concienciar a la sociedad y hacer campa\u00f1as con y para todos los afectados por esta enfermedad",
    "eventYear": "2021",
    "image": "https://calendario-cientifico-escolar.github.io/images/personajes/150.png"
}