{
    "lang": "gal",
    "year": 2021,
    "month": 5,
    "day": 3,
    "title": "3 de maio de 1910",
    "body": " Naceu a arque\u00f3loga Anne Strachan Robertson. \u00c9 co\u00f1ecida polos seus estudos do muro de Antonino e as moedas imperiais romanas",
    "eventYear": "1910",
    "image": "https://calendario-cientifico-escolar.github.io/images/personajes/123.png"
}