{
    "lang": "eus",
    "year": 2021,
    "month": 5,
    "day": 4,
    "title": "1825/5/4",
    "body": " Thomas Huxley biologoa jaio zen. Hegaztiak dinosauroengandik abiatuta bilakatu zirela iradoki zuen lehena izan zen",
    "eventYear": "1825",
    "image": "https://calendario-cientifico-escolar.github.io/images/personajes/124.png"
}