{
    "lang": "gal",
    "year": 2021,
    "month": 5,
    "day": 5,
    "title": "5 de maio de 1882",
    "body": " Naceu o m\u00e9dico e cient\u00edfico espa\u00f1ol P\u00edo del R\u00edo Ortega. Descubriu a microgl\u00eda, un tipo de c\u00e9lula do sistema nervioso",
    "eventYear": "1882",
    "image": "https://calendario-cientifico-escolar.github.io/images/personajes/125.png"
}