{
    "lang": "es",
    "year": 2021,
    "month": 5,
    "day": 6,
    "title": "6 de mayo de 1840",
    "body": " Sali\u00f3 a la venta el primer sello adhesivo. Ten\u00eda el perfil de la reina Victoria del Reino Unido y era conocido como el penny black",
    "eventYear": "1840",
    "image": "https://calendario-cientifico-escolar.github.io/images/personajes/126.png"
}