{
    "lang": "es",
    "year": 2021,
    "month": 5,
    "day": 7,
    "title": "7 de mayo de 1954",
    "body": " Empez\u00f3 la construcci\u00f3n del Puente Mackinac en Michigan. Fue el puente colgante m\u00e1s largo del mundo en su momento",
    "eventYear": "1954",
    "image": "https://calendario-cientifico-escolar.github.io/images/personajes/127.png"
}