{
    "lang": "en",
    "year": 2021,
    "month": 5,
    "day": 9,
    "title": "May 9, 1882",
    "body": " William H. Ford patented the design of a stethoscope in the shape that is still used today",
    "eventYear": "1882",
    "image": "https://calendario-cientifico-escolar.github.io/images/personajes/129.png"
}