{
    "lang": "eus",
    "year": 2021,
    "month": 8,
    "day": 1,
    "title": "1920/8/1",
    "body": " Henrietta Lacks jaio zen. 31 urterekin, umetoki-lepoko minbizi baten ondorioz hil zen, eta, nahi gabe, bere minbizi-zelulen emaile bihurtu zen. Zelula horiekin zelula-kultiboko linea hilezkor bat garatu zen, HeLa izenekoa (haren izenaren akronimoa), milaka eta milaka azterlan zientifiko egiteko baliagarri izan dena",
    "eventYear": "1920",
    "image": "https://calendario-cientifico-escolar.github.io/images/personajes/213.png"
}