{
    "lang": "eus",
    "year": 2021,
    "month": 8,
    "day": 18,
    "title": "1824/8/18",
    "body": " Real Conservatorio de Artes y Oficios sortu zen; informazio teknologiko guztia biltegiratzen du, eta jabetza intelektualaren erregistroa da",
    "eventYear": "1824",
    "image": "https://calendario-cientifico-escolar.github.io/images/personajes/230.png"
}