{
    "lang": "eus",
    "year": 2021,
    "month": 8,
    "day": 20,
    "title": "1994/8/20",
    "body": " Txertaketa-kanpainei esker, Amerikako kontinentean poliomielitisa desagerrarazia zela deklaratu zuten",
    "eventYear": "1994",
    "image": "https://calendario-cientifico-escolar.github.io/images/personajes/232.png"
}