{
    "lang": "eus",
    "year": 2021,
    "month": 8,
    "day": 22,
    "title": "1945/8/22",
    "body": " Ida Henrietta Hyde fisiologoa hil zen. Mikroelektrodo bat garatu zuen, ehunak estimulatzeko behar adinako indarra izanik, zelula batetik ehuna ateratzeko behar bezain txikia zena",
    "eventYear": "1945",
    "image": "https://calendario-cientifico-escolar.github.io/images/personajes/234.png"
}