{
    "lang": "eus",
    "year": 2021,
    "month": 8,
    "day": 25,
    "title": "1900/8/25",
    "body": " Hans Adolf Krebs Nobel Saria jaio zen. \u201cKrebsen zikloari\u201d izena eman zion: ibilbide metaboliko bat da, zelula aerobioetarako energia lortzea ahalbidetzen duena",
    "eventYear": "1900",
    "image": "https://calendario-cientifico-escolar.github.io/images/personajes/237.png"
}