{
    "lang": "eus",
    "year": 2021,
    "month": 8,
    "day": 27,
    "title": "1956/8/27",
    "body": " Calder Halleko zentral nuklearra, Erresuma Batuan biztanleria zibila elektrizitatez hornitu zuen lehena izan zen",
    "eventYear": "1956",
    "image": "https://calendario-cientifico-escolar.github.io/images/personajes/239.png"
}