{
    "lang": "eus",
    "year": 2021,
    "month": 8,
    "day": 5,
    "title": "2013/8/5",
    "body": " Japoniako konpainia batek tirita berrerabilgarri bat garatu zuen hipertentsio arterial kronikoa tratatzeko, bisoprolola etengabe askatuz",
    "eventYear": "2013",
    "image": "https://calendario-cientifico-escolar.github.io/images/personajes/217.png"
}