{
    "lang": "arag",
    "year": 2021,
    "month": 10,
    "day": 13,
    "title": "13 d'octubre de 1914",
    "body": " Garret Morgan patenta la careta de gas. Uns anyos dimpu\u00e9s, este inventor cre\u00f3 lo semaforo automatico con luz d'alvertencia",
    "eventYear": "1914",
    "image": "https://calendario-cientifico-escolar.github.io/images/personajes/286.png"
}