{
    "lang": "eus",
    "year": 2021,
    "month": 4,
    "day": 13,
    "title": "2014/4/13",
    "body": " IGMEren Subvent espedizioak muskuilu kimiosintetikoen multzo handiak aurkitu zituen metano-iturburuen inguruan, C\u00e1dizeko Golkoan. Lanzaroten urpeko sumendi berriak ere aurkitu zituen",
    "eventYear": "2014",
    "image": "https://calendario-cientifico-escolar.github.io/images/personajes/103.png"
}