{
    "lang": "en",
    "year": 2021,
    "month": 8,
    "day": 10,
    "title": "August 10, 2017",
    "body": " An IGME team sequenced, for the first time, acoustic images of volcanic plumes emitted during the eruption of an underwater volcano. The study was conducted near the El Hierro island",
    "eventYear": "2017",
    "image": "https://calendario-cientifico-escolar.github.io/images/personajes/222.png"
}