{
    "lang": "arag",
    "year": 2021,
    "month": 8,
    "day": 11,
    "title": "11 d'agosto de 1858",
    "body": " Naixe lo Premio Nobel Christiaan Eijkman. Ye conoixiu per estar lo descubridor d'a importancia d'as vitaminas en a dieta. Descubri\u00f3 la vitamina B1",
    "eventYear": "1858",
    "image": "https://calendario-cientifico-escolar.github.io/images/personajes/223.png"
}