{
    "lang": "eus",
    "year": 2021,
    "month": 8,
    "day": 11,
    "title": "1858/8/11",
    "body": " Christiaan Eijkman Nobel Saria jaio zen. Bitaminek dietan duten garrantzia aurkitu zuelako da ezaguna. B1 bitamina aurkitu zuen",
    "eventYear": "1858",
    "image": "https://calendario-cientifico-escolar.github.io/images/personajes/223.png"
}