{
    "lang": "en",
    "year": 2021,
    "month": 8,
    "day": 11,
    "title": "August 11, 1858",
    "body": " Nobel Prize winner Christiaan Eijkman was born. He is known for discovering the importance of vitamins in the diet. He also discovered vitamin B1",
    "eventYear": "1858",
    "image": "https://calendario-cientifico-escolar.github.io/images/personajes/223.png"
}