{
    "lang": "gal",
    "year": 2021,
    "month": 8,
    "day": 11,
    "title": "11 de agosto de 1858",
    "body": " Naceu o Premio Nobel Christiaan Eijkman. \u00c9 co\u00f1ecido por ser o descubridor da importancia das vitaminas na dieta. Descubriu a vitamina B1",
    "eventYear": "1858",
    "image": "https://calendario-cientifico-escolar.github.io/images/personajes/223.png"
}