{
    "lang": "eus",
    "year": 2021,
    "month": 8,
    "day": 15,
    "title": "1896/8/15",
    "body": " Gerty Cori biokimikaria jaio zen. Carl senarrarekin batera, glukogenoaren bihurketa katalitikoaren mekanismoa aurkitu zuen: Coriren zikloa. Fisiologia eta Medikuntzaren Nobel Saria irabazi zuen lehen emakumea izan zen",
    "eventYear": "1896",
    "image": "https://calendario-cientifico-escolar.github.io/images/personajes/227.png"
}