{
    "lang": "cat",
    "year": 2021,
    "month": 8,
    "day": 18,
    "title": "18 de agost de 1824",
    "body": " Es va fundar el Reial Conservatori d'Arts i Oficis, que emmagatzema tota la informaci\u00f3 tecnol\u00f2gica i \u00e9s el registre de la propietat intel\u00b7lectual",
    "eventYear": "1824",
    "image": "https://calendario-cientifico-escolar.github.io/images/personajes/230.png"
}