{
    "lang": "astu",
    "year": 2021,
    "month": 8,
    "day": 1,
    "title": "1 d\u2019agostu de 1920",
    "body": " Naci\u00f3 Henrietta Lacks. A los 31 a\u00f1os morri\u00f3 por un c\u00e1ncer de c\u00e9rvix y foi donante involuntaria de les sos c\u00e9lules canceroses. Con elles desendolc\u00f3se una llinia de cultivu celular inmortal llamada HeLa, acr\u00f3nimu del so nome, coles que se fixeron decenes de miles d\u2019estudios cient\u00edficos",
    "eventYear": "1920",
    "image": "https://calendario-cientifico-escolar.github.io/images/personajes/213.png"
}