{
    "lang": "cat",
    "year": 2021,
    "month": 8,
    "day": 1,
    "title": "1 de agost de 1920",
    "body": " Va n\u00e9ixer Henrietta Lacks. Als 31 anys va morir per un c\u00e0ncer de c\u00e8rvix i va ser donant involunt\u00e0ria de les seves c\u00e8l\u00b7lules canceroses. Amb elles es va desenvolupar una l\u00ednia de cultiu cel\u00b7lular immortal anomenada HeLa, acr\u00f2nim del seu nom, amb la qual s'han realitzat desenes de milers d'estudis cient\u00edfics",
    "eventYear": "1920",
    "image": "https://calendario-cientifico-escolar.github.io/images/personajes/213.png"
}