{
    "lang": "es",
    "year": 2021,
    "month": 8,
    "day": 20,
    "title": "20 de agosto de 1994",
    "body": " El continente americano qued\u00f3 declarado libre de poliomielitis gracias a las campa\u00f1as de vacunaci\u00f3n",
    "eventYear": "1994",
    "image": "https://calendario-cientifico-escolar.github.io/images/personajes/232.png"
}