{
    "lang": "eus",
    "year": 2021,
    "month": 8,
    "day": 21,
    "title": "1961/8/21",
    "body": " Mara Dierssen neurobiologoa jaio zen. Mundu-mailako aditua da neurobiologia eta farmakologiaren eremuan, eta Downen sindromearen ikertzaile nagusietako bat",
    "eventYear": "1961",
    "image": "https://calendario-cientifico-escolar.github.io/images/personajes/233.png"
}