{
    "lang": "en",
    "year": 2021,
    "month": 8,
    "day": 21,
    "title": "August 21, 1961",
    "body": " Neurobiologist Mara Dierssen was born. She is a world expert in the fields of neurobiology and pharmacology, and one of the most prominent researchers in Down syndrome",
    "eventYear": "1961",
    "image": "https://calendario-cientifico-escolar.github.io/images/personajes/233.png"
}