{
    "lang": "gal",
    "year": 2021,
    "month": 8,
    "day": 21,
    "title": "21 de agosto de 1961",
    "body": " Naceu a neurobi\u00f3loga Mara Dierssen. \u00c9 unha experta mundial no eido da neurobiolox\u00eda e a farmacolox\u00eda, e unha das investigadoras m\u00e1is salientables na s\u00edndrome de Down",
    "eventYear": "1961",
    "image": "https://calendario-cientifico-escolar.github.io/images/personajes/233.png"
}