{
    "lang": "astu",
    "year": 2021,
    "month": 8,
    "day": 23,
    "title": "23 d\u2019agostu de 1931",
    "body": " Naci\u00f3\u2019l microbi\u00f3logu Hamilton O. Smith. Recibi\u00f3\u2019l Premiu Nobel polos sos trabayos sobre enzimes de restricci\u00f3n, capaces a cortar los \u00e1cidos nucleicos en puntos concretos",
    "eventYear": "1931",
    "image": "https://calendario-cientifico-escolar.github.io/images/personajes/235.png"
}