{
    "lang": "eus",
    "year": 2021,
    "month": 8,
    "day": 23,
    "title": "1931/8/23",
    "body": " Hamilton O. Smith mikrobiologoa jaio zen. Nobel Saria jaso zuen murrizketa-entzimen gainean egin zituen lanengatik; puntu jakinetan azido nukleikoak ebakitzeko gai dira entzima horiek",
    "eventYear": "1931",
    "image": "https://calendario-cientifico-escolar.github.io/images/personajes/235.png"
}