{
    "lang": "en",
    "year": 2021,
    "month": 8,
    "day": 25,
    "title": "August 25, 1900",
    "body": " Nobel Prize winner Hans Adolf Krebs was born. He gave name to the Krebs cycle, a metabolic route that allows the obtention of energy in aerobic cells",
    "eventYear": "1900",
    "image": "https://calendario-cientifico-escolar.github.io/images/personajes/237.png"
}