{
    "lang": "arag",
    "year": 2021,
    "month": 8,
    "day": 26,
    "title": "26 d'agosto de 1860",
    "body": " Naixe l'inchenyero y arqueologo Luis Siret y Cels. Va descubrir los primers chacimientos d'a cultura argarica en o sudeste espanyol. La sociedat argarica va estar una d'as de mayor relevancia en a Europa d'o III y II milenio a.e.c",
    "eventYear": "1860",
    "image": "https://calendario-cientifico-escolar.github.io/images/personajes/238.png"
}