{
    "lang": "arag",
    "year": 2021,
    "month": 8,
    "day": 27,
    "title": "27 d'agosto de 1956",
    "body": " La central nucleyar de Calder Hall esdeviene a primera d'o Reino Uniu en furnir electricidat a la poblaci\u00f3n civil",
    "eventYear": "1956",
    "image": "https://calendario-cientifico-escolar.github.io/images/personajes/239.png"
}