{
    "lang": "es",
    "year": 2021,
    "month": 8,
    "day": 28,
    "title": "28 de agosto de 2013",
    "body": " Se cultivaron cerebros humanos en miniatura, del tama\u00f1o de un guisante, a partir de c\u00e9lulas madre",
    "eventYear": "2013",
    "image": "https://calendario-cientifico-escolar.github.io/images/personajes/240.png"
}