{
    "lang": "eus",
    "year": 2021,
    "month": 8,
    "day": 28,
    "title": "2013/8/28",
    "body": " Miniaturazko giza garunak hazi ziren, ilar baten tamainakoak, ama zeluletatik abiatuta",
    "eventYear": "2013",
    "image": "https://calendario-cientifico-escolar.github.io/images/personajes/240.png"
}