{
    "lang": "cat",
    "year": 2021,
    "month": 8,
    "day": 29,
    "title": "29 de agost de 2019",
    "body": " El major estudi realitzat per esbrinar la import\u00e0ncia dels gens en la conducta sexual va confirmar que no hi ha un \u00fanic gen de l'homosexualitat i va posar de manifest la complexitat de la sexualitat humana",
    "eventYear": "2019",
    "image": "https://calendario-cientifico-escolar.github.io/images/personajes/241.png"
}