{
    "lang": "astu",
    "year": 2021,
    "month": 8,
    "day": 2,
    "title": "2 d\u2019agostu de 1941",
    "body": " Naci\u00f3\u2019l bi\u00f3logu Jules Hoffmann. Recibi\u00f3\u2019l Premiu Nobel polos sos estudios nel campu de la inmunolox\u00eda. Estos trabayos revolucionaron la comprensi\u00f3n del sistema inmune per aciu del descubrimientu de principios fundamentales pa la so activaci\u00f3n",
    "eventYear": "1941",
    "image": "https://calendario-cientifico-escolar.github.io/images/personajes/214.png"
}