{
    "lang": "cat",
    "year": 2021,
    "month": 8,
    "day": 2,
    "title": "2 de agost de 1941",
    "body": " Va n\u00e9ixer el bi\u00f2leg Jules Hoffmann. Va rebre el Premi Nobel pels seus estudis en el camp de la immunologia. Aquests treballs van revolucionar la comprensi\u00f3 del sistema immune mitjan\u00e7ant el descobriment de principis fonamentals per a la seva activaci\u00f3",
    "eventYear": "1941",
    "image": "https://calendario-cientifico-escolar.github.io/images/personajes/214.png"
}