{
    "lang": "eus",
    "year": 2021,
    "month": 8,
    "day": 2,
    "title": "1941/8/2",
    "body": " Jules Hoffmann biologoa jaio zen. Nobel Saria jaso zuen immunologiaren alorrean egindako azterlanengatik. Lan horiek goitik behera aldatu zuten immunologia-sistema ulertzeko modua, haren aktibaziorako funtsezkoak diren printzipioak aurkituz",
    "eventYear": "1941",
    "image": "https://calendario-cientifico-escolar.github.io/images/personajes/214.png"
}