{
    "lang": "astu",
    "year": 2021,
    "month": 8,
    "day": 30,
    "title": "30 d\u2019agostu de 1984",
    "body": " La nave espacial Discovery despeg\u00f3 per primer vegada. Lleg\u00f3 a facer 39 misiones pa la NASA",
    "eventYear": "1984",
    "image": "https://calendario-cientifico-escolar.github.io/images/personajes/242.png"
}