{
    "lang": "cat",
    "year": 2021,
    "month": 8,
    "day": 31,
    "title": "31 de agost de 1912",
    "body": " Va n\u00e9ixer l'investigador Robert F. Borkenstein. Va investigar la influ\u00e8ncia del consum d'alcohol en els accidents de tr\u00e0nsit. Va inventar l'alcohol\u00edmetre, un instrument revolucionari per mesurar el nivell d'alcohol en l'aire espirat",
    "eventYear": "1912",
    "image": "https://calendario-cientifico-escolar.github.io/images/personajes/243.png"
}