{
    "lang": "es",
    "year": 2021,
    "month": 8,
    "day": 31,
    "title": "31 de agosto de 1912",
    "body": " Naci\u00f3 el investigador Robert F. Borkenstein. Investig\u00f3 la influencia del consumo de alcohol en los accidentes de tr\u00e1fico. Invent\u00f3 el alcohol\u00edmetro, un instrumento revolucionario para medir el nivel de alcohol en el aire espirado",
    "eventYear": "1912",
    "image": "https://calendario-cientifico-escolar.github.io/images/personajes/243.png"
}