{
    "lang": "gal",
    "year": 2021,
    "month": 8,
    "day": 31,
    "title": "31 de agosto de 1912",
    "body": " Naceu o investigador Robert F. Borkenstein. Investigou a influencia do consumo de alcohol nos accidentes de tr\u00e1fico. Inventou o alcohol\u00edmetro, un instrumento revolucionario para medir o nivel de alcohol no aire expirado",
    "eventYear": "1912",
    "image": "https://calendario-cientifico-escolar.github.io/images/personajes/243.png"
}