{
    "lang": "astu",
    "year": 2021,
    "month": 8,
    "day": 3,
    "title": "3 d\u2019agostu de 1958",
    "body": " El submar\u00edn at\u00f3micu Nautilus pas\u00f3 so la corteza xelada del oc\u00e9anu \u00c1rticu, dende l\u2019oc\u00e9anu Pac\u00edficu hasta l\u2019Atl\u00e1nticu",
    "eventYear": "1958",
    "image": "https://calendario-cientifico-escolar.github.io/images/personajes/215.png"
}