{
    "lang": "cat",
    "year": 2021,
    "month": 8,
    "day": 4,
    "title": "4 de agost de 1932",
    "body": " Va n\u00e9ixer la inform\u00e0tica Frances Elizabeth Allen. El 2006 es va convertir en la primera dona guanyadora del Premi Turing",
    "eventYear": "1932",
    "image": "https://calendario-cientifico-escolar.github.io/images/personajes/216.png"
}