{
    "lang": "gal",
    "year": 2021,
    "month": 8,
    "day": 5,
    "title": "5 de agosto de 2013",
    "body": " Unha compa\u00f1\u00eda xaponesa desenvolveu un ap\u00f3sito reutilizable para tratar a hipertensi\u00f3n arterial cr\u00f3nica mediante a liberaci\u00f3n continua de bisoprolol",
    "eventYear": "2013",
    "image": "https://calendario-cientifico-escolar.github.io/images/personajes/217.png"
}