{
    "lang": "astu",
    "year": 2021,
    "month": 8,
    "day": 6,
    "title": "6 d\u2019agostu de 1991",
    "body": " El cient\u00edficu de la computaci\u00f3n Tim Berners-Lee punxo en llinia\u2019l primer servidor web. Esti servidor asiti\u00f3se na Organizaci\u00f3n Europea pa la Investigaci\u00f3n Nuclear (CERN)",
    "eventYear": "1991",
    "image": "https://calendario-cientifico-escolar.github.io/images/personajes/218.png"
}