{
    "lang": "arag",
    "year": 2021,
    "month": 8,
    "day": 8,
    "title": "8 d'agosto de 1948",
    "body": " Naixe la inchenyera y cosmonauta Svetlana Sav\u00edtskaya. Va estar la primer muller en fer dos viaches a lo espacio exterior y en caminar per este",
    "eventYear": "1948",
    "image": "https://calendario-cientifico-escolar.github.io/images/personajes/220.png"
}