{
    "lang": "es",
    "year": 2021,
    "month": 8,
    "day": 8,
    "title": "8 de agosto de 1948",
    "body": " Naci\u00f3 la ingeniera y cosmonauta Svetlana Sav\u00edtskaya. Fue la primera mujer en realizar dos viajes al espacio exterior y en caminar por el mismo",
    "eventYear": "1948",
    "image": "https://calendario-cientifico-escolar.github.io/images/personajes/220.png"
}