{
    "lang": "astu",
    "year": 2021,
    "month": 9,
    "day": 12,
    "title": "12 de setiembre de 1958",
    "body": " L\u2019inxenieru ll\u00e9tricu Jack Kilby present\u00f3\u2019l primer circuitu integr\u00e1u del mundu. Los circuitos integraos tami\u00e9n se conocen como chips o microchips",
    "eventYear": "1958",
    "image": "https://calendario-cientifico-escolar.github.io/images/personajes/255.png"
}