{
    "lang": "astu",
    "year": 2021,
    "month": 9,
    "day": 2,
    "title": "2 de setiembre de 1948",
    "body": " Naci\u00f3 la profesora de Secundaria Christa Corrigan McAuliffe. Foi escoyida ente m\u00e1s de 11.000 solicitantes pa participar nel Proyectu Profesor nel Espaciu de la NASA. Christa entamaba facer esperimentos y deprender lleiciones dende l\u2019espaciu. El tresbordador espacial nel que viaxaba espa\u00f1\u00f3 a los 72 segundos del despegue",
    "eventYear": "1948",
    "image": "https://calendario-cientifico-escolar.github.io/images/personajes/245.png"
}