{
    "lang": "astu",
    "year": 2021,
    "month": 9,
    "day": 20,
    "title": "20 de setiembre de 1906",
    "body": " Naci\u00f3 la matem\u00e1tica Vera Fadd\u00e9yeva. Asoley\u00f3 dalgunos de los primeros trabayos sobre \u00e1lxebra llinial",
    "eventYear": "1906",
    "image": "https://calendario-cientifico-escolar.github.io/images/personajes/263.png"
}