{
    "lang": "astu",
    "year": 2021,
    "month": 9,
    "day": 4,
    "title": "4 de setiembre de 1998",
    "body": " Larry Page y Sergei Brin fundaron Google. El buscador empez\u00f3 a desendolcase en 1996 como un proyeutu d\u2019investigaci\u00f3n, cuando ellos dos yeren estudiantes de doctor\u00e1u",
    "eventYear": "1998",
    "image": "https://calendario-cientifico-escolar.github.io/images/personajes/247.png"
}