{
    "lang": "astu",
    "year": 2021,
    "month": 8,
    "day": 12,
    "title": "12 d\u2019agostu de 1898",
    "body": " Naci\u00f3 la xe\u00f3loga marina Mar\u00eda Vas\u00edlievna Kli\u00f3nova. Foi la primer muyer qu\u2019investig\u00f3 en L\u2019Ant\u00e1rtida",
    "eventYear": "1898",
    "image": "https://calendario-cientifico-escolar.github.io/images/personajes/224.png"
}