{
    "lang": "astu",
    "year": 2021,
    "month": 8,
    "day": 21,
    "title": "21 d\u2019agostu de 1961",
    "body": " Naci\u00f3 la neurobi\u00f3logaMara Dierssen. Ye una esperta mundial nel campu de la neurobiolox\u00eda y la farmacolox\u00eda, y una de les investigadores m\u00e1s destacaes nel s\u00edndrome de Down",
    "eventYear": "1961",
    "image": "https://calendario-cientifico-escolar.github.io/images/personajes/233.png"
}