{
    "lang": "astu",
    "year": 2021,
    "month": 8,
    "day": 22,
    "title": "22 d\u2019agostu de 1945",
    "body": " Morri\u00f3 la fisi\u00f3loga D\u00eda Henrietta Hyde. Desendolc\u00f3 un microelectrodu abondo potente como pa estimular tex\u00edos y lo suficientemente peque\u00f1u como pa estrayer tex\u00edu d\u2019una c\u00e9lula",
    "eventYear": "1945",
    "image": "https://calendario-cientifico-escolar.github.io/images/personajes/234.png"
}