{
    "lang": "astu",
    "year": 2021,
    "month": 8,
    "day": 26,
    "title": "26 d\u2019agostu de 1860",
    "body": " Naci\u00f3 l\u2019inxenieru y arque\u00f3logu Lluis Siret y Cels. Afay\u00f3 los primeros xacimientos de la cultura arg\u00e1rica nel sudeste espa\u00f1ol. La socied\u00e1 arg\u00e1rica foi una de les de mayor relevancia na Europa del III ya II mileniu a.y.c",
    "eventYear": "1860",
    "image": "https://calendario-cientifico-escolar.github.io/images/personajes/238.png"
}