{
    "lang": "es",
    "year": 2021,
    "month": 12,
    "day": 1,
    "title": "1 de diciembre de 1913",
    "body": " Naci\u00f3 la psic\u00f3loga Mary Ainsworth. Junto a John Bowlby, desarrollaron la teor\u00eda del apego",
    "eventYear": "1913",
    "image": "https://calendario-cientifico-escolar.github.io/images/personajes/335.png"
}