{
    "lang": "es",
    "year": 2021,
    "month": 12,
    "day": 11,
    "title": "11 de diciembre de 1863",
    "body": " Naci\u00f3 la astr\u00f3noma Annie Jump Cannon. Descubri\u00f3 300 estrellas variables y su trabajo de catalogaci\u00f3n fue fundamental para la actual clasificaci\u00f3n estelar",
    "eventYear": "1863",
    "image": "https://calendario-cientifico-escolar.github.io/images/personajes/345.png"
}