{
    "lang": "es",
    "year": 2021,
    "month": 12,
    "day": 19,
    "title": "19 de diciembre de 2016",
    "body": " La revista Nature nombr\u00f3 a Alexandra Elbakyan una de las diez personas m\u00e1s destacadas del a\u00f1o en ciencia. Alexandra es la fundadora de Sci-Hub, una p\u00e1gina web con acceso gratuito a millones de art\u00edculos cient\u00edficos",
    "eventYear": "2016",
    "image": "https://calendario-cientifico-escolar.github.io/images/personajes/353.png"
}