{
    "lang": "es",
    "year": 2021,
    "month": 12,
    "day": 2,
    "title": "2 de diciembre de 1942",
    "body": " Enrico Fermi puso en funcionamiento la Chicago Pile-1, el primer reactor nuclear artificial del mundo. El reactor estaba formado por una pila de uranio y bloques de grafito",
    "eventYear": "1942",
    "image": "https://calendario-cientifico-escolar.github.io/images/personajes/336.png"
}