{
    "lang": "gal",
    "year": 2021,
    "month": 2,
    "day": 12,
    "title": "12 de febreiro de 1809",
    "body": " Naceu Charles Darwin, o famoso naturalista que elaborou a teor\u00eda da evoluci\u00f3n mediante selecci\u00f3n natural",
    "eventYear": "1809",
    "image": "https://calendario-cientifico-escolar.github.io/images/personajes/43.png"
}