{
    "lang": "gal",
    "year": 2021,
    "month": 2,
    "day": 4,
    "title": "4 de febreiro de 1896",
    "body": " Thaddeus Cahill solicitou a patente do telarmonio, o primeiro instrumento musical enteiramente electr\u00f3nico e polif\u00f3nico. O primeiro prototipo pesaba 200 toneladas e ti\u00f1a unha lonxitude de 18 metros de longo",
    "eventYear": "1896",
    "image": "https://calendario-cientifico-escolar.github.io/images/personajes/35.png"
}