{
    "lang": "gal",
    "year": 2021,
    "month": 2,
    "day": 7,
    "title": "7 de febreiro de 1824",
    "body": " Naceu William Huggins. Revolucionou a astronom\u00eda ao aplicar m\u00e9todos para determinar a composici\u00f3n qu\u00edmica das estrelas",
    "eventYear": "1824",
    "image": "https://calendario-cientifico-escolar.github.io/images/personajes/38.png"
}