{
    "lang": "gal",
    "year": 2021,
    "month": 6,
    "day": 1,
    "title": "1 de xu\u00f1o de 1974",
    "body": " A revista Emergency Medicine publicou a manobra de Heimlich. Esta operaci\u00f3n permite desbloquear as v\u00edas a\u00e9reas obstru\u00eddas por un obxecto estra\u00f1o",
    "eventYear": "1974",
    "image": "https://calendario-cientifico-escolar.github.io/images/personajes/152.png"
}