{
    "lang": "gal",
    "year": 2021,
    "month": 6,
    "day": 13,
    "title": "13 de xu\u00f1o de 1868",
    "body": " Naceu o f\u00edsico Wallace Clement Sabine. Foi o fundador da ac\u00fastica arquitect\u00f3nica e o consultor ac\u00fastico do Boston's Symphony Hall. Esta sala de concertos consid\u00e9rase unha das mellores do mundo pola s\u00faa excelente ac\u00fastica",
    "eventYear": "1868",
    "image": "https://calendario-cientifico-escolar.github.io/images/personajes/164.png"
}