{
    "lang": "gal",
    "year": 2021,
    "month": 6,
    "day": 15,
    "title": "15 de xu\u00f1o de 1962",
    "body": " Descubriuse que a talidomida causaba deformaci\u00f3ns no desenvolvemento fetal. Este sedante utiliz\u00e1base para calmar as n\u00e1useas durante os primeiros meses de embarazo",
    "eventYear": "1962",
    "image": "https://calendario-cientifico-escolar.github.io/images/personajes/166.png"
}