{
    "lang": "gal",
    "year": 2021,
    "month": 6,
    "day": 2,
    "title": "2 de xu\u00f1o de 1911",
    "body": " Os principais xornais fix\u00e9ronse eco da electrificaci\u00f3n do ferrocarril Gergal-Santa Fe de Mond\u00fajar. Foi a primeira li\u00f1a de tren de v\u00eda larga electrificada de Espa\u00f1a",
    "eventYear": "1911",
    "image": "https://calendario-cientifico-escolar.github.io/images/personajes/153.png"
}