{
    "lang": "gal",
    "year": 2021,
    "month": 6,
    "day": 27,
    "title": "27 de xu\u00f1o de 1915",
    "body": " Naceu a f\u00edsica Traude Bernert. Xunto \u00e1 qu\u00edmica Berta Karlik, identificaron os is\u00f3topos 215, 216 e 218 do \u00e1stato. Tam\u00e9n descubriron que este elemento se produc\u00eda durante a descomposici\u00f3n do raio, do torio e do actinio",
    "eventYear": "1915",
    "image": "https://calendario-cientifico-escolar.github.io/images/personajes/178.png"
}