{
    "lang": "gal",
    "year": 2021,
    "month": 6,
    "day": 28,
    "title": "28 de xu\u00f1o de 2013",
    "body": " Inventouse, no MIT, un dispositivo de visi\u00f3n de raios X de man que detecta o movemento a trav\u00e9s das paredes",
    "eventYear": "2013",
    "image": "https://calendario-cientifico-escolar.github.io/images/personajes/179.png"
}