{
    "lang": "gal",
    "year": 2021,
    "month": 6,
    "day": 6,
    "title": "6 de xu\u00f1o de 1907",
    "body": " Lanzouse Persil ao mercado. Foi o primeiro deterxente de roupa de acci\u00f3n autom\u00e1tica",
    "eventYear": "1907",
    "image": "https://calendario-cientifico-escolar.github.io/images/personajes/157.png"
}