{
    "lang": "eus",
    "year": 2021,
    "month": 12,
    "day": 5,
    "title": "1854/12/5",
    "body": " Aaron H. Allenek eserleku eraisgarriko besaulkia patentatu zuen. Gaur egun, besaulki mota hori munduko ia antzoki eta auditorium guztietan erabiltzen da",
    "eventYear": "1854",
    "image": "https://calendario-cientifico-escolar.github.io/images/personajes/339.png"
}