{
    "lang": "eus",
    "year": 2021,
    "month": 12,
    "day": 7,
    "title": "1949/12/7",
    "body": " \u00c1ngela Ruiz Roblesek Entziklopedia Mekanikoa patentatu zuen. Asmakizun hori liburu elektronikoaren aitzindaritzat jotzen da. Aniztasunaren arretarako ikuspegi sendo bat biltzen zuen, integratzeko arazoak zeuzkaten ikasleei audio eta lupak eskuratzeko aukera emanez",
    "eventYear": "1949",
    "image": "https://calendario-cientifico-escolar.github.io/images/personajes/341.png"
}