{
    "lang": "astu",
    "year": 2021,
    "month": 7,
    "day": 11,
    "title": "11 de xunetu de 1901",
    "body": " Naci\u00f3 la neurofisi\u00f3loga Ang\u00e9lique Arvanitaki. Xunto con Nick Chalazonitis investig\u00f3 l\u2019activid\u00e1 ll\u00e9trica de les neurones utilizando les fibres nervioses del cascoxu com\u00fan",
    "eventYear": "1901",
    "image": "https://calendario-cientifico-escolar.github.io/images/personajes/192.png"
}