{
    "lang": "astu",
    "year": 2021,
    "month": 7,
    "day": 14,
    "title": "14 de xunetu de 1862",
    "body": " Naci\u00f3 la esperta en cristalograf\u00eda, mineralox\u00eda y petrograf\u00eda Florence Bascom. Foi la primer xe\u00f3loga d\u2019EE.XX",
    "eventYear": "1862",
    "image": "https://calendario-cientifico-escolar.github.io/images/personajes/195.png"
}