{
    "lang": "astu",
    "year": 2021,
    "month": 7,
    "day": 17,
    "title": "17 de xunetu de 1819",
    "body": " Naci\u00f3 la climat\u00f3loga ya inventora Eunice Newton Foote. Foi una pionera na investigaci\u00f3n del efeutu ivernaderu. Anteman\u00f3se tr\u00e9s a\u00f1os a los esperimentos de John Tyndall, al que se consideraba\u2019l descubridor del efeutu del CO2 na atm\u00f3sfera",
    "eventYear": "1819",
    "image": "https://calendario-cientifico-escolar.github.io/images/personajes/198.png"
}