{
    "lang": "astu",
    "year": 2021,
    "month": 7,
    "day": 22,
    "title": "22 de xunetu de 1871",
    "body": " Asiti\u00f3se la primer piedra de la ponte ferroviaria Tay (Escocia). Foi la ponte m\u00e1s llarga del mundu na so d\u00f3mina",
    "eventYear": "1871",
    "image": "https://calendario-cientifico-escolar.github.io/images/personajes/203.png"
}