{
    "lang": "astu",
    "year": 2021,
    "month": 7,
    "day": 23,
    "title": "23 de xunetu de 2020",
    "body": " Un estudiu con participaci\u00f3n del CSIC revel\u00f3 un amenorgamientu del 50% del ru\u00edu s\u00edsmico xener\u00e1u pola activid\u00e1 humana. Esti amenorgamientu prod\u00faxose de resultes de les mid\u00edes de confinamientu pola pandemia del coronavirus",
    "eventYear": "2020",
    "image": "https://calendario-cientifico-escolar.github.io/images/personajes/204.png"
}