{
    "lang": "astu",
    "year": 2021,
    "month": 7,
    "day": 6,
    "title": "6 de xunetu de 1885",
    "body": " Louis Pasteur alministr\u00f3 la vacuna de la rabia a Josef Meister, un ne\u00f1u de 9 a\u00f1os al que mordiera un perru rabiosu. Foi una actuaci\u00f3n de riesgu porque Pasteur nun ten\u00eda la titulaci\u00f3n de m\u00e9dicu y la vacuna nun taba ent\u00e1 aprobada. Sicas\u00ed, gracies a ello, salv\u00f3 la vida de Josef",
    "eventYear": "1885",
    "image": "https://calendario-cientifico-escolar.github.io/images/personajes/187.png"
}