{
    "lang": "astu",
    "year": 2021,
    "month": 7,
    "day": 8,
    "title": "8 de xunetu de 1926",
    "body": " Naci\u00f3 la psiquiatra Elizabeth Kubler-Ross. Ye reconocida como la principal autorid\u00e1 en psicolox\u00eda de la muerte",
    "eventYear": "1926",
    "image": "https://calendario-cientifico-escolar.github.io/images/personajes/189.png"
}