{
    "lang": "astu",
    "year": 2021,
    "month": 7,
    "day": 9,
    "title": "9 de xunetu de 2015",
    "body": " Un equipu d\u2019investigaci\u00f3n del IXME, la Universid\u00e1 Complutense y la de Barcelona atop\u00f3 una mosca d\u2019hai 105 millones d\u2019a\u00f1os nun est\u00e1u de caltenimientu perfeutu. La mosca caltuvi\u00e9rase n\u2019\u00e1mbare na cueva d\u2019El Soplao (Cantabria) y ent\u00e1 llevaba una carga de polen nel abdome",
    "eventYear": "2015",
    "image": "https://calendario-cientifico-escolar.github.io/images/personajes/190.png"
}