{
    "lang": "cat",
    "year": 2021,
    "month": 4,
    "day": 16,
    "title": "16 de abril de 1921",
    "body": " Isaac Carasso va sol\u00b7licitar la patent per a l'elaboraci\u00f3 d'una llet quallada anomenada comunament iogurt. Va batejar a la seva empresa Danone, pel diminutiu del nom del seu fill Daniel (Dan\u00f3n)",
    "eventYear": "1921",
    "image": "https://calendario-cientifico-escolar.github.io/images/personajes/106.png"
}