{
    "lang": "cat",
    "year": 2021,
    "month": 4,
    "day": 27,
    "title": "27 de abril de 1993",
    "body": " El trombonista John Kenny va ser el primer que va fer sonar un carnyx des de l'\u00e8poca celta. Per a aix\u00f2, va utilitzar una reconstrucci\u00f3 del carnyx de Deskford realitzada pel music\u00f2leg John Purser i l'orfebre ohn Creed. L'instrument original i la reconstrucci\u00f3 es mostren al Museu Nacional d'Esc\u00f2cia",
    "eventYear": "1993",
    "image": "https://calendario-cientifico-escolar.github.io/images/personajes/117.png"
}