{
    "lang": "cat",
    "year": 2021,
    "month": 4,
    "day": 28,
    "title": "28 de abril de 1932",
    "body": " Es va descobrir la vacuna contra la febre groga",
    "eventYear": "1932",
    "image": "https://calendario-cientifico-escolar.github.io/images/personajes/118.png"
}