{
    "lang": "cat",
    "year": 2021,
    "month": 4,
    "day": 29,
    "title": "29 de abril de 1894",
    "body": " Va n\u00e9ixer la f\u00edsica Marietta Blau. Va ser pionera en el registre i la identificaci\u00f3 de part\u00edcules at\u00f2miques mitjan\u00e7ant plaques d'emulsions fotogr\u00e0fiques. El seu treball va contribuir a entendre millor les reaccions nuclears",
    "eventYear": "1894",
    "image": "https://calendario-cientifico-escolar.github.io/images/personajes/119.png"
}