{
    "lang": "cat",
    "year": 2021,
    "month": 4,
    "day": 30,
    "title": "30 de abril de 2010",
    "body": " Investigadors de l'IGME localitzen en mapes de segle XVIII i XIX un aiguamoll que havia desaparegut del registre hist\u00f2ric",
    "eventYear": "2010",
    "image": "https://calendario-cientifico-escolar.github.io/images/personajes/120.png"
}