{
    "lang": "arag",
    "year": 2021,
    "month": 5,
    "day": 19,
    "title": "19 de mayo de 2014",
    "body": " La NASA prencipia la construcci\u00f3n d'o robot espacial InSight, que aterriz\u00f3 en Marte en 2018",
    "eventYear": "2014",
    "image": "https://calendario-cientifico-escolar.github.io/images/personajes/139.png"
}