{
    "lang": "arag",
    "year": 2021,
    "month": 5,
    "day": 8,
    "title": "8 de mayo de 1980",
    "body": " La OMS certifica la erradicaci\u00f3n d'a picueta. Esta fita se va alcanzar gracias a la vacunaci\u00f3n",
    "eventYear": "1980",
    "image": "https://calendario-cientifico-escolar.github.io/images/personajes/128.png"
}