{
    "lang": "gal",
    "year": 2021,
    "month": 9,
    "day": 16,
    "title": "16 de setembro de 1884",
    "body": " Realizouse a primeira operaci\u00f3n baixo anestesia local. Grazas ao seu \u00e9xito, comezou o seu uso xeneralizado en odontolox\u00eda",
    "eventYear": "1884",
    "image": "https://calendario-cientifico-escolar.github.io/images/personajes/259.png"
}