{
    "lang": "gal",
    "year": 2021,
    "month": 9,
    "day": 2,
    "title": "2 de setembro de 1948",
    "body": " Naceu a profesora de secundaria Christa Corrigan McAuliffe. Foi seleccionada entre m\u00e1is de 11.000 solicitantes para participar no Proxecto Profesor no Espazo da NASA. Christa planeaba realizar experimentos e ensinar lecci\u00f3ns desde o espazo. O transbordador espacial en que viaxaba explotou aos 72 segundos da engalaxe",
    "eventYear": "1948",
    "image": "https://calendario-cientifico-escolar.github.io/images/personajes/245.png"
}