{
    "lang": "gal",
    "year": 2021,
    "month": 9,
    "day": 22,
    "title": "22 de setembro de 1863",
    "body": " Naceu o microbi\u00f3logo Alexandre Yersin. Foi codescubridor da bacteria responsable da peste bub\u00f3nica, que se chama Yersinia pestis na s\u00faa honra",
    "eventYear": "1863",
    "image": "https://calendario-cientifico-escolar.github.io/images/personajes/265.png"
}