{
    "lang": "gal",
    "year": 2021,
    "month": 9,
    "day": 23,
    "title": "23 de setembro de 1889",
    "body": " Fundouse Nintendo. Nos seus inicios era unha f\u00e1brica de barallas de naipes xaponeses. En 1975 comezou a desenvolver videoxogos e, na actualidade, \u00e9 unha das maiores empresas do mundo de h\u00e1rdware e s\u00f3ftware de entretemento",
    "eventYear": "1889",
    "image": "https://calendario-cientifico-escolar.github.io/images/personajes/266.png"
}