{
    "lang": "gal",
    "year": 2021,
    "month": 9,
    "day": 30,
    "title": "30 de setembro de 2009",
    "body": " O Observatorio Astron\u00f3mico de Mallorca anunciou o descubrimento do cometa '2009QG31 La Sagra', m\u00e1is al\u00e1 da \u00f3rbita de Marte",
    "eventYear": "2009",
    "image": "https://calendario-cientifico-escolar.github.io/images/personajes/273.png"
}