{
    "lang": "gal",
    "year": 2021,
    "month": 9,
    "day": 9,
    "title": "9 de setembro de 1936",
    "body": " Naceu a microbi\u00f3loga molecular Daisy Roulland-Dussoix. Colaborou na descuberta dos enzimas de restrici\u00f3n",
    "eventYear": "1936",
    "image": "https://calendario-cientifico-escolar.github.io/images/personajes/252.png"
}