{
    "lang": "cat",
    "year": 2021,
    "month": 11,
    "day": 1,
    "title": "1 de novembre de 1952",
    "body": " Es va a\u00efllar per primera vegada l'element qu\u00edmic amb nombre at\u00f2mic 100. El seu nom (fermi) \u00e9s un homenatge al f\u00edsic Enrico Fermi",
    "eventYear": "1952",
    "image": "https://calendario-cientifico-escolar.github.io/images/personajes/305.png"
}