{
    "lang": "cat",
    "year": 2021,
    "month": 11,
    "day": 20,
    "title": "20 de novembre de 1985",
    "body": " El cirurgi\u00e0 Leonard Lee Bailey va realitzar el primer trasplantament de cor amb \u00e8xit en un nad\u00f3",
    "eventYear": "1985",
    "image": "https://calendario-cientifico-escolar.github.io/images/personajes/324.png"
}