{
    "lang": "cat",
    "year": 2021,
    "month": 11,
    "day": 21,
    "title": "21 de novembre de 2013",
    "body": " L'observatori IceCube del Pol Sud va detectar neutrins d'alta energia d'origen extraterrestre. La seva proced\u00e8ncia se situa fora del nostre sistema solar",
    "eventYear": "2013",
    "image": "https://calendario-cientifico-escolar.github.io/images/personajes/325.png"
}