{
    "lang": "cat",
    "year": 2021,
    "month": 11,
    "day": 30,
    "title": "30 de novembre de 1720",
    "body": " Va n\u00e9ixer la matem\u00e0tica i escriptora Mar\u00eda Andresa Casamayor y de la Coma. Va ser autora del Tirocinio Arithmetico, obra per a ensenyar matem\u00e0tiques des de i per a la vida di\u00e0ria. Va publicar aquest llibre amb el pseud\u00f2nim mascul\u00ed Casandro Mam\u00e9s de La Marca y Araioa, usant les lletres del seu nom en diferent ordre",
    "eventYear": "1720",
    "image": "https://calendario-cientifico-escolar.github.io/images/personajes/334.png"
}