{
    "lang": "cat",
    "year": 2021,
    "month": 11,
    "day": 8,
    "title": "8 de novembre de 1878",
    "body": " Va n\u00e9ixer la paleont\u00f2loga i zo\u00f2loga Dorothea Bate. Va ser pionera en zooarqueologia i, al costat de Dorothy Garrod, van trobar les restes f\u00f2ssils de nombroses esp\u00e8cies que no havien estat descrites",
    "eventYear": "1878",
    "image": "https://calendario-cientifico-escolar.github.io/images/personajes/312.png"
}