{
    "lang": "cat",
    "year": 2021,
    "month": 11,
    "day": 9,
    "title": "9 de novembre de 1795",
    "body": " Va n\u00e9ixer el cirurgi\u00e0 James Barry. Va ser metge de l'Armada brit\u00e0nica i va treballar per millorar les condicions dels soldats ferits. Va realitzar la primera ces\u00e0ria amb \u00e8xit de la qual es t\u00e9 const\u00e0ncia a \u00c0frica",
    "eventYear": "1795",
    "image": "https://calendario-cientifico-escolar.github.io/images/personajes/313.png"
}