{
    "lang": "cat",
    "year": 2021,
    "month": 10,
    "day": 2,
    "title": "2 de octubre de 1846",
    "body": " Va comen\u00e7ar a funcionar la l\u00ednia de telegrafia \u00f2ptica de Castella, que anava des de Madrid fins a Ir\u00fan. Va ser ideada per Jos\u00e9 Mar\u00eda Math\u00e9",
    "eventYear": "1846",
    "image": "https://calendario-cientifico-escolar.github.io/images/personajes/275.png"
}