{
    "lang": "cat",
    "year": 2021,
    "month": 10,
    "day": 20,
    "title": "20 de octubre de 1850",
    "body": " Va n\u00e9ixer la naturalista Alice Blanche Balfour. Va treballar en el camp de l'entomologia i va ser pionera en gen\u00e8tica. Va estudiar com s'hereta el patr\u00f3 de ratlles de les zebres",
    "eventYear": "1850",
    "image": "https://calendario-cientifico-escolar.github.io/images/personajes/293.png"
}