{
    "lang": "cat",
    "year": 2021,
    "month": 10,
    "day": 29,
    "title": "29 de octubre de 1969",
    "body": " Dos ordinadors de diferents universitats californianes van aconseguir connectar-se i enviar un missatge a trav\u00e9s d'un nou protocol, ARPANET. Aquesta xarxa \u00e9s la precursora d'Internet",
    "eventYear": "1969",
    "image": "https://calendario-cientifico-escolar.github.io/images/personajes/302.png"
}