{
    "lang": "cat",
    "year": 2021,
    "month": 10,
    "day": 5,
    "title": "5 de octubre de 1963",
    "body": " Va n\u00e9ixer el microbi\u00f2leg Francisco Juan Mart\u00ednez Mojica. Va descobrir les seq\u00fc\u00e8ncies repetides CRISPR en arquees. La tecnologia CRISPR-Cas d'edici\u00f3 gen\u00e8tica es basa en part en aquest descobriment",
    "eventYear": "1963",
    "image": "https://calendario-cientifico-escolar.github.io/images/personajes/278.png"
}