{
    "lang": "en",
    "year": 2021,
    "month": 3,
    "day": 29,
    "title": "March 29, 1942",
    "body": " Biologist Ann A. Kiessling was born. Together with Mehran Goulian, they discovered the activity of reverse transcriptase in human cells. This enzyme was previously thought to be found only in retroviruses",
    "eventYear": "1942",
    "image": "https://calendario-cientifico-escolar.github.io/images/personajes/88.png"
}