{
    "lang": "en",
    "year": 2021,
    "month": 3,
    "day": 30,
    "title": "March 30, 1900",
    "body": " Librarian, philologist and lexicographer Mar\u00eda Moliner was born. She was the author of the Dictionary of Spanish Use",
    "eventYear": "1900",
    "image": "https://calendario-cientifico-escolar.github.io/images/personajes/89.png"
}