{
    "lang": "en",
    "year": 2021,
    "month": 3,
    "day": 9,
    "title": "March 9, 1961",
    "body": " Sputnik 9 took the dog Chernushka into space. Also on board, there were a guinea pig, a mouse, and a test mannequin named Ivan Ivanovich. The mannequin was shot out during reentry and landed with a parachute. The rest landed unharmed inside the capsule",
    "eventYear": "1961",
    "image": "https://calendario-cientifico-escolar.github.io/images/personajes/68.png"
}