{
    "lang": "eus",
    "year": 2021,
    "month": 5,
    "day": 18,
    "title": "2012/5/18",
    "body": " Landareekiko Liluramenduaren Nazioarteko lehen Eguna ospatu zen. Landareak gure bizitzan oso garrantzitsuak direla aitortzea zuen helburu, landareak lagungarri baitira pertsona eta animalientzako elikagaiak, papera, zura, energia eta produktu farmazeutikoak sortzeko",
    "eventYear": "2012",
    "image": "https://calendario-cientifico-escolar.github.io/images/personajes/138.png"
}