{
    "lang": "eus",
    "year": 2021,
    "month": 5,
    "day": 24,
    "title": "1878/5/24",
    "body": " Lillian Moller Gilbreth psikologo eta ingeniaria jaio zen. Ezaguna da antolamendu psikologikoa industrian aplikatzeko egin zuen lanarengatik",
    "eventYear": "1878",
    "image": "https://calendario-cientifico-escolar.github.io/images/personajes/144.png"
}