{
    "lang": "eus",
    "year": 2021,
    "month": 5,
    "day": 29,
    "title": "1826/5/29",
    "body": " Ebenezer Butterick sastrea jaio zen. Ellen Augusta Pollard emaztearekin batera, jostun-patroi modernoak asmatu eta merkaturatu zituen. Patroi horiek graduak zeuzkaten, neurri estandar ugarirekin",
    "eventYear": "1826",
    "image": "https://calendario-cientifico-escolar.github.io/images/personajes/149.png"
}