{
    "lang": "gal",
    "year": 2021,
    "month": 10,
    "day": 13,
    "title": "13 de outubro de 1914",
    "body": " Garret Morgan patentou a m\u00e1scara de gas. Uns anos despois, este inventor creo o sem\u00e1foro autom\u00e1tico con luz de advertencia",
    "eventYear": "1914",
    "image": "https://calendario-cientifico-escolar.github.io/images/personajes/286.png"
}