{
    "lang": "gal",
    "year": 2021,
    "month": 10,
    "day": 17,
    "title": "17 de outubro de 1919",
    "body": " Comezou a funcionar a primeira li\u00f1a de metro de Espa\u00f1a. Discorr\u00eda entre a Porta do Sol e Catro Cami\u00f1os, en Madrid",
    "eventYear": "1919",
    "image": "https://calendario-cientifico-escolar.github.io/images/personajes/290.png"
}