{
    "lang": "gal",
    "year": 2021,
    "month": 10,
    "day": 29,
    "title": "29 de outubro de 1969",
    "body": " Dous ordenadores de distintas universidades californianas conseguiron conectarse e enviar unha mensaxe a trav\u00e9s dun novo protocolo, ARPANET. Esta rede \u00e9 a precursora de internet",
    "eventYear": "1969",
    "image": "https://calendario-cientifico-escolar.github.io/images/personajes/302.png"
}