{
    "lang": "gal",
    "year": 2021,
    "month": 10,
    "day": 31,
    "title": "31 de outubro de 1798",
    "body": " John Dalton descubriu a discromatopsia. Esta doenza da vista co\u00f1\u00e9cese vulgarmente como daltonismo",
    "eventYear": "1798",
    "image": "https://calendario-cientifico-escolar.github.io/images/personajes/304.png"
}