{
    "lang": "gal",
    "year": 2021,
    "month": 10,
    "day": 7,
    "title": "7 de outubro de 1948",
    "body": " Naceu a naturalista e escritora Diane Ackerman. As s\u00faas obras de divulgaci\u00f3n cient\u00edfica unen a poes\u00eda e un estilo sinxelo, o que lle proporcionou un grande \u00e9xito editorial",
    "eventYear": "1948",
    "image": "https://calendario-cientifico-escolar.github.io/images/personajes/280.png"
}