{
    "lang": "gal",
    "year": 2021,
    "month": 1,
    "day": 11,
    "title": "11 de xaneiro de 1907",
    "body": " Naceu a inmun\u00f3loga Mary Shaw Shorb. Mary desenvolveu unha t\u00e9cnica para analizar a vitamina B12. Con isto contribu\u00edu a combater a anemia perniciosa",
    "eventYear": "1907",
    "image": "https://calendario-cientifico-escolar.github.io/images/personajes/11.png"
}