{
    "lang": "gal",
    "year": 2021,
    "month": 1,
    "day": 24,
    "title": "24 de xaneiro de 1809",
    "body": " Naceu a naturalista Mariano de la Paz Graells. Describiu novas especies de insectos, entre as que salienta a magn\u00edfica bolboreta isabelina (Graellsia isabelae)",
    "eventYear": "1809",
    "image": "https://calendario-cientifico-escolar.github.io/images/personajes/24.png"
}