{
    "lang": "gal",
    "year": 2021,
    "month": 1,
    "day": 6,
    "title": "6 de xaneiro de 1838",
    "body": " Samuel Morse e Alfred Vail utilizaron o tel\u00e9grafo en p\u00fablico por primeira vez. Este invento converteuse nun dos sistemas de comunicaci\u00f3n m\u00e1is populares durante d\u00e9cadas",
    "eventYear": "1838",
    "image": "https://calendario-cientifico-escolar.github.io/images/personajes/6.png"
}