{
    "lang": "en",
    "year": 2021,
    "month": 9,
    "day": 11,
    "title": "September 11, 1942",
    "body": " Economist and economic historian Deirdre McCloskey was born. Her research includes the study of the origins of the modern world, the misuse of statistical significance in economics and other sciences, and the study of capitalism",
    "eventYear": "1942",
    "image": "https://calendario-cientifico-escolar.github.io/images/personajes/254.png"
}