{
    "lang": "en",
    "year": 2021,
    "month": 9,
    "day": 12,
    "title": "September 12, 1958",
    "body": " Electrical engineer Jack Kilby introduced the world's first integrated circuit. Integrated circuits are also known as chips or microchips",
    "eventYear": "1958",
    "image": "https://calendario-cientifico-escolar.github.io/images/personajes/255.png"
}