{
    "lang": "gal",
    "year": 2021,
    "month": 9,
    "day": 13,
    "title": "13 de setembro de 1956",
    "body": " A empresa IBM presentou o primeiro ordenador comercial que utilizaba almacenamento en disco",
    "eventYear": "1956",
    "image": "https://calendario-cientifico-escolar.github.io/images/personajes/256.png"
}