{
    "lang": "arag",
    "year": 2021,
    "month": 9,
    "day": 14,
    "title": "14 de setiembre de 1849",
    "body": " Naixe lo fisiologo y Premio Nobel Iv\u00e1n Pavlov. Va descrebir en cans lo modelo de estimulo-respuesta u condicionamiento de P\u00e1vlov",
    "eventYear": "1849",
    "image": "https://calendario-cientifico-escolar.github.io/images/personajes/257.png"
}