{
    "lang": "eus",
    "year": 2021,
    "month": 9,
    "day": 17,
    "title": "1857/9/17",
    "body": " Konstant\u00edn Tsiolkovski fisikaria eta matematikaria jaio zen. 10 urte zituela gor geratu zen, eta guztiz autodidakta izan zen. Haren lanek ahalbidetu zuten lehen satelite artifiziala orbitan jartzea, eta pertsona batek espaziora lehen bidaia egitea",
    "eventYear": "1857",
    "image": "https://calendario-cientifico-escolar.github.io/images/personajes/260.png"
}