{
    "lang": "cat",
    "year": 2021,
    "month": 9,
    "day": 18,
    "title": "18 de setembre de 1819",
    "body": " Va n\u00e9ixer el f\u00edsic Jean Foucault. Va inventar el giroscopi i el p\u00e8ndol que demostra la rotaci\u00f3 de la Terra",
    "eventYear": "1819",
    "image": "https://calendario-cientifico-escolar.github.io/images/personajes/261.png"
}