{
    "lang": "en",
    "year": 2021,
    "month": 9,
    "day": 18,
    "title": "September 18, 1819",
    "body": " Physicist Jean Foucault was born. He invented the gyroscope and the pendulum that demonstrates the rotation of the Earth",
    "eventYear": "1819",
    "image": "https://calendario-cientifico-escolar.github.io/images/personajes/261.png"
}