{
    "lang": "astu",
    "year": 2021,
    "month": 9,
    "day": 19,
    "title": "19 de setiembre de 1991",
    "body": " Afay\u00e1ronse los restos momificaos d\u2019una persona paleol\u00edtica (\u00d6tzi) nel glaciar Similaun de los Alpes, na frontera italo-austriaca",
    "eventYear": "1991",
    "image": "https://calendario-cientifico-escolar.github.io/images/personajes/262.png"
}