{
    "lang": "cat",
    "year": 2021,
    "month": 9,
    "day": 1,
    "title": "1 de setembre de 1914",
    "body": " Va morir Martha, l'\u00faltim colom migrat\u00f2ri (Ectopistes migratorius). Tenia 29 anys i vivia en captivitat al zool\u00f2gic de Cincinnati (EUA). En nom\u00e9s un segle va passar de ser l'au m\u00e9s abundant d'Am\u00e8rica del Nord a extingir-se",
    "eventYear": "1914",
    "image": "https://calendario-cientifico-escolar.github.io/images/personajes/244.png"
}