{
    "lang": "eus",
    "year": 2021,
    "month": 9,
    "day": 1,
    "title": "1914/9/1",
    "body": " Martha hil zen, azken uso migratzailea (Ectopistes migratorius). 29 urte zeuzkan, eta itxian bizi zen Cincinnatiko zoologikoan, Estatu Batuetan. Mende bakar batean Ipar Ameriketan hegazti ugariena izatetik desagertzera igaro zen",
    "eventYear": "1914",
    "image": "https://calendario-cientifico-escolar.github.io/images/personajes/244.png"
}