{
    "lang": "eus",
    "year": 2021,
    "month": 9,
    "day": 20,
    "title": "1906/9/20",
    "body": " Vera Fadd\u00e9yeva matematikaria jaio zen. Algebra linealari buruzko lehen lanetako batzuk argitaratu zituen",
    "eventYear": "1906",
    "image": "https://calendario-cientifico-escolar.github.io/images/personajes/263.png"
}