{
    "lang": "en",
    "year": 2021,
    "month": 9,
    "day": 21,
    "title": "September 21, 1866",
    "body": " Physician and microbiologist Charles Nicolle was born. He won the Nobel Prize for discovering that lice were the main vector of typhus",
    "eventYear": "1866",
    "image": "https://calendario-cientifico-escolar.github.io/images/personajes/264.png"
}