{
    "lang": "arag",
    "year": 2021,
    "month": 9,
    "day": 22,
    "title": "22 de setiembre de 1863",
    "body": " Naixe lo microbiologo Alexandre Yersin. Va estar codescubridor d'a bacteria responsable d'a peste bubonica, que se diz Yersinia pestis en a suya honor",
    "eventYear": "1863",
    "image": "https://calendario-cientifico-escolar.github.io/images/personajes/265.png"
}