{
    "lang": "gal",
    "year": 2021,
    "month": 9,
    "day": 25,
    "title": "25 de setembro de 1899",
    "body": " Naceu a neur\u00f3loga Margaret Kennard. \u00c9 co\u00f1ecida polos seus estudos sobre os efectos do dano neurol\u00f3xico nos primates",
    "eventYear": "1899",
    "image": "https://calendario-cientifico-escolar.github.io/images/personajes/268.png"
}