{
    "lang": "astu",
    "year": 2021,
    "month": 9,
    "day": 28,
    "title": "28 de setiembre de 1889",
    "body": " La primer Conferencia Xeneral de Pesos y Mid\u00edes defini\u00f3\u2019l llargor d\u2019un metru como la distancia ente dos llinies nuna barra fabricada con una aleaci\u00f3n de plat\u00edn con 10% d\u2019iridiu, midida al puntu de fusi\u00f3n del xelu",
    "eventYear": "1889",
    "image": "https://calendario-cientifico-escolar.github.io/images/personajes/271.png"
}