{
    "lang": "astu",
    "year": 2021,
    "month": 9,
    "day": 29,
    "title": "29 de setiembre de 1901",
    "body": " Naci\u00f3\u2019l f\u00edsicu Enrico Fermi. En 1938, recibi\u00f3\u2019l Premiu Nobel de F\u00edsica polos sos trabayos sobre radiactivid\u00e1 induc\u00edoa. Cuatro a\u00f1os dempu\u00e9s, fixo la primer reaici\u00f3n nuclear d\u2019orixe humanu",
    "eventYear": "1901",
    "image": "https://calendario-cientifico-escolar.github.io/images/personajes/272.png"
}