{
    "lang": "cat",
    "year": 2021,
    "month": 9,
    "day": 29,
    "title": "29 de setembre de 1938",
    "body": " Va n\u00e9ixer el f\u00edsic Enrico Fermi. El 1938, va rebre el Premi Nobel de F\u00edsica pels seus treballs sobre radioactivitat indu\u00efda. Quatre anys despr\u00e9s, va realitzar la primera reacci\u00f3 nuclear d'origen hum\u00e0",
    "eventYear": "1938",
    "image": "https://calendario-cientifico-escolar.github.io/images/personajes/272.png"
}