{
    "lang": "cat",
    "year": 2021,
    "month": 9,
    "day": 2,
    "title": "2 de setembre de 1948",
    "body": " Va n\u00e9ixer la professora de secund\u00e0ria Christa Corrigan McAuliffe. Va ser seleccionada entre m\u00e9s d'11.000 sol\u00b7licitants per participar en el Projecte Professor a l'Espai de la NASA. Christa planejava realitzar experiments i ensenyar lli\u00e7ons des de l'espai. El transbordador espacial en qu\u00e8 viatjava va explotar 72 segons despr\u00e9s de l'enlairament",
    "eventYear": "1948",
    "image": "https://calendario-cientifico-escolar.github.io/images/personajes/245.png"
}