{
    "lang": "en",
    "year": 2021,
    "month": 9,
    "day": 30,
    "title": "September 30, 2009",
    "body": " The Astronomical Observatory of Mallorca announced the discovery of the comet '2009QG31 La Sagra', beyond the orbit of Mars",
    "eventYear": "2009",
    "image": "https://calendario-cientifico-escolar.github.io/images/personajes/273.png"
}