{
    "lang": "eus",
    "year": 2021,
    "month": 9,
    "day": 30,
    "title": "2009/9/30",
    "body": " Mallorcako Behatoki Astronomikoak iragarri zuen '2009QG31 La Sagra' kometa aurkitua zuela, Marteren orbitatik haratago",
    "eventYear": "2009",
    "image": "https://calendario-cientifico-escolar.github.io/images/personajes/273.png"
}