{
    "lang": "en",
    "year": 2021,
    "month": 9,
    "day": 3,
    "title": "September 3, 1938",
    "body": " Chemist Ry\u014dji Noyori was born. He won the Nobel Prize for his research on catalysis. His methods are used, for example, for the production of menthol",
    "eventYear": "1938",
    "image": "https://calendario-cientifico-escolar.github.io/images/personajes/246.png"
}