{
    "lang": "es",
    "year": 2021,
    "month": 9,
    "day": 3,
    "title": "3 de septiembre de 1938",
    "body": " Naci\u00f3 el qu\u00edmico Ry\u014dji Noyori. Gan\u00f3 el Premio Nobel por sus investigaciones sobre la cat\u00e1lisis. Sus m\u00e9todos se usan, por ejemplo, para la producci\u00f3n de mentol",
    "eventYear": "1938",
    "image": "https://calendario-cientifico-escolar.github.io/images/personajes/246.png"
}