{
    "lang": "arag",
    "year": 2021,
    "month": 9,
    "day": 5,
    "title": "5 de setiembre de 1885",
    "body": " S'instala la primer benzinera. Fue en un garache d'Indiana (Estaus Unius)",
    "eventYear": "1885",
    "image": "https://calendario-cientifico-escolar.github.io/images/personajes/248.png"
}