{
    "lang": "arag",
    "year": 2021,
    "month": 9,
    "day": 6,
    "title": "6 de setiembre de 1860",
    "body": " Naixe la sociologa y Premio Nobel d'a Paz Jane Addams. Va estar pionera en a profesi\u00f3n de treballo social y va establir la casa d'acullida Hull House, que tami\u00e9n serviba como instituci\u00f3n sociolochica pa mullers. Los suyos treballos van tener gran influencia sobre la escuela de socioloch\u00eda de Chicago",
    "eventYear": "1860",
    "image": "https://calendario-cientifico-escolar.github.io/images/personajes/249.png"
}