{
    "lang": "cat",
    "year": 2021,
    "month": 9,
    "day": 6,
    "title": "6 de setembre de 1860",
    "body": " Va n\u00e9ixer la soci\u00f2loga i Premi Nobel de la Pau Jane Addams. Va ser pionera en la professi\u00f3 de treball social i va fundar la casa d'acollida Hull House, que tamb\u00e9 servia com a instituci\u00f3 sociol\u00f2gica per a dones. Els seus treballs van tenir gran influ\u00e8ncia sobre l'escola de sociologia de Chicago",
    "eventYear": "1860",
    "image": "https://calendario-cientifico-escolar.github.io/images/personajes/249.png"
}