{
    "lang": "es",
    "year": 2021,
    "month": 9,
    "day": 8,
    "title": "8 de septiembre de 1871",
    "body": " Naci\u00f3 la inventora y pianista Mary Elizabeth Hallock-Greenewalt. Sus patentes permitieron el desarrollo de Sarabet, un \u00f3rgano de color. Este instrumento emit\u00eda luces de colores con intensidades y matices que estaban sincronizadas con la m\u00fasica",
    "eventYear": "1871",
    "image": "https://calendario-cientifico-escolar.github.io/images/personajes/251.png"
}