{
    "lang": "eus",
    "year": 2021,
    "month": 9,
    "day": 8,
    "title": "1871/9/8",
    "body": " Mary Elizabeth Hallock-Greenewalt asmatzailea eta pianista jaio zen. Haren patenteek bide eman zuten Sarabet \"koloretako organoa\" garatzeko. Tresna horrek koloretako argiak emititzen zituen, musikarekin sinkronizatuta zeuden intentsitate eta \u00f1abardurekin",
    "eventYear": "1871",
    "image": "https://calendario-cientifico-escolar.github.io/images/personajes/251.png"
}