{
    "lang": "cat",
    "year": 2021,
    "month": 6,
    "day": 10,
    "title": "10 de juny de 1948",
    "body": " Es va efectuar la primera demostraci\u00f3 de la televisi\u00f3 a Espanya. Va ser durant la Fira Internacional de Mostres de Barcelona",
    "eventYear": "1948",
    "image": "https://calendario-cientifico-escolar.github.io/images/personajes/161.png"
}