{
    "lang": "cat",
    "year": 2021,
    "month": 6,
    "day": 14,
    "title": "14 de juny de 1880",
    "body": " Va n\u00e9ixer el neurocient\u00edfic Nicol\u00e1s Ach\u00facarro. Va ser un dels deixebles de Ram\u00f3n y Cajal i es va especialitzar en l'estudi de les c\u00e8l\u00b7lules glials",
    "eventYear": "1880",
    "image": "https://calendario-cientifico-escolar.github.io/images/personajes/165.png"
}