{
    "lang": "cat",
    "year": 2021,
    "month": 6,
    "day": 22,
    "title": "22 de juny de 1939",
    "body": " Va n\u00e9ixer la cristal\u00b7l\u00f2grafa Ada Yonath. Va guanyar el Premi Nobel de qu\u00edmica pels seus treballs pioners sobre l'estructura dels ribosomes",
    "eventYear": "1939",
    "image": "https://calendario-cientifico-escolar.github.io/images/personajes/173.png"
}