{
    "lang": "cat",
    "year": 2021,
    "month": 6,
    "day": 26,
    "title": "26 de juny de 1974",
    "body": " El supermercat Marsh, a Ohio (Estats Units), va efectuar la primera lectura d'un codi de barres al m\u00f3n. Va ser un paquet de xiclets",
    "eventYear": "1974",
    "image": "https://calendario-cientifico-escolar.github.io/images/personajes/177.png"
}