{
    "lang": "cat",
    "year": 2021,
    "month": 6,
    "day": 28,
    "title": "28 de juny de 2013",
    "body": " Es va inventar, al MIT, un dispositiu de visi\u00f3 de raigs X de m\u00e0 que detecta el moviment a trav\u00e9s de les parets",
    "eventYear": "2013",
    "image": "https://calendario-cientifico-escolar.github.io/images/personajes/179.png"
}