{
    "lang": "cat",
    "year": 2021,
    "month": 12,
    "day": 10,
    "title": "10 de desembre de 1823",
    "body": " La paleont\u00f2loga Mary Anning va descobrir el primer esquelet complet d'un plesiosaure. Aquest gran r\u00e8ptil mar\u00ed va viure a principis del Jur\u00e0ssic",
    "eventYear": "1823",
    "image": "https://calendario-cientifico-escolar.github.io/images/personajes/344.png"
}