{
    "lang": "arag",
    "year": 2021,
    "month": 12,
    "day": 11,
    "title": "11 d'aviento de 1863",
    "body": " Naixe la astronoma Annie Jump Cannon. Descubri\u00f3 300 estrelas variables y lo suyo treballo de catalogaci\u00f3n esti\u00f3 fundamental pa l'actual clasificaci\u00f3n estelar",
    "eventYear": "1863",
    "image": "https://calendario-cientifico-escolar.github.io/images/personajes/345.png"
}