{
    "lang": "cat",
    "year": 2021,
    "month": 12,
    "day": 11,
    "title": "11 de desembre de 1863",
    "body": " Va n\u00e9ixer l'astr\u00f2noma Annie Jump Cannon. Va descobrir 300 estrelles variables i el seu treball de catalogaci\u00f3 va ser fonamental per a l'actual classificaci\u00f3 estel\u00b7lar",
    "eventYear": "1863",
    "image": "https://calendario-cientifico-escolar.github.io/images/personajes/345.png"
}