{
    "lang": "eus",
    "year": 2021,
    "month": 12,
    "day": 11,
    "title": "1863/12/11",
    "body": " Annie Jump Cannon astronomoa jaio zen. 300 izar aldakor aurkitu zituen, eta bere katalogazio-lana funtsezkoa izan zen gaur egun dugun izar-sailkapena lortzeko",
    "eventYear": "1863",
    "image": "https://calendario-cientifico-escolar.github.io/images/personajes/345.png"
}