{
    "lang": "cat",
    "year": 2021,
    "month": 12,
    "day": 13,
    "title": "13 de desembre de 1816",
    "body": " Va n\u00e9ixer l'inventor Werner von Siemens. \u00c9s considerat un dels pares de l'enginyeria el\u00e8ctrica i el seu cognom ha quedat lligat per sempre a l'empresa que va fundar: Siemens",
    "eventYear": "1816",
    "image": "https://calendario-cientifico-escolar.github.io/images/personajes/347.png"
}