{
    "lang": "es",
    "year": 2021,
    "month": 12,
    "day": 13,
    "title": "13 de diciembre de 1816",
    "body": " Naci\u00f3 el inventor Werner von Siemens. Est\u00e1 considerado uno de los padres de la ingenier\u00eda el\u00e9ctrica y su apellido ha quedado ligado para siempre a la empresa que fund\u00f3: Siemens",
    "eventYear": "1816",
    "image": "https://calendario-cientifico-escolar.github.io/images/personajes/347.png"
}