{
    "lang": "gal",
    "year": 2021,
    "month": 12,
    "day": 13,
    "title": "13 de decembro de 1816",
    "body": " Naceu o inventor Werner von Siemens. Est\u00e1 considerado un dos pais da enxe\u00f1ar\u00eda el\u00e9ctrica e o seu apelido quedou ligado para sempre \u00e1 empresa que fundou: Siemens",
    "eventYear": "1816",
    "image": "https://calendario-cientifico-escolar.github.io/images/personajes/347.png"
}