{
    "lang": "arag",
    "year": 2021,
    "month": 12,
    "day": 14,
    "title": "14 d'aviento de 1911",
    "body": " La expedici\u00f3n noruega dirichida per Roald Amundsen arriba ta lo Polo Sud. Per si l'equipo no aconseguiba tornar, van deixar all\u00ed una tienda con una carta en o suyo interior pa contrimostrar la suya fita",
    "eventYear": "1911",
    "image": "https://calendario-cientifico-escolar.github.io/images/personajes/348.png"
}