{
    "lang": "en",
    "year": 2021,
    "month": 12,
    "day": 14,
    "title": "December 14, 1911",
    "body": " The Norwegian expedition led by Roald Amundsen reached the South Pole. In case the team could not return, they left a tent there with a letter inside to demonstrate their achievement",
    "eventYear": "1911",
    "image": "https://calendario-cientifico-escolar.github.io/images/personajes/348.png"
}