{
    "lang": "arag",
    "year": 2021,
    "month": 12,
    "day": 15,
    "title": "15 d'aviento de 2010",
    "body": " Ranca la Expedici\u00f3n de Circumnavegaci\u00f3n Malaspina. Los buques Hesp\u00e9rides y Sarmiento de Gamboa (CSIC) dioron la vuelta a lo mundo pa fer investigaci\u00f3n scientifica, formar chovens investigadors y fomentar las sciencias marinas. Lo suyo nombre ye un homenache a la expedici\u00f3n que dirichi\u00f3 Alejandro Malaspina en o sieglo XVIII",
    "eventYear": "2010",
    "image": "https://calendario-cientifico-escolar.github.io/images/personajes/349.png"
}