{
    "lang": "astu",
    "year": 2021,
    "month": 12,
    "day": 18,
    "title": "18 d\u2019avientu de 2019",
    "body": " Describi\u00f3se una nueva especie de par\u00e1situ en marsupiales. El so nome ye Theileria lupei en reconocencia a l\u2019albeitre Guadalupe Mir\u00f3, pola so contribuci\u00f3n al campu de la parasitolox\u00eda",
    "eventYear": "2019",
    "image": "https://calendario-cientifico-escolar.github.io/images/personajes/352.png"
}