{
    "lang": "eus",
    "year": 2021,
    "month": 12,
    "day": 18,
    "title": "2019/12/18",
    "body": " Martsupialengan parasito espezie berri bat deskribatu zen. Theileria lupei du izena, eta Guadalupe Mir\u00f3 albaitaria omendu nahi du parasitologiari egindako ekarpenarengatik",
    "eventYear": "2019",
    "image": "https://calendario-cientifico-escolar.github.io/images/personajes/352.png"
}