{
    "lang": "astu",
    "year": 2021,
    "month": 12,
    "day": 19,
    "title": "19 d\u2019avientu de 2016",
    "body": " La revista Nature nom\u00f3 a Alexandra Elbakyan una de les diez persones m\u00e1s destacaes del a\u00f1u en ciencia. Alexandra ye la fundadora de Sci-Hub, una p\u00e1xina web con accesu gratuitu a millones d\u2019art\u00edculos cient\u00edficos",
    "eventYear": "2016",
    "image": "https://calendario-cientifico-escolar.github.io/images/personajes/353.png"
}