{
    "lang": "arag",
    "year": 2021,
    "month": 12,
    "day": 1,
    "title": "1 d'aviento de 1913",
    "body": " Naixe la psicologa Mary Ainsworth. Chunto a John Bowlby, desenrolloron la teor\u00eda de l'aferramiento",
    "eventYear": "1913",
    "image": "https://calendario-cientifico-escolar.github.io/images/personajes/335.png"
}