{
    "lang": "arag",
    "year": 2021,
    "month": 12,
    "day": 20,
    "title": "20 d'aviento de 1852",
    "body": " Naixe lo bacteriologo Kitasato Shibasabur\u014d. Va estar codescubridor d'a bacteria que causa la peste bubonica y va desenrollar tractamientos pa lo tetanos, la difteria y lo banzo. Tami\u00e9n va dar nombre a un estrumento de laboratorio: lo matraz kitasato",
    "eventYear": "1852",
    "image": "https://calendario-cientifico-escolar.github.io/images/personajes/354.png"
}