{
    "lang": "astu",
    "year": 2021,
    "month": 12,
    "day": 21,
    "title": "21 d\u2019avientu de 1773",
    "body": " Naci\u00f3\u2019l bot\u00e1nicu Robert Brown. Afay\u00f3 que les min\u00fascules part\u00edcules suspend\u00edes nos ll\u00edquidos t\u00e1n en movimientu. Esto conozse como movimientu brownianu",
    "eventYear": "1773",
    "image": "https://calendario-cientifico-escolar.github.io/images/personajes/355.png"
}