{
    "lang": "cat",
    "year": 2021,
    "month": 12,
    "day": 21,
    "title": "21 de desembre de 1773",
    "body": " Va n\u00e9ixer el bot\u00e0nic Robert Brown. Va descobrir que les min\u00fascules part\u00edcules suspeses en els l\u00edquids estan en moviment. Aix\u00f2 es coneix com a moviment browni\u00e0",
    "eventYear": "1773",
    "image": "https://calendario-cientifico-escolar.github.io/images/personajes/355.png"
}