{
    "lang": "cat",
    "year": 2021,
    "month": 12,
    "day": 23,
    "title": "23 de desembre de 1947",
    "body": " Els f\u00edsics Walter Brattain i John Bardeen van desenvolupar el primer transistor. Aquest dispositiu \u00e9s la base del funcionament de la majoria dels aparells electr\u00f2nics",
    "eventYear": "1947",
    "image": "https://calendario-cientifico-escolar.github.io/images/personajes/357.png"
}