{
    "lang": "en",
    "year": 2021,
    "month": 12,
    "day": 23,
    "title": "December 23, 1947",
    "body": " Physicists Walter Brattain and John Bardeen developed the first transistor. This device is the basis of the operation of most electronic devices",
    "eventYear": "1947",
    "image": "https://calendario-cientifico-escolar.github.io/images/personajes/357.png"
}