{
    "lang": "astu",
    "year": 2021,
    "month": 12,
    "day": 25,
    "title": "25 d\u2019avientu de 1901",
    "body": " Naci\u00f3 Richard Shope, l\u2019especialista en patolox\u00eda animal qu\u2019aisll\u00f3 per primer vegada un influenzavirus. Estos virus causen el gripe n\u2019aves y mam\u00edferos (incluyendo los humanos)",
    "eventYear": "1901",
    "image": "https://calendario-cientifico-escolar.github.io/images/personajes/359.png"
}