{
    "lang": "eus",
    "year": 2021,
    "month": 12,
    "day": 25,
    "title": "1901/12/25",
    "body": " Richard Shope jaio zen, animalien patologian espezialista eta influenzabirus bat lehen aldiz isolatu zuena. Birus horiek gripea eragiten dute hegazti eta ugaztunengan, gizakiak barne",
    "eventYear": "1901",
    "image": "https://calendario-cientifico-escolar.github.io/images/personajes/359.png"
}