{
    "lang": "gal",
    "year": 2021,
    "month": 12,
    "day": 25,
    "title": "25 de decembro de 1901",
    "body": " Naceu Richard Shope, o especialista en patolox\u00eda animal que illou por primeira vez un influenzavirus. Estes virus causan a gripe en aves e mam\u00edferos (inclu\u00eddos os humanos)",
    "eventYear": "1901",
    "image": "https://calendario-cientifico-escolar.github.io/images/personajes/359.png"
}