{
    "lang": "astu",
    "year": 2021,
    "month": 12,
    "day": 28,
    "title": "28 d\u2019avientu de 1956",
    "body": " Naci\u00f3 la f\u00edsica Teresa Rodrigo Anoro. Xug\u00f3 un papel importante nel descubrimientu del bos\u00f3n de Higgs nel a\u00f1u 2012. Foi direutora del Institutu de F\u00edsica de Cantabria y form\u00f3 parte del Comit\u00e9 de Pol\u00edtica Cient\u00edfica del CERN",
    "eventYear": "1956",
    "image": "https://calendario-cientifico-escolar.github.io/images/personajes/362.png"
}