{
    "lang": "en",
    "year": 2021,
    "month": 12,
    "day": 28,
    "title": "December 28, 1956",
    "body": " Physicist Teresa Rodrigo Anoro was born. She played an important role in the discovery of the Higgs boson in 2012. She was director of the Institute of Physics of Cantabria and was part of CERN's Scientific Policy Committee",
    "eventYear": "1956",
    "image": "https://calendario-cientifico-escolar.github.io/images/personajes/362.png"
}