{
    "lang": "arag",
    "year": 2021,
    "month": 12,
    "day": 29,
    "title": "29 d'aviento de 1800",
    "body": " Naixe l'inventor Charles Goodyear. Descubri\u00f3 lo proceso de vulcanizaci\u00f3n d'o caucho, con o qual se fan los pneumaticos",
    "eventYear": "1800",
    "image": "https://calendario-cientifico-escolar.github.io/images/personajes/363.png"
}