{
    "lang": "cat",
    "year": 2021,
    "month": 12,
    "day": 29,
    "title": "29 de desembre de 1800",
    "body": " Va n\u00e9ixer l'inventor Charles Goodyear. Va descobrir el proc\u00e9s de vulcanitzaci\u00f3 del cautx\u00fa, amb el qual es fan els pneum\u00e0tics",
    "eventYear": "1800",
    "image": "https://calendario-cientifico-escolar.github.io/images/personajes/363.png"
}