{
    "lang": "en",
    "year": 2021,
    "month": 12,
    "day": 29,
    "title": "December 29, 1800",
    "body": " Inventor Charles Goodyear was born. He discovered the rubber vulcanization process, which is used to make tires",
    "eventYear": "1800",
    "image": "https://calendario-cientifico-escolar.github.io/images/personajes/363.png"
}