{
    "lang": "eus",
    "year": 2021,
    "month": 12,
    "day": 31,
    "title": "2019/12/31",
    "body": " OMEren Txinako bulegoak abisu bat jaso zuen, Wuhan hirian jatorri ezezaguneko zenbait pneumonia-kasu zeudela zioena. Geroago, gaixotasunaren eragilea SARS-CoV-2 koronabirusa zela zehaztu zuten",
    "eventYear": "2019",
    "image": "https://calendario-cientifico-escolar.github.io/images/personajes/365.png"
}