{
    "lang": "en",
    "year": 2021,
    "month": 12,
    "day": 3,
    "title": "December 3, 1842",
    "body": " Chemist and ecologist Ellen Swallow Richards was born. She was one of the founders of environmental hygiene, a phase before modern ecology",
    "eventYear": "1842",
    "image": "https://calendario-cientifico-escolar.github.io/images/personajes/337.png"
}