{
    "lang": "eus",
    "year": 2021,
    "month": 12,
    "day": 3,
    "title": "1842/12/3",
    "body": " Ellen Swallow Richards kimikari eta ekologoa jaio zen. Ingurumen-higienearen fundatzaileetako bat izan zen, ekologia modernoaren aurreko fase batean",
    "eventYear": "1842",
    "image": "https://calendario-cientifico-escolar.github.io/images/personajes/337.png"
}