{
    "lang": "gal",
    "year": 2021,
    "month": 12,
    "day": 4,
    "title": "4 de decembro de 1844",
    "body": " Naceu Augusto Arcim\u00eds. Foi o primeiro meteor\u00f3logo profesional espa\u00f1ol e o primeiro director do Instituto Central Meteorol\u00f3xico (agora Axencia Estatal de Meteorolox\u00eda)",
    "eventYear": "1844",
    "image": "https://calendario-cientifico-escolar.github.io/images/personajes/338.png"
}