{
    "lang": "en",
    "year": 2021,
    "month": 12,
    "day": 5,
    "title": "December 5, 1854",
    "body": " Aaron H. Allen patented the folding seat chair. Today, this type of seat is used in almost all theaters and auditoriums in the world",
    "eventYear": "1854",
    "image": "https://calendario-cientifico-escolar.github.io/images/personajes/339.png"
}