{
    "lang": "eus",
    "year": 2021,
    "month": 12,
    "day": 6,
    "title": "1888/12/6",
    "body": " Libbie Henrietta Hyman zoologoa jaio zen. \"Ornogabeak\" idatzi zuen, sei liburukiko lana, oraindik ere erreferentziazkoa dena",
    "eventYear": "1888",
    "image": "https://calendario-cientifico-escolar.github.io/images/personajes/340.png"
}