{
    "lang": "astu",
    "year": 2021,
    "month": 12,
    "day": 7,
    "title": "7 d\u2019avientu de 1949",
    "body": " La maestra \u00c1ngela Ruiz Carbayos patent\u00f3 la Enciclopedia Mec\u00e1nica. Esti inventu consid\u00e9rase\u2019l precursor del llibru electr\u00f3nicu. Incluy\u00eda una fuerte perspectiva d\u2019atenci\u00f3n a la diversid\u00e1, cola posibilid\u00e1 de montar audios y lentes pal alumn\u00e1u con problemes d\u2019accesu",
    "eventYear": "1949",
    "image": "https://calendario-cientifico-escolar.github.io/images/personajes/341.png"
}