{
    "lang": "es",
    "year": 2021,
    "month": 12,
    "day": 7,
    "title": "7 de diciembre de 1949",
    "body": " La maestra \u00c1ngela Ruiz Robles patent\u00f3 la Enciclopedia Mec\u00e1nica. Este invento se considera el precursor del libro electr\u00f3nico. Inclu\u00eda una fuerte perspectiva de atenci\u00f3n a la diversidad, con la posibilidad de montar audios y lupas para el alumnado con problemas de acceso",
    "eventYear": "1949",
    "image": "https://calendario-cientifico-escolar.github.io/images/personajes/341.png"
}