{
    "lang": "astu",
    "year": 2021,
    "month": 12,
    "day": 8,
    "title": "8 d\u2019avientu de 2013",
    "body": " Na Universid\u00e1 de Lyon amos\u00f3se un nuevu m\u00e9todu pa estrayer hidr\u00f3xenu de les pe\u00f1es y l\u2019agua. Esta t\u00e9unica podr\u00eda convertise nuna nueva fonte d\u2019enerx\u00eda verde",
    "eventYear": "2013",
    "image": "https://calendario-cientifico-escolar.github.io/images/personajes/342.png"
}