{
    "lang": "astu",
    "year": 2021,
    "month": 3,
    "day": 16,
    "title": "16 de marzu de 1799",
    "body": " Naci\u00f3 la bot\u00e1nica Anna Atkins. Ye reconocida como la primer muyer fot\u00f3grafa",
    "eventYear": "1799",
    "image": "https://calendario-cientifico-escolar.github.io/images/personajes/75.png"
}