{
    "lang": "astu",
    "year": 2021,
    "month": 3,
    "day": 3,
    "title": "3 de marzu de 1886",
    "body": " Naci\u00f3 la educadora y pedagoga Helen Parkhurst. Cre\u00f3\u2019l Plan Dalton. Esti plan bas\u00e1base na ausencia d\u2019asignatures y l\u2019usu de gu\u00edes d\u2019investigaci\u00f3n empara de llibros de testu. La clas convi\u00e9rtese nun llaboratoriu onde l\u2019alumn\u00e1u completa\u2019l deprendizaxe al que se compromete per aciu d\u2019un contratu col profesor\u00e1u",
    "eventYear": "1886",
    "image": "https://calendario-cientifico-escolar.github.io/images/personajes/62.png"
}