{
    "lang": "astu",
    "year": 2021,
    "month": 3,
    "day": 8,
    "title": "8 de marzu de 1839",
    "body": " Naci\u00f3 Josephine Cochrane. Foi la inventora de la primer m\u00e1quina fregaplatos que result\u00f3 exitosa",
    "eventYear": "1839",
    "image": "https://calendario-cientifico-escolar.github.io/images/personajes/67.png"
}