{
    "lang": "astu",
    "year": 2021,
    "month": 3,
    "day": 9,
    "title": "9 de marzu de 1961",
    "body": " El Sputnik 9 llev\u00f3 a la perra Chernushka al espaciu. A bordu diben tami\u00e9n una cobaya, un mur y un maniqu\u00edn de pruebes llam\u00e1u Ivan Ivanovich. El maniqu\u00edn sali\u00f3 dispar\u00e1u na reentrada y aterriz\u00f3 con un paraca\u00edes. El restu llegaron sanos y correchos dientro de la c\u00e1psula",
    "eventYear": "1961",
    "image": "https://calendario-cientifico-escolar.github.io/images/personajes/68.png"
}