{
    "lang": "en",
    "year": 2021,
    "month": 8,
    "day": 13,
    "title": "August 13, 1797",
    "body": " Engineer and geologist Casiano de Prado was born. In 1862, he participated in the discovery of the first Palaeolithic remains in the Iberian Peninsula, in the Manzanares Valley",
    "eventYear": "1797",
    "image": "https://calendario-cientifico-escolar.github.io/images/personajes/225.png"
}