{
    "lang": "en",
    "year": 2021,
    "month": 8,
    "day": 22,
    "title": "August 22, 1945",
    "body": " Physiologist Ida Henrietta Hyde died. She developed a microelectrode powerful enough to stimulate tissues and small enough to extract tissue from a cell",
    "eventYear": "1945",
    "image": "https://calendario-cientifico-escolar.github.io/images/personajes/234.png"
}