{
    "lang": "en",
    "year": 2021,
    "month": 8,
    "day": 28,
    "title": "August 28, 2013",
    "body": " Miniature human brains, with the size of a pea, were grown from stem cells",
    "eventYear": "2013",
    "image": "https://calendario-cientifico-escolar.github.io/images/personajes/240.png"
}