{
    "lang": "en",
    "year": 2021,
    "month": 8,
    "day": 31,
    "title": "August 31, 1912",
    "body": " Researcher Robert F. Borkenstein was born. He investigated the influence of alcohol consumption in traffic accidents. He invented the breathalyzer, a revolutionary instrument to measure the level of alcohol in exhaled air",
    "eventYear": "1912",
    "image": "https://calendario-cientifico-escolar.github.io/images/personajes/243.png"
}