{
    "lang": "gal",
    "year": 2021,
    "month": 3,
    "day": 1,
    "title": "1 de marzo de 1893",
    "body": " O Instituto Nacional de Meteorolox\u00eda elaborou o primeiro mapa do tempo de Espa\u00f1a",
    "eventYear": "1893",
    "image": "https://calendario-cientifico-escolar.github.io/images/personajes/60.png"
}