{
    "lang": "gal",
    "year": 2021,
    "month": 3,
    "day": 11,
    "title": "11 de marzo de 1926",
    "body": " Naceu o m\u00e9dico e investigador Thomas Earl Starzl. En 1967, levou a cabo con \u00e9xito o primeiro transplante de f\u00edgado (tras varios intentos frustrados)",
    "eventYear": "1926",
    "image": "https://calendario-cientifico-escolar.github.io/images/personajes/70.png"
}