{
    "lang": "gal",
    "year": 2021,
    "month": 3,
    "day": 20,
    "title": "20 de marzo de 2021",
    "body": " D\u00eda Mundial do Gorri\u00f3n. Esta iniciativa procura chamar a atenci\u00f3n sobre a situaci\u00f3n dos gorri\u00f3ns. A s\u00faa poboaci\u00f3n sofre un importante declive, nomeadamente nas cidades",
    "eventYear": "2021",
    "image": "https://calendario-cientifico-escolar.github.io/images/personajes/79.png"
}