{
    "lang": "gal",
    "year": 2021,
    "month": 3,
    "day": 23,
    "title": "23 de marzo de 2005",
    "body": " Jos\u00e9 Luis Carrascosa e o seu equipo do Centro Nacional de Biotecnolox\u00eda describiron por primeira vez a estrutura do virus da var\u00edola",
    "eventYear": "2005",
    "image": "https://calendario-cientifico-escolar.github.io/images/personajes/82.png"
}