{
    "lang": "gal",
    "year": 2021,
    "month": 3,
    "day": 27,
    "title": "27 de marzo de 1827",
    "body": " Charles Darwin, con 18 anos, presentou o seu primeiro achado cient\u00edfico. Trataba sobre a biolox\u00eda de pequenos animais mari\u00f1os",
    "eventYear": "1827",
    "image": "https://calendario-cientifico-escolar.github.io/images/personajes/86.png"
}