{
    "lang": "gal",
    "year": 2021,
    "month": 3,
    "day": 8,
    "title": "8 de marzo de 1839",
    "body": " Naceu Josephine Cochrane. Foi a inventora da primeira m\u00e1quina lavalouza que resultou exitosa",
    "eventYear": "1839",
    "image": "https://calendario-cientifico-escolar.github.io/images/personajes/67.png"
}