{
    "lang": "gal",
    "year": 2021,
    "month": 3,
    "day": 9,
    "title": "9 de marzo de 1961",
    "body": " O Sputnik 9 levou a cadela Chernushka ao espazo. A bordo \u00edan tam\u00e9n unha cobaia, un rato e mais un manequ\u00edn de probas chamado Ivan Ivanovich. O manequ\u00edn sa\u00edu disparado durante a reentrada e aterrou cun paraca\u00eddas. O resto chegaron ilesos dentro da c\u00e1psula",
    "eventYear": "1961",
    "image": "https://calendario-cientifico-escolar.github.io/images/personajes/68.png"
}