{
    "lang": "en",
    "year": 2021,
    "month": 12,
    "day": 15,
    "title": "December 15, 2010",
    "body": " The Malaspina Circumnavigation Expedition started. The Hesp\u00e9rides and Sarmiento de Gamboa (CSIC) ships went around the world to carry out scientific research, train young researchers, and promote marine science. Its name is a tribute to the expedition led by Alejandro Malaspina in the 18th century",
    "eventYear": "2010",
    "image": "https://calendario-cientifico-escolar.github.io/images/personajes/349.png"
}