{
    "lang": "en",
    "year": 2021,
    "month": 12,
    "day": 27,
    "title": "December 27, 1822",
    "body": " Chemist and microbiologist Louis Pasteur was born. He showed that fermentation was caused by microorganisms and invented pasteurization. This method allows the control of microbes in liquids, such as milk",
    "eventYear": "1822",
    "image": "https://calendario-cientifico-escolar.github.io/images/personajes/361.png"
}