{
    "lang": "en",
    "year": 2021,
    "month": 12,
    "day": 7,
    "title": "December 7, 1949",
    "body": " Teacher \u00c1ngela Ruiz Robles patented the Mechanical Encyclopedia. This invention is considered the forerunner of the electronic book. It included a strong perspective of attention to diversity, with the possibility of mounting audios and magnifying glasses for students with difficulties",
    "eventYear": "1949",
    "image": "https://calendario-cientifico-escolar.github.io/images/personajes/341.png"
}