{
    "lang": "cat",
    "year": 2021,
    "month": 8,
    "day": 21,
    "title": "21 de agost de 1961",
    "body": " Va n\u00e9ixer la neurobi\u00f2loga Mara Dierssen. \u00c9s una experta mundial en el camp de la neurobiologia i la farmacologia, i una de les investigadores m\u00e9s destacades en la s\u00edndrome de Down",
    "eventYear": "1961",
    "image": "https://calendario-cientifico-escolar.github.io/images/personajes/233.png"
}