{
    "lang": "cat",
    "year": 2021,
    "month": 8,
    "day": 28,
    "title": "28 de agost de 2013",
    "body": " Es van cultivar cervells humans en miniatura, de la mida d'un p\u00e8sol, a partir de c\u00e8l\u00b7lules mare",
    "eventYear": "2013",
    "image": "https://calendario-cientifico-escolar.github.io/images/personajes/240.png"
}