{
    "lang": "cat",
    "year": 2021,
    "month": 8,
    "day": 7,
    "title": "7 de agost de 1933",
    "body": " Va n\u00e9ixer la polit\u00f2loga Elinor Ostrom. Va ser la primera dona que va obtenir el Premi Nobel d'Economia, el 2009. Va estudiar com les persones interactuen per mantenir a llarg termini els nivells de producci\u00f3 de recursos comuns",
    "eventYear": "1933",
    "image": "https://calendario-cientifico-escolar.github.io/images/personajes/219.png"
}