{
    "lang": "eus",
    "year": 2021,
    "month": 3,
    "day": 1,
    "title": "1893/3/1",
    "body": " Meteorologiako Institutu Nazionalak Espainiako lehen \"eguraldi-mapa\" egin zuen",
    "eventYear": "1893",
    "image": "https://calendario-cientifico-escolar.github.io/images/personajes/60.png"
}