{
    "lang": "eus",
    "year": 2021,
    "month": 3,
    "day": 17,
    "title": "1963/3/17",
    "body": " Mar\u00eda Elisa \u00c1lvarez Obaya-ren analisiei esker, \"metilikoaren kasua\" azaleratu zen. Lanzaroteko bere farmazia xumetik, Mar\u00eda Elisak frogatu zuen zenbait heriotza bitxi metanolarekin aizundutako likoreak kontsumitzearen ondorio zirela",
    "eventYear": "1963",
    "image": "https://calendario-cientifico-escolar.github.io/images/personajes/76.png"
}