{
    "lang": "eus",
    "year": 2021,
    "month": 3,
    "day": 30,
    "title": "1900/3/30",
    "body": " Mar\u00eda Moliner bibliotekari, filologo eta lexikografo espainiarra jaio zen. Espainieraren erabilera-hiztegia egin zuen",
    "eventYear": "1900",
    "image": "https://calendario-cientifico-escolar.github.io/images/personajes/89.png"
}