{
    "lang": "arag",
    "year": 2021,
    "month": 2,
    "day": 11,
    "title": "11 de febrero de 1939",
    "body": " Lise Meitner publica lo primer descubrimiento de fisi\u00f3n nucleyar d'uranio quan absorbe un neutr\u00f3n adicional ",
    "eventYear": "1939",
    "image": "https://calendario-cientifico-escolar.github.io/images/personajes/42.png"
}