{
    "lang": "arag",
    "year": 2021,
    "month": 2,
    "day": 22,
    "title": "22 de febrero de 1876",
    "body": " S'estableix la Universidat Johns Hopkins. Va estar la primer universidat adedicada especificament a la investigaci\u00f3n medica en os Estaus Unius. La fundaci\u00f3n va estar posible gracias a l'herencio de l'empresario Johns Hopkins",
    "eventYear": "1876",
    "image": "https://calendario-cientifico-escolar.github.io/images/personajes/53.png"
}