{
    "lang": "gal",
    "year": 2021,
    "month": 11,
    "day": 23,
    "title": "23 de novembro de 2002",
    "body": " Faleceu o bioqu\u00edmico \u00c1ngel Mart\u00edn Municio, o primeiro membro espa\u00f1ol da Organizaci\u00f3n Europea de Biolox\u00eda Molecular. Foi presidente da Real Academia de Ciencias Exactas, F\u00edsicas e Naturais durante 17 anos",
    "eventYear": "2002",
    "image": "https://calendario-cientifico-escolar.github.io/images/personajes/327.png"
}