{
    "lang": "gal",
    "year": 2021,
    "month": 11,
    "day": 9,
    "title": "9 de novembro de 1795",
    "body": " Naceu o cirurxi\u00e1n James Barry. Foi m\u00e9dico da Armada brit\u00e1nica e traballou para mellorar as condici\u00f3ns dos soldados feridos. Realizou a primeira ces\u00e1rea exitosa da que se ten constancia en \u00c1frica",
    "eventYear": "1795",
    "image": "https://calendario-cientifico-escolar.github.io/images/personajes/313.png"
}