{
    "lang": "cat",
    "year": 2021,
    "month": 5,
    "day": 2,
    "title": "2 de maig de 1997",
    "body": " L'equip cient\u00edfic d'Atapuerca va obtenir el premi Pr\u00edncep d'Ast\u00faries d'Investigaci\u00f3 Cient\u00edfica i T\u00e8cnica pel descobriment de l'Homo antecessor. Aquest hom\u00ednid va viure a Europa fa 800.000 anys",
    "eventYear": "1997",
    "image": "https://calendario-cientifico-escolar.github.io/images/personajes/122.png"
}