{
    "lang": "cat",
    "year": 2021,
    "month": 5,
    "day": 24,
    "title": "24 de maig de 1878",
    "body": " Va n\u00e9ixer la psic\u00f2loga i enginyera Lillian Moller Gilbreth. \u00c9s coneguda pel seu treball en l'aplicaci\u00f3 de l'organitzaci\u00f3 psicol\u00f2gica en la ind\u00fastria",
    "eventYear": "1878",
    "image": "https://calendario-cientifico-escolar.github.io/images/personajes/144.png"
}