{
    "lang": "cat",
    "year": 2021,
    "month": 5,
    "day": 25,
    "title": "25 de maig de 1880",
    "body": " Va n\u00e9ixer el neur\u00f2leg Jean Alexandre Barr\u00e9. Va identificar la s\u00edndrome de Guillain-Barr\u00e9, una malaltia neurol\u00f2gica rara",
    "eventYear": "1880",
    "image": "https://calendario-cientifico-escolar.github.io/images/personajes/145.png"
}