{
    "lang": "cat",
    "year": 2021,
    "month": 5,
    "day": 28,
    "title": "28 de maig de 1912",
    "body": " Va n\u00e9ixer l'astr\u00f2noma Ruby Violet Payne-Scott. Va estudiar la influ\u00e8ncia del camp magn\u00e8tic de la Terra i les erupcions solars",
    "eventYear": "1912",
    "image": "https://calendario-cientifico-escolar.github.io/images/personajes/148.png"
}