{
    "lang": "cat",
    "year": 2021,
    "month": 5,
    "day": 9,
    "title": "9 de maig de 1882",
    "body": " William H. Ford va patentar el disseny d'un estetoscopi amb la forma que encara s'usa en l'actualitat",
    "eventYear": "1882",
    "image": "https://calendario-cientifico-escolar.github.io/images/personajes/129.png"
}