{
    "lang": "cat",
    "year": 2021,
    "month": 2,
    "day": 1,
    "title": "1 de febrer de 1949",
    "body": " Va entrar en funcionament el telescopi Hale, el m\u00e9s gran del m\u00f3n en aquest moment (200 polzades)",
    "eventYear": "1949",
    "image": "https://calendario-cientifico-escolar.github.io/images/personajes/32.png"
}