{
    "lang": "cat",
    "year": 2021,
    "month": 2,
    "day": 2,
    "title": "2 de febrer de 1939",
    "body": " Va n\u00e9ixer la biotecn\u00f2loga Mary-Dell Chilton. Va ser una de les fundadores de la biotecnologia moderna en plantes",
    "eventYear": "1939",
    "image": "https://calendario-cientifico-escolar.github.io/images/personajes/33.png"
}