{
    "lang": "arag",
    "year": 2021,
    "month": 1,
    "day": 12,
    "title": "12 de chinero de 1925",
    "body": " Naixe l'albeitar Miguel Cordero del Campillo. Va estar una autoridat mundial en o campo d'a parasitoloch\u00eda. Va tener un paper clau en a naixencia d'a Universidat de Le\u00f3n",
    "eventYear": "1925",
    "image": "https://calendario-cientifico-escolar.github.io/images/personajes/12.png"
}