{
    "lang": "arag",
    "year": 2021,
    "month": 1,
    "day": 13,
    "title": "13 de chinero de 1927",
    "body": " Naixe lo biologo Sydney Brenner. Recibi\u00f3 un Premio Nobel per las suyas investigacions sobre la regulaci\u00f3n chenetica d'o desenrollo y la muerte celular",
    "eventYear": "1927",
    "image": "https://calendario-cientifico-escolar.github.io/images/personajes/13.png"
}