{
    "lang": "arag",
    "year": 2021,
    "month": 1,
    "day": 15,
    "title": "15 de chinero de 1826",
    "body": " Naixe l'asistent scientifica Marie Pasteur. Treball\u00f3 como asistent y colaboradora de Louis Pasteur, con qui yera casada. Lo suyo emparo esti\u00f3 esencial en os descubrimientos de l'investigador",
    "eventYear": "1826",
    "image": "https://calendario-cientifico-escolar.github.io/images/personajes/15.png"
}