{
    "lang": "arag",
    "year": 2021,
    "month": 1,
    "day": 26,
    "title": "26 de chinero de 1941",
    "body": " Naixe la bioquimica Joan Elaine Argetsinger Steitz. Va obtener fama internacional per los suyos descubrimientos sobre l'ARN",
    "eventYear": "1941",
    "image": "https://calendario-cientifico-escolar.github.io/images/personajes/26.png"
}