{
    "lang": "arag",
    "year": 2021,
    "month": 1,
    "day": 9,
    "title": "9 de chinero de 1923",
    "body": " L'inventor Juan de la Cierva fa servir con exito l'autochiro. Esta aeronau ye una mescla d'avi\u00f3n y helicoptero",
    "eventYear": "1923",
    "image": "https://calendario-cientifico-escolar.github.io/images/personajes/9.png"
}