{
    "lang": "astu",
    "year": 2021,
    "month": 11,
    "day": 20,
    "title": "20 de payares de 1985",
    "body": " El ciruxanu Leonard Lee Bailey fix\u00f3\u2019l primer tresplante de coraz\u00f3n exitosu nun ne\u00f1\u00edn",
    "eventYear": "1985",
    "image": "https://calendario-cientifico-escolar.github.io/images/personajes/324.png"
}