{
    "lang": "es",
    "year": 2021,
    "month": 6,
    "day": 26,
    "title": "26 de junio de 1974",
    "body": " El supermercado Marsh, en Ohio (Estados Unidos), efectu\u00f3 la primera lectura de un c\u00f3digo de barras en el mundo. Fue un paquete de chicles",
    "eventYear": "1974",
    "image": "https://calendario-cientifico-escolar.github.io/images/personajes/177.png"
}