{
    "lang": "es",
    "year": 2021,
    "month": 6,
    "day": 3,
    "title": "3 de junio de 1976",
    "body": " El cosm\u00f3grafo Vicente Tofi\u00f1o de San Miguel observ\u00f3 el paso de Venus por el Sol durante un eclipse. Public\u00f3 unas anotaciones de gran inter\u00e9s cient\u00edfico",
    "eventYear": "1976",
    "image": "https://calendario-cientifico-escolar.github.io/images/personajes/154.png"
}