{
    "lang": "es",
    "year": 2021,
    "month": 6,
    "day": 30,
    "title": "30 de junio de 1905",
    "body": " Albert Einstein public\u00f3 \"Sobre la electrodin\u00e1mica de los cuerpos en movimiento\". Ser\u00eda el inicio de la teor\u00eda de la relatividad especial",
    "eventYear": "1905",
    "image": "https://calendario-cientifico-escolar.github.io/images/personajes/181.png"
}