{
    "lang": "astu",
    "year": 2021,
    "month": 7,
    "day": 10,
    "title": "10 de xunetu de 2020",
    "body": " El CSIC desendolc\u00f3 nanosondes con aplicaciones nel diagn\u00f3sticu y tratamientu d\u2019enfermedaes. Les nanosondes pueden utilizase pa deteutar los primeros estadios d\u2019una enfermed\u00e1, pa dirixir f\u00e1rmacos de forma focalizada y como tresportadores d\u2019ADN o virus",
    "eventYear": "2020",
    "image": "https://calendario-cientifico-escolar.github.io/images/personajes/191.png"
}