{
    "lang": "gal",
    "year": 2021,
    "month": 7,
    "day": 10,
    "title": "10 de xullo de 2020",
    "body": " O CSIC desenvolveu nanosondas con aplicaci\u00f3ns no diagn\u00f3stico e tratamento de doenzas. As nanosondas poden utilizarse para detectar os primeiros estadios dunha enfermidade, para dirixir f\u00e1rmacos de forma focalizada e como transportadores de ADN ou virus",
    "eventYear": "2020",
    "image": "https://calendario-cientifico-escolar.github.io/images/personajes/191.png"
}