{
    "lang": "gal",
    "year": 2021,
    "month": 7,
    "day": 11,
    "title": "11 de xullo de 1901",
    "body": " Naceu a neurofisi\u00f3loga Ang\u00e9lique Arvanitaki. Xunto a Nick Chalazonitis investigaron a actividade el\u00e9ctrica das neuronas utilizando as fibras nerviosas do caracol com\u00fan",
    "eventYear": "1901",
    "image": "https://calendario-cientifico-escolar.github.io/images/personajes/192.png"
}