{
    "lang": "en",
    "year": 2021,
    "month": 7,
    "day": 12,
    "title": "July 12, 1764",
    "body": " The first sighting of a nebula took place. It was discovered by the astronomer Charles Messier, who gave it the number 27 of his catalog (M27). It is also known as the Dumbbell Nebula",
    "eventYear": "1764",
    "image": "https://calendario-cientifico-escolar.github.io/images/personajes/193.png"
}