{
    "lang": "es",
    "year": 2021,
    "month": 7,
    "day": 12,
    "title": "12 de julio de 1764",
    "body": " Tuvo lugar el primer avistamiento de una nebulosa. La descubri\u00f3 el astr\u00f3nomo Charles Messier y le puso el n\u00famero 27 de su cat\u00e1logo (M27). Tambi\u00e9n se conoce como nebulosa Dumbbell",
    "eventYear": "1764",
    "image": "https://calendario-cientifico-escolar.github.io/images/personajes/193.png"
}