{
    "lang": "cat",
    "year": 2021,
    "month": 7,
    "day": 13,
    "title": "13 de juliol de 1923",
    "body": " Es va recon\u00e8ixer per primera vegada l'exist\u00e8ncia d'ous de dinosaure fossilitzats. El descobriment va tenir lloc al desert del Gobi. Inicialment es creia que pertanyien a Protoceratops, per\u00f2 el 1995 es va determinar que pertanyen a Oviraptor",
    "eventYear": "1923",
    "image": "https://calendario-cientifico-escolar.github.io/images/personajes/194.png"
}