{
    "lang": "en",
    "year": 2021,
    "month": 7,
    "day": 14,
    "title": "July 14, 1862",
    "body": " Crystallography, mineralogy, and petrography expert Florence Bascom was born. She was the first US woman geologist",
    "eventYear": "1862",
    "image": "https://calendario-cientifico-escolar.github.io/images/personajes/195.png"
}