{
    "lang": "astu",
    "year": 2021,
    "month": 7,
    "day": 16,
    "title": "16 de xunetu de 2020",
    "body": " La misi\u00f3n Solar Orbiter, de l\u2019Axencia Espacial Europea (ESA) y la NASA, con participaci\u00f3n del CSIC, llogr\u00f3\u2019l primer mapa magn\u00e9ticu del Sol. El campu magn\u00e9ticu solar ye responsable de los fen\u00f3menos que reparamos nel Sol, como les manches, les nubes o l\u2019aire solar",
    "eventYear": "2020",
    "image": "https://calendario-cientifico-escolar.github.io/images/personajes/197.png"
}