{
    "lang": "gal",
    "year": 2021,
    "month": 7,
    "day": 16,
    "title": "16 de xullo de 2020",
    "body": " A misi\u00f3n Solar Orbiter, da Axencia Espacial Europea (ESA) e a NASA, con participaci\u00f3n do CSIC, obtivo o primeiro mapa magn\u00e9tico do Sol. O campo magn\u00e9tico solar \u00e9 responsable dos fen\u00f3menos que observamos no Sol, como as manchas, as tormentas ou o vento solar",
    "eventYear": "2020",
    "image": "https://calendario-cientifico-escolar.github.io/images/personajes/197.png"
}