{
    "lang": "arag",
    "year": 2021,
    "month": 7,
    "day": 19,
    "title": "19 de chuliol de 1945",
    "body": " Naixe la chenetista Nancy Wexler. Colabor\u00f3 en o descubrimiento d'a localizaci\u00f3n d'o chen que causa la malot\u00eda de Huntington",
    "eventYear": "1945",
    "image": "https://calendario-cientifico-escolar.github.io/images/personajes/200.png"
}