{
    "lang": "astu",
    "year": 2021,
    "month": 7,
    "day": 19,
    "title": "19 de xunetu de 1945",
    "body": " Naci\u00f3 la xenetista Nancy Wexler. Collabor\u00f3 nel descubrimientu del allugamientu del xen que causa la enfermed\u00e1 de Huntington",
    "eventYear": "1945",
    "image": "https://calendario-cientifico-escolar.github.io/images/personajes/200.png"
}