{
    "lang": "astu",
    "year": 2021,
    "month": 7,
    "day": 20,
    "title": "20 de xunetu de 1969",
    "body": " El m\u00f3dulu llunar d\u2019Apolo 11, llam\u00e1u Eagle, pos\u00f3 con \u00e9situ na Lluna",
    "eventYear": "1969",
    "image": "https://calendario-cientifico-escolar.github.io/images/personajes/201.png"
}