{
    "lang": "arag",
    "year": 2021,
    "month": 7,
    "day": 20,
    "title": "20 de chuliol de 1969",
    "body": " Lo modulo lunar d'Apolo 11, clamau Eagle, se posa con exito en a Luna",
    "eventYear": "1969",
    "image": "https://calendario-cientifico-escolar.github.io/images/personajes/201.png"
}