{
    "lang": "es",
    "year": 2021,
    "month": 7,
    "day": 20,
    "title": "20 de julio de 1969",
    "body": " El m\u00f3dulo lunar de Apolo 11, llamado Eagle, aterriz\u00f3 con \u00e9xito en la Luna",
    "eventYear": "1969",
    "image": "https://calendario-cientifico-escolar.github.io/images/personajes/201.png"
}