{
    "lang": "gal",
    "year": 2021,
    "month": 7,
    "day": 20,
    "title": "20 de xullo de 1969",
    "body": " O m\u00f3dulo lunar de Apolo 11, chamado Eagle, aterrou con \u00e9xito na L\u00faa",
    "eventYear": "1969",
    "image": "https://calendario-cientifico-escolar.github.io/images/personajes/201.png"
}