{
    "lang": "arag",
    "year": 2021,
    "month": 7,
    "day": 21,
    "title": "21 de chuliol de 2013",
    "body": " Se desenrolla una piel electronica sensible y flexible que imita la piel humana real. Esta piel puede detectar y responder a diferents nivels de presi\u00f3n",
    "eventYear": "2013",
    "image": "https://calendario-cientifico-escolar.github.io/images/personajes/202.png"
}