{
    "lang": "es",
    "year": 2021,
    "month": 7,
    "day": 21,
    "title": "21 de julio de 2013",
    "body": " Se desarroll\u00f3 una piel electr\u00f3nica sensible y flexible que imita la piel humana real. Esta piel puede detectar y responder a diferentes niveles de presi\u00f3n",
    "eventYear": "2013",
    "image": "https://calendario-cientifico-escolar.github.io/images/personajes/202.png"
}