{
    "lang": "gal",
    "year": 2021,
    "month": 7,
    "day": 23,
    "title": "23 de xullo de 2020",
    "body": " Un estudo con participaci\u00f3n do CSIC revelou unha reduci\u00f3n do 50% do ru\u00eddo s\u00edsmico xerado pola actividade humana. Esta reduci\u00f3n produciuse como consecuencia das medidas de confinamento pola pandemia do coronavirus",
    "eventYear": "2020",
    "image": "https://calendario-cientifico-escolar.github.io/images/personajes/204.png"
}