{
    "lang": "cat",
    "year": 2021,
    "month": 7,
    "day": 24,
    "title": "24 de juliol de 2009",
    "body": " Es va inaugurar el Gran Telescopio Canarias, a l'Observatori del Roque de los Muchachos. Es va convertir en el telescopi \u00f2ptic m\u00e9s gran de m\u00f3n",
    "eventYear": "2009",
    "image": "https://calendario-cientifico-escolar.github.io/images/personajes/205.png"
}