{
    "lang": "arag",
    "year": 2021,
    "month": 7,
    "day": 25,
    "title": "25 de chuliol de 1938",
    "body": " Naixe la psicologa Davida Teller. Lo suyo treballo contribuyi\u00f3 a la comprensi\u00f3n d'o desenrollo visual infantil",
    "eventYear": "1938",
    "image": "https://calendario-cientifico-escolar.github.io/images/personajes/206.png"
}