{
    "lang": "en",
    "year": 2021,
    "month": 7,
    "day": 26,
    "title": "July 26, 2005",
    "body": " The first International Day for the defense of the mangrove ecosystem was celebrated",
    "eventYear": "2005",
    "image": "https://calendario-cientifico-escolar.github.io/images/personajes/207.png"
}