{
    "lang": "astu",
    "year": 2021,
    "month": 7,
    "day": 28,
    "title": "28 de xunetu de 1635",
    "body": " Naci\u00f3\u2019l cient\u00edficu ingl\u00e9s Robert Hooke. Foi la primer persona en describir la vida microsc\u00f3pica nel so llibru Micrographia. Esti llibru conti\u00e9n per primer vegada la palabra c\u00e9lula",
    "eventYear": "1635",
    "image": "https://calendario-cientifico-escolar.github.io/images/personajes/209.png"
}