{
    "lang": "cat",
    "year": 2021,
    "month": 7,
    "day": 29,
    "title": "29 de juliol de 1796",
    "body": " Va n\u00e9ixer l'inventor Walter Hunt. \u00c9s conegut per haver creat l'imperdible",
    "eventYear": "1796",
    "image": "https://calendario-cientifico-escolar.github.io/images/personajes/210.png"
}