{
    "lang": "cat",
    "year": 2021,
    "month": 7,
    "day": 3,
    "title": "3 de juliol de 1865",
    "body": " Va n\u00e9ixer la professora Mary A. Kingsbury. Va estar a c\u00e0rrec de la biblioteca de l'Institut Erasmus Hall i es va convertir en la primera bibliotec\u00e0ria escolar de la hist\u00f2ria",
    "eventYear": "1865",
    "image": "https://calendario-cientifico-escolar.github.io/images/personajes/184.png"
}