{
    "lang": "es",
    "year": 2021,
    "month": 7,
    "day": 3,
    "title": "3 de julio de 1865",
    "body": " Naci\u00f3 la profesora Mary Kingsbury. Estuvo a cargo de la biblioteca del Instituto Erasmus Hall y se convirti\u00f3 en la primera bibliotecaria escolar de la historia",
    "eventYear": "1865",
    "image": "https://calendario-cientifico-escolar.github.io/images/personajes/184.png"
}