{
    "lang": "astu",
    "year": 2021,
    "month": 7,
    "day": 4,
    "title": "4 de xunetu de 2019",
    "body": " Present\u00f3se PRISMA nel Mus\u00e9u Nacional de Ciencies Naturales de Madrid. PRISMA ye l\u2019Asociaci\u00f3n pa la Diversid\u00e1 Afeutivo-sexual y de X\u00e9neru en Ciencia, Teunolox\u00eda ya Anovaci\u00f3n. El so oxetivu ye aumentar la visibilid\u00e1 del coleutivu LGTBIQA+ nel mundu cient\u00edficu",
    "eventYear": "2019",
    "image": "https://calendario-cientifico-escolar.github.io/images/personajes/185.png"
}