{
    "lang": "cat",
    "year": 2021,
    "month": 7,
    "day": 5,
    "title": "5 de juliol de 1904",
    "body": " Va n\u00e9ixer el bi\u00f2leg Ernst Walter Mayr. Va ser l\u00edder en el desenvolupament del neodarwinisme, que integra la teoria de l'evoluci\u00f3 i els coneixements en el camp de la gen\u00e8tica",
    "eventYear": "1904",
    "image": "https://calendario-cientifico-escolar.github.io/images/personajes/186.png"
}