{
    "lang": "eus",
    "year": 2021,
    "month": 7,
    "day": 6,
    "title": "1885/7/6",
    "body": " Louis Pasteurrek amorruaren txertoa jarri zion Josef Meister 9 urteko haurrari, txakur amorratu batek hari koska egin ondoren. Arrisku handiko jarduna izan zen, Pasteur ez zelako mediku-titulazioaren jabe, eta txertoa oraindik onartu gabe zegoelako. Alabaina, horri esker Josefen bizitza salbatu zuen",
    "eventYear": "1885",
    "image": "https://calendario-cientifico-escolar.github.io/images/personajes/187.png"
}