{
    "lang": "arag",
    "year": 2021,
    "month": 7,
    "day": 7,
    "title": "7 de chuliol de 1924",
    "body": " Naixe la neuroscientifica y psicologa Natalia Petrovna Bekhtereva. Meti\u00f3 en marcha un metodo complexo pa estudiar los mecanismos cerebrals d'o pensamiento, la memoria, las emocions y la creatividat",
    "eventYear": "1924",
    "image": "https://calendario-cientifico-escolar.github.io/images/personajes/188.png"
}