{
    "lang": "es",
    "year": 2021,
    "month": 7,
    "day": 7,
    "title": "7 de julio de 1924",
    "body": " Naci\u00f3 la neurocient\u00edfica y psic\u00f3loga Natalia Petrovna Bekhtereva. Puso en marcha un m\u00e9todo complejo para estudiar los mecanismos cerebrales del pensamiento, la memoria, las emociones y la creatividad",
    "eventYear": "1924",
    "image": "https://calendario-cientifico-escolar.github.io/images/personajes/188.png"
}