{
    "lang": "en",
    "year": 2021,
    "month": 7,
    "day": 9,
    "title": "July 9, 2015",
    "body": " A research team from IGME, the Complutense University of Madrid, and the University of Barcelona found a fly from 105 million years ago in perfect conditions. The fly had been preserved in amber in the cave of El Soplao (Cantabria) and still carried a pollen load on its abdomen",
    "eventYear": "2015",
    "image": "https://calendario-cientifico-escolar.github.io/images/personajes/190.png"
}