{
    "lang": "astu",
    "year": 2021,
    "month": 1,
    "day": 10,
    "title": "10 de xineru de 1860",
    "body": " El metro de Londres qued\u00f3 inaugur\u00e1u. Esti metro ye\u2019l sistema de tresporte p\u00fablicu baxo tierra m\u00e1s antiguu del mundu",
    "eventYear": "1860",
    "image": "https://calendario-cientifico-escolar.github.io/images/personajes/10.png"
}