{
    "lang": "eus",
    "year": 2021,
    "month": 1,
    "day": 12,
    "title": "1925/1/12",
    "body": " Miguel Cordero del Campillo albaitaria jaio zen. Mundu-mailako autoritate bat izan zen parasitologiaren alorrean. Funtsezko zeregin bat izan zuen Leongo Unibertsitatearen sorreran",
    "eventYear": "1925",
    "image": "https://calendario-cientifico-escolar.github.io/images/personajes/12.png"
}