{
    "lang": "gal",
    "year": 2021,
    "month": 1,
    "day": 12,
    "title": "12 de xaneiro de 1925",
    "body": " Naceu o veterinario Miguel Cordero del Campillo. Foi unha autoridade mundial no eido da parasitolox\u00eda. Tivo un papel chave no nacemento da Universidade de Le\u00f3n",
    "eventYear": "1925",
    "image": "https://calendario-cientifico-escolar.github.io/images/personajes/12.png"
}