{
    "lang": "astu",
    "year": 2021,
    "month": 1,
    "day": 14,
    "title": "14 de xineru de 1973",
    "body": " Elvis Presley fixo\u2019l primer conciertu tresmit\u00edu per v\u00eda sat\u00e9lite. F\u00edxose dende\u2019l Centru Internacional de Honolulu y pudo vese en 40 pa\u00edses",
    "eventYear": "1973",
    "image": "https://calendario-cientifico-escolar.github.io/images/personajes/14.png"
}