{
    "lang": "es",
    "year": 2021,
    "month": 1,
    "day": 14,
    "title": "14 de enero de 1973",
    "body": " Elvis Presley realiz\u00f3 el primer concierto transmitido por v\u00eda sat\u00e9lite. Se hizo desde el Centro Internacional de Honolulu y se pudo ver en 40 pa\u00edses",
    "eventYear": "1973",
    "image": "https://calendario-cientifico-escolar.github.io/images/personajes/14.png"
}