{
    "lang": "gal",
    "year": 2021,
    "month": 1,
    "day": 15,
    "title": "15 de xaneiro de 1826",
    "body": " Naceu a asistente cient\u00edfica Marie Pasteur. Traballou como asistente e colaboradora de Louis Pasteur, con quen estaba casada. O seu apoio foi esencial nas descubertas do investigador",
    "eventYear": "1826",
    "image": "https://calendario-cientifico-escolar.github.io/images/personajes/15.png"
}