{
    "lang": "eus",
    "year": 2021,
    "month": 1,
    "day": 17,
    "title": "1897/1/17",
    "body": " Caroline Emilie Bleeker fisikaria jaio zen. Besteak beste, tresna optikoen diseinuari eta fabrikazioari buruzko azterlan ezagunak egin zituen",
    "eventYear": "1897",
    "image": "https://calendario-cientifico-escolar.github.io/images/personajes/17.png"
}