{
    "lang": "cat",
    "year": 2021,
    "month": 1,
    "day": 18,
    "title": "18 de gener de 1969",
    "body": " Un equip d'astronomia de la Universitat d'Arizona va detectar els senyals \u00f2ptics d'un p\u00falsar per primera vegada",
    "eventYear": "1969",
    "image": "https://calendario-cientifico-escolar.github.io/images/personajes/18.png"
}