{
    "lang": "arag",
    "year": 2021,
    "month": 1,
    "day": 22,
    "title": "22 de chinero de 1909",
    "body": " Naixe lo farmaceutico y biologo Faustino Cord\u00f3n. Las suyas investigacions van estar centradas en o campo d'a evoluci\u00f3n. En 1979 va crear la Fundaci\u00f3n pa la Investigaci\u00f3n sobre la Bioloch\u00eda Evolucionista",
    "eventYear": "1909",
    "image": "https://calendario-cientifico-escolar.github.io/images/personajes/22.png"
}