{
    "lang": "es",
    "year": 2021,
    "month": 1,
    "day": 22,
    "title": "22 de enero de 1909",
    "body": " Naci\u00f3 el farmac\u00e9utico y bi\u00f3logo Faustino Cord\u00f3n. Sus investigaciones estuvieron centradas en el campo de la evoluci\u00f3n. En 1979 cre\u00f3 la Fundaci\u00f3n para la Investigaci\u00f3n sobre la Biolog\u00eda Evolucionista",
    "eventYear": "1909",
    "image": "https://calendario-cientifico-escolar.github.io/images/personajes/22.png"
}