{
    "lang": "arag",
    "year": 2021,
    "month": 1,
    "day": 24,
    "title": "24 de chinero de 1809",
    "body": " Naixe lo naturalista Mariano de la Paz Graells. Va descrebir nuevas especies d'insectos, entre las quals destaca la magnifica paixarela isabelina (Graellsia isabelae)",
    "eventYear": "1809",
    "image": "https://calendario-cientifico-escolar.github.io/images/personajes/24.png"
}