{
    "lang": "en",
    "year": 2021,
    "month": 1,
    "day": 24,
    "title": "January 24, 1809",
    "body": " Naturalist Mariano de la Paz Graells was born. He described new species of insects, among which the magnificent Elizabethan butterfly (Graellsia isabelae) stands out",
    "eventYear": "1809",
    "image": "https://calendario-cientifico-escolar.github.io/images/personajes/24.png"
}