{
    "lang": "es",
    "year": 2021,
    "month": 1,
    "day": 26,
    "title": "26 de enero de 1941",
    "body": " Naci\u00f3 la bioqu\u00edmica Joan Elaine Argetsinger Steitz. Gan\u00f3 fama internacional por sus descubrimientos sobre el ARN",
    "eventYear": "1941",
    "image": "https://calendario-cientifico-escolar.github.io/images/personajes/26.png"
}