{
    "lang": "es",
    "year": 2021,
    "month": 1,
    "day": 27,
    "title": "27 de enero de 1876",
    "body": " El ingeniero el\u00e9ctrico Elisha Gray solicit\u00f3 la patente del tel\u00e9grafo musical. Fue uno de los primeros instrumentos musicales el\u00e9ctricos",
    "eventYear": "1876",
    "image": "https://calendario-cientifico-escolar.github.io/images/personajes/27.png"
}