{
    "lang": "gal",
    "year": 2021,
    "month": 1,
    "day": 27,
    "title": "27 de xaneiro de 1876",
    "body": " O enxe\u00f1eiro el\u00e9ctrico Elisha Gray solicitou a patente do tel\u00e9grafo musical. Foi un dos primeiros instrumentos musicais el\u00e9ctricos",
    "eventYear": "1876",
    "image": "https://calendario-cientifico-escolar.github.io/images/personajes/27.png"
}