{
    "lang": "arag",
    "year": 2021,
    "month": 1,
    "day": 28,
    "title": "28 de chinero de 2013",
    "body": " La supercomputadora IBM Sequoia bate un record de calculo en modelar un motor pa un jet experimental. Pa ixo va contar con la aduya de mas d'un mill\u00f3n de nuclios de procesamiento",
    "eventYear": "2013",
    "image": "https://calendario-cientifico-escolar.github.io/images/personajes/28.png"
}