{
    "lang": "cat",
    "year": 2021,
    "month": 1,
    "day": 28,
    "title": "28 de gener de 2013",
    "body": " La supercomputadora IBM Sequoia va batre un r\u00e8cord de c\u00e0lcul modelant un motor per un jet experimental. Per aconseguir-ho va comptar amb l'ajuda de m\u00e9s d'un mili\u00f3 de nuclis de processament",
    "eventYear": "2013",
    "image": "https://calendario-cientifico-escolar.github.io/images/personajes/28.png"
}