{
    "lang": "es",
    "year": 2021,
    "month": 1,
    "day": 28,
    "title": "28 de enero de 2013",
    "body": " La supercomputadora IBM Sequoia bati\u00f3 un r\u00e9cord de c\u00e1lculo al modelar un motor para un jet experimental. Para ello cont\u00f3 con la ayuda de m\u00e1s de un mill\u00f3n de n\u00facleos de procesamiento",
    "eventYear": "2013",
    "image": "https://calendario-cientifico-escolar.github.io/images/personajes/28.png"
}