{
    "lang": "en",
    "year": 2021,
    "month": 1,
    "day": 29,
    "title": "January 29, 1947",
    "body": " Biologist and physician Linda Brown Buck was born. She won a Nobel Prize for her discovery of smell receptors and the organization of the olfactory system",
    "eventYear": "1947",
    "image": "https://calendario-cientifico-escolar.github.io/images/personajes/29.png"
}