{
    "lang": "cat",
    "year": 2021,
    "month": 1,
    "day": 2,
    "title": "2 de gener de 1839",
    "body": " Louis Daguerre va intentar fer la primera foto de l'espai. Per fer-la va utilitzar un daguerreotip i un telescopi, per\u00f2 no va tenir \u00e8xit (la foto va sortir borrosa)",
    "eventYear": "1839",
    "image": "https://calendario-cientifico-escolar.github.io/images/personajes/2.png"
}