{
    "lang": "gal",
    "year": 2021,
    "month": 1,
    "day": 30,
    "title": "30 de xaneiro de 1975",
    "body": " O escultor Ern\u0151 Rubik solicitou a patente do cubo m\u00e1xico. Este invento co\u00f1\u00e9cese actualmente como o cubo de Rubik",
    "eventYear": "1975",
    "image": "https://calendario-cientifico-escolar.github.io/images/personajes/30.png"
}