{
    "lang": "en",
    "year": 2021,
    "month": 1,
    "day": 31,
    "title": "January 31, 1925",
    "body": " Manuel Jal\u00f3n was born. He filed numerous patents, including such well-known tools as the mop or the disposable hypodermic syringe",
    "eventYear": "1925",
    "image": "https://calendario-cientifico-escolar.github.io/images/personajes/31.png"
}