{
    "lang": "cat",
    "year": 2021,
    "month": 1,
    "day": 6,
    "title": "6 de gener de 1838",
    "body": " Samuel Morse i Alfred Vail van utilitzar el tel\u00e8graf en p\u00fablic per primera vegada. Aquest invent es va convertir en un dels sistemes de comunicaci\u00f3 m\u00e9s populars durant d\u00e8cades",
    "eventYear": "1838",
    "image": "https://calendario-cientifico-escolar.github.io/images/personajes/6.png"
}