{
    "lang": "arag",
    "year": 2021,
    "month": 1,
    "day": 7,
    "title": "7 de chinero de 1992",
    "body": " La empresa AT&T presenta lo videofono. Fue lo primer telefono con pantalla de video",
    "eventYear": "1992",
    "image": "https://calendario-cientifico-escolar.github.io/images/personajes/7.png"
}