{
    "lang": "cat",
    "year": 2021,
    "month": 1,
    "day": 8,
    "title": "8 de gener de 1988",
    "body": " La Base Ant\u00e0rtica Espanyola Juan Carlos I va quedar inaugurada. Aquesta base cient\u00edfica \u00e9s gestionada pel CSIC i es localitza a l'illa Livingston de l'Ant\u00e0rtida",
    "eventYear": "1988",
    "image": "https://calendario-cientifico-escolar.github.io/images/personajes/8.png"
}