{
    "lang": "es",
    "year": 2021,
    "month": 1,
    "day": 8,
    "title": "8 de enero de 1988",
    "body": " La Base Ant\u00e1rtica Espa\u00f1ola Juan Carlos I qued\u00f3 inaugurada. Esta base cient\u00edfica est\u00e1 gestionada por el CSIC y se localiza en la isla Livingston de la Ant\u00e1rtida",
    "eventYear": "1988",
    "image": "https://calendario-cientifico-escolar.github.io/images/personajes/8.png"
}