{
    "lang": "eus",
    "year": 2021,
    "month": 1,
    "day": 8,
    "title": "1988/1/8",
    "body": " Juan Carlos I Espainiako Base Antartikoa inauguratu zen. CSICek kudeatzen du base zientifiko hori, Antartikako Livingston uhartean",
    "eventYear": "1988",
    "image": "https://calendario-cientifico-escolar.github.io/images/personajes/8.png"
}