{
    "lang": "gal",
    "year": 2021,
    "month": 1,
    "day": 8,
    "title": "8 de xaneiro de 1988",
    "body": " A Base Ant\u00e1rtica Espa\u00f1ola Xo\u00e1n Carlos I quedou inaugurada. Esta base cient\u00edfica est\u00e1 xestionada polo CSIC e local\u00edzase na illa Livingston da Ant\u00e1rtida",
    "eventYear": "1988",
    "image": "https://calendario-cientifico-escolar.github.io/images/personajes/8.png"
}