{
    "lang": "astu",
    "year": 2021,
    "month": 1,
    "day": 9,
    "title": "9 de xineru de 1923",
    "body": " L\u2019inventor Juan de la Cierva utiliz\u00f3 con \u00e9xitu l\u2019autoxiru. Esta aeronave ye una mestura d'avi\u00f3n y helic\u00f3pteru",
    "eventYear": "1923",
    "image": "https://calendario-cientifico-escolar.github.io/images/personajes/9.png"
}