{
    "lang": "es",
    "year": 2021,
    "month": 1,
    "day": 9,
    "title": "9 de enero de 1923",
    "body": " El inventor Juan de la Cierva utiliz\u00f3 con \u00e9xito el autogiro. Esta aeronave es una mezcla de avi\u00f3n y helic\u00f3ptero",
    "eventYear": "1923",
    "image": "https://calendario-cientifico-escolar.github.io/images/personajes/9.png"
}