{
    "lang": "astu",
    "year": 2021,
    "month": 1,
    "day": 1,
    "title": "1 de xineru de 1914",
    "body": " Naci\u00f3 Manuela Gar\u00edn Pinillos, una de les pioneres de la matem\u00e1tica mexicana. Los sos modelos matem\u00e1ticos foron un encontu pa esplicar el campu magn\u00e9ticu de la Tierra",
    "eventYear": "1914",
    "image": "https://calendario-cientifico-escolar.github.io/images/personajes/1.png"
}