{
    "lang": "astu",
    "year": 2021,
    "month": 1,
    "day": 18,
    "title": "18 de xineru de 1969",
    "body": " Un equipu d\u2019astronom\u00eda de la Universid\u00e1 d\u2019Arizona deteut\u00f3 les se\u00f1ales \u00f3ptiques d\u2019un p\u00falsar per primer vegada",
    "eventYear": "1969",
    "image": "https://calendario-cientifico-escolar.github.io/images/personajes/18.png"
}