{
    "lang": "astu",
    "year": 2021,
    "month": 1,
    "day": 19,
    "title": "19 de xineru de 1915",
    "body": " Georges Claude patent\u00f3\u2019l primer tubu de ne\u00f3n. Esti inventu populariz\u00f3se darr\u00e9u por cuenta del so emplegu en cartelos publicitarios",
    "eventYear": "1915",
    "image": "https://calendario-cientifico-escolar.github.io/images/personajes/19.png"
}