{
    "lang": "astu",
    "year": 2021,
    "month": 1,
    "day": 21,
    "title": "21 de xineru de 1865",
    "body": " Naci\u00f3 Sophia Jex-Blake, quien ye conocida como una de les Siete d\u2019Edimburgu. Dirix\u00f3 la campa\u00f1a p\u2019asegurar l\u2019accesu de les muyeres a la educaci\u00f3n universitaria y depu\u00e9s estudi\u00f3 Medicina",
    "eventYear": "1865",
    "image": "https://calendario-cientifico-escolar.github.io/images/personajes/21.png"
}