{
    "lang": "astu",
    "year": 2021,
    "month": 1,
    "day": 7,
    "title": "7 de xineru de 1992",
    "body": " La empresa AT&T present\u00f3\u2019l vide\u00f3fonu. Foi\u2019l primer tel\u00e9fonu con pantalla de videu",
    "eventYear": "1992",
    "image": "https://calendario-cientifico-escolar.github.io/images/personajes/7.png"
}