{
    "lang": "en",
    "year": 2021,
    "month": 7,
    "day": 17,
    "title": "July 17, 1819",
    "body": " Climatologist and inventor Eunice Newton Foote was born. She was a pioneer in the greenhouse effect research. She was three years ahead of John Tyndall's experiments, who was considered the discoverer of the CO2 effect in the atmosphere",
    "eventYear": "1819",
    "image": "https://calendario-cientifico-escolar.github.io/images/personajes/198.png"
}