{
    "lang": "en",
    "year": 2021,
    "month": 7,
    "day": 20,
    "title": "July 20, 1969",
    "body": " Apollo 11 lunar module, named Eagle, successfully landed on the Moon",
    "eventYear": "1969",
    "image": "https://calendario-cientifico-escolar.github.io/images/personajes/201.png"
}