{
    "lang": "en",
    "year": 2021,
    "month": 7,
    "day": 23,
    "title": "July 23, 2020",
    "body": " A study with the participation of the CSIC revealed a 50% reduction in seismic noise attributed to human activity. This reduction was observed as a consequence of the confinement measures due to the coronavirus pandemic",
    "eventYear": "2020",
    "image": "https://calendario-cientifico-escolar.github.io/images/personajes/204.png"
}