{
    "lang": "en",
    "year": 2021,
    "month": 7,
    "day": 4,
    "title": "July 4, 2019",
    "body": " PRISMA was presented at the National Museum of Natural Sciences of Madrid. PRISMA is the Association for Affective-Sexual and Gender Diversity in Science, Technology and Innovation. Its objective is to increase awareness of the LGBTQIA + collective in the scientific world",
    "eventYear": "2019",
    "image": "https://calendario-cientifico-escolar.github.io/images/personajes/185.png"
}