{
    "lang": "en",
    "year": 2021,
    "month": 7,
    "day": 7,
    "title": "July 7, 1924",
    "body": " Neuroscientist and psychologist Natalia Petrovna Bekhtereva was born. She launched a complex method to study the brain mechanisms of thought, memory, emotions, and creativity",
    "eventYear": "1924",
    "image": "https://calendario-cientifico-escolar.github.io/images/personajes/188.png"
}