{
    "lang": "en",
    "year": 2021,
    "month": 10,
    "day": 24,
    "title": "October 24, 1924",
    "body": " Biochemist and cereal specialist Evangelina Villegas was born. With her colleague Surinder K. Vasal, they developed high-quality corn protein, for which they won the World Food Award",
    "eventYear": "1924",
    "image": "https://calendario-cientifico-escolar.github.io/images/personajes/297.png"
}