{
    "lang": "en",
    "year": 2021,
    "month": 10,
    "day": 26,
    "title": "October 26, 1878",
    "body": " Mathematician Sixto C\u00e1mara Tecedor was born. He was the co-founder of the Spanish Association for the Progress of Sciences, the Spanish Mathematical Society, and the Laboratory and Mathematical Seminar of the Board for the Expansion of Studies",
    "eventYear": "1878",
    "image": "https://calendario-cientifico-escolar.github.io/images/personajes/299.png"
}