{
    "lang": "en",
    "year": 2021,
    "month": 10,
    "day": 31,
    "title": "October 31, 1798",
    "body": " John Dalton discovered dyschromatopsia. This eye disease is commonly known as daltonism",
    "eventYear": "1798",
    "image": "https://calendario-cientifico-escolar.github.io/images/personajes/304.png"
}