{
    "lang": "arag",
    "year": 2021,
    "month": 4,
    "day": 10,
    "title": "10 d'abril de 2011",
    "body": " Un estudio d'o IGME, CIATF y las Universidatz Complutense y de Lisboa descubre depositos de tsunamis en Tenerife. Los tsunamis van prevocar ondas de mas de 50 metros d'altura y se van asociar a la destrucci\u00f3n de l'edificio volcanico de Las Ca\u00f1adas, anterior a l'actual Teide",
    "eventYear": "2011",
    "image": "https://calendario-cientifico-escolar.github.io/images/personajes/100.png"
}