{
    "lang": "astu",
    "year": 2021,
    "month": 4,
    "day": 13,
    "title": "13 d\u2019abril de 2014",
    "body": " La espedici\u00f3n Subvent del IXME afay\u00f3 grandes bancos de moxones quimiosint\u00e9ticos alredor de fontes de metanu nel Golfo de C\u00e1diz. Tami\u00e9n afay\u00f3 nuevos volcanes submarinos en Lanzarote",
    "eventYear": "2014",
    "image": "https://calendario-cientifico-escolar.github.io/images/personajes/103.png"
}