{
    "lang": "gal",
    "year": 2021,
    "month": 4,
    "day": 13,
    "title": "13 de abril de 2014",
    "body": " A expedici\u00f3n Subvent do IGME descubriu grandes bancos de mexill\u00f3ns quimiosint\u00e9ticos ao redor de mananciais de metano no golfo de C\u00e1diz. Tam\u00e9n descubriu novos volc\u00e1ns submarinos en Lanzarote",
    "eventYear": "2014",
    "image": "https://calendario-cientifico-escolar.github.io/images/personajes/103.png"
}