{
    "lang": "es",
    "year": 2021,
    "month": 4,
    "day": 14,
    "title": "14 de abril de 1977",
    "body": " Rosemary Hutton public\u00f3 un art\u00edculo sobre c\u00f3mo la conductividad el\u00e9ctrica de las rocas puede usarse para investigar la historia geol\u00f3gica",
    "eventYear": "1977",
    "image": "https://calendario-cientifico-escolar.github.io/images/personajes/104.png"
}