{
    "lang": "cat",
    "year": 2021,
    "month": 4,
    "day": 15,
    "title": "15 de abril de 1452",
    "body": " Va n\u00e9ixer Leonardo da Vinci, pintor, escultor, inventor, enginyer i arquitecte del Renaixement",
    "eventYear": "1452",
    "image": "https://calendario-cientifico-escolar.github.io/images/personajes/105.png"
}