{
    "lang": "astu",
    "year": 2021,
    "month": 4,
    "day": 16,
    "title": "16 d\u2019abril de 1921",
    "body": " Isaac Carasso solicit\u00f3 la patente pa la ellaboraci\u00f3n d\u2019una lleche cuayao llamao com\u00fanmente \u00abyoghourt\u00bb. Bautiz\u00f3 la so empresa Danone, pol diminutivu del nome del so f\u00edu Daniel (\u00abDan\u00f3n\u00bb)",
    "eventYear": "1921",
    "image": "https://calendario-cientifico-escolar.github.io/images/personajes/106.png"
}