{
    "lang": "en",
    "year": 2021,
    "month": 4,
    "day": 17,
    "title": "April 17, 1887",
    "body": " Clodomiro Picado was born. He was a pioneer in research on snakes and their poisons. He was also one of the precursors to the discovery of penicillin",
    "eventYear": "1887",
    "image": "https://calendario-cientifico-escolar.github.io/images/personajes/107.png"
}