{
    "lang": "arag",
    "year": 2021,
    "month": 4,
    "day": 18,
    "title": "18 d'abril de 1917",
    "body": " Naixe la psicologa Mamie Phipps Clark. Va treballar en a comprensi\u00f3n d'o desenrollo d'a consciencia social en ninos preescolars",
    "eventYear": "1917",
    "image": "https://calendario-cientifico-escolar.github.io/images/personajes/108.png"
}