{
    "lang": "en",
    "year": 2021,
    "month": 4,
    "day": 18,
    "title": "April 18, 1917",
    "body": " Psychologist Mamie Phipps Clark was born. She worked on understanding the development of social awareness in preschool children",
    "eventYear": "1917",
    "image": "https://calendario-cientifico-escolar.github.io/images/personajes/108.png"
}