{
    "lang": "eus",
    "year": 2021,
    "month": 4,
    "day": 19,
    "title": "1946/4/19",
    "body": " Mar\u00eda Vallet Reg\u00ed kimikaria jaio zen. Aditua da traumatologiarako, odontologiarako edo ehunen ingeniaritzarako aplikazioak dauzkaten biomaterialen alorrean",
    "eventYear": "1946",
    "image": "https://calendario-cientifico-escolar.github.io/images/personajes/109.png"
}