{
    "lang": "gal",
    "year": 2021,
    "month": 4,
    "day": 19,
    "title": "19 de abril de 1946",
    "body": " Naceu a qu\u00edmica Mar\u00eda Vallet Reg\u00ed. \u00c9 experta no campo dos biomateriais con aplicaci\u00f3ns en traumatolox\u00eda, odontolox\u00eda ou enxe\u00f1ar\u00eda tisular",
    "eventYear": "1946",
    "image": "https://calendario-cientifico-escolar.github.io/images/personajes/109.png"
}