{
    "lang": "eus",
    "year": 2021,
    "month": 4,
    "day": 1,
    "title": "1940/4/1",
    "body": " Wangari Muta Maathai biologo eta ekologista jaio zen. 2004an Bakearen Nobel Saria jaso zuen, garapen jasangarriari eta demokraziari egindako ekarpenengatik. Sari hori lortu zuen lehen emakume afrikarra izan zen",
    "eventYear": "1940",
    "image": "https://calendario-cientifico-escolar.github.io/images/personajes/91.png"
}