{
    "lang": "en",
    "year": 2021,
    "month": 4,
    "day": 22,
    "title": "April 22, 1999",
    "body": " Opening of the Logro\u00f1o's House of Sciences. This center is dedicated to the dissemination of the culture of science and technology, through exhibitions, conferences, training, projections, and scientific demonstrations",
    "eventYear": "1999",
    "image": "https://calendario-cientifico-escolar.github.io/images/personajes/112.png"
}