{
    "lang": "cat",
    "year": 2021,
    "month": 4,
    "day": 23,
    "title": "23 de abril de 1933",
    "body": " Va n\u00e9ixer la inform\u00e0tica Annie J. Easley. Va treballar en el Lewis Research Center de la NASA. Va formar part de l'equip que va desenvolupar el software del coet Centauro",
    "eventYear": "1933",
    "image": "https://calendario-cientifico-escolar.github.io/images/personajes/113.png"
}