{
    "lang": "eus",
    "year": 2021,
    "month": 4,
    "day": 24,
    "title": "2013/4/24",
    "body": " IBMk robot bat garatu zuen telepresentzia eta errealitate areagotuko teknologiak uztartuz, urruneko eremuetako ingeniaritza-proiektuetan laguntzeko",
    "eventYear": "2013",
    "image": "https://calendario-cientifico-escolar.github.io/images/personajes/114.png"
}