{
    "lang": "arag",
    "year": 2021,
    "month": 4,
    "day": 25,
    "title": "25 d'abril de 1945",
    "body": " Naixe la embriologa Jean Marian Purdy. Fue una d'as responsables d'o desenrollo d'a fecundaci\u00f3n in vitro",
    "eventYear": "1945",
    "image": "https://calendario-cientifico-escolar.github.io/images/personajes/115.png"
}