{
    "lang": "eus",
    "year": 2021,
    "month": 4,
    "day": 25,
    "title": "1945/4/25",
    "body": " Jean Marian Purdy enbriologoa jaio zen. In vitro ernalketaren garapenaren arduradunetako bat izan zen",
    "eventYear": "1945",
    "image": "https://calendario-cientifico-escolar.github.io/images/personajes/115.png"
}