{
    "lang": "arag",
    "year": 2021,
    "month": 4,
    "day": 26,
    "title": "26 d'abril de 1927",
    "body": " Naixe la biologa Anne McLaren. Va estar pionera en o estudio d'a bioloch\u00eda d'o desenrollo. Lo suyo treballo va aduyar a desenrollar la tecnica de fertilizaci\u00f3n in vitro",
    "eventYear": "1927",
    "image": "https://calendario-cientifico-escolar.github.io/images/personajes/116.png"
}