{
    "lang": "es",
    "year": 2021,
    "month": 4,
    "day": 26,
    "title": "26 de abril de 1927",
    "body": " Naci\u00f3 la bi\u00f3loga Anne McLaren. Fue pionera en el estudio de la biolog\u00eda del desarrollo. Su trabajo ayud\u00f3 a desarrollar la t\u00e9cnica de fertilizaci\u00f3n in vitro",
    "eventYear": "1927",
    "image": "https://calendario-cientifico-escolar.github.io/images/personajes/116.png"
}