{
    "lang": "es",
    "year": 2021,
    "month": 4,
    "day": 27,
    "title": "27 de abril de 1993",
    "body": " El trombonista John Kenny fue el primero en hacer sonar un carnyx desde la \u00e9poca celta. Para ello, utiliz\u00f3 una reconstrucci\u00f3n del carnyx de Deskford realizada por el music\u00f3logo John Purser y el orfebre John Creed. El instrumento original y la reconstrucci\u00f3n se muestran en el Museo Nacional de Escocia",
    "eventYear": "1993",
    "image": "https://calendario-cientifico-escolar.github.io/images/personajes/117.png"
}