{
    "lang": "eus",
    "year": 2021,
    "month": 4,
    "day": 2,
    "title": "1618/4/2",
    "body": " Francesco Grimaldi fisikaria jaio zen. Argiaren difrakzioa aurkitu zuen",
    "eventYear": "1618",
    "image": "https://calendario-cientifico-escolar.github.io/images/personajes/92.png"
}