{
    "lang": "eus",
    "year": 2021,
    "month": 4,
    "day": 30,
    "title": "2010/4/30",
    "body": " IGMEko ikertzaileek, erregistro historikotik desagertutako hezegune bat aurkitu zuten, XVIII. eta XIX. mendeetako mapetan",
    "eventYear": "2010",
    "image": "https://calendario-cientifico-escolar.github.io/images/personajes/120.png"
}