{
    "lang": "cat",
    "year": 2021,
    "month": 4,
    "day": 3,
    "title": "3 de abril de 1934",
    "body": " Va n\u00e9ixer la primat\u00f2loga Jane Goodall. \u00c9s reconeguda mundialment pels seus estudis sobre les interaccions socials i familiars dels ximpanz\u00e9s",
    "eventYear": "1934",
    "image": "https://calendario-cientifico-escolar.github.io/images/personajes/93.png"
}