{
    "lang": "cat",
    "year": 2021,
    "month": 4,
    "day": 4,
    "title": "4 de abril de 1868",
    "body": " Va n\u00e9ixer la matem\u00e0tica Philippa Garrett Fawcett. Va guanyar una beca a la Universitat de Cambridge gr\u00e0cies al seu extraordinari \u00e8xit en el Mathematical Tripos (1890). Va investigar sobre din\u00e0mica de fluids",
    "eventYear": "1868",
    "image": "https://calendario-cientifico-escolar.github.io/images/personajes/94.png"
}