{
    "lang": "eus",
    "year": 2021,
    "month": 4,
    "day": 4,
    "title": "1868/4/4",
    "body": " Philippa Garrett Fawcett matematikaria jaio zen. Cambridgeko Unibertsitateko beka bat irabazi zuen, Mathematical Tripos ikastaroan izan zuen egundoko arrakastari esker (1890). Fluidoen dinamikari buruzko ikerketak egin zituen",
    "eventYear": "1868",
    "image": "https://calendario-cientifico-escolar.github.io/images/personajes/94.png"
}