{
    "lang": "es",
    "year": 2021,
    "month": 4,
    "day": 6,
    "title": "6 de abril de 1846",
    "body": " Naci\u00f3 Antonio Machado y \u00c1lvarez (Dem\u00f3filo), padre de los poetas Antonio y Manuel Machado. Fue uno de los primeros folcloristas en estudiar cient\u00edficamente el flamenco",
    "eventYear": "1846",
    "image": "https://calendario-cientifico-escolar.github.io/images/personajes/96.png"
}