{
    "lang": "eus",
    "year": 2021,
    "month": 4,
    "day": 7,
    "title": "1995/4/7",
    "body": " A Coru\u00f1an Domus inauguratu zen, gizakia modu global eta monografikoan aztertzen duen lehen museo interaktibo zientifikoa",
    "eventYear": "1995",
    "image": "https://calendario-cientifico-escolar.github.io/images/personajes/97.png"
}