{
    "lang": "eus",
    "year": 2021,
    "month": 4,
    "day": 8,
    "title": "1911/4/8",
    "body": " Melvin Calvin kimikaria jaio zen. Kimikaren Nobel Saria irabazi zuen, landareen CO2aren asimilazioari buruzko lanengatik",
    "eventYear": "1911",
    "image": "https://calendario-cientifico-escolar.github.io/images/personajes/98.png"
}