{
    "lang": "en",
    "year": 2021,
    "month": 5,
    "day": 18,
    "title": "May 18, 2012",
    "body": " The first International Plant Fascination Day was celebrated. Its objective is to recognize the importance of plants in our lives. They provide food for people and animals, paper, wood, energy, and pharmaceutical products",
    "eventYear": "2012",
    "image": "https://calendario-cientifico-escolar.github.io/images/personajes/138.png"
}