{
    "lang": "en",
    "year": 2021,
    "month": 5,
    "day": 21,
    "title": "May 21, 1921",
    "body": " Physicist Andrei Sakharov was born. He participated in the development of atomic bombs in the 1950s. Later, he fought against the proliferation of nuclear weapons and was awarded the Nobel Peace Prize in 1975",
    "eventYear": "1921",
    "image": "https://calendario-cientifico-escolar.github.io/images/personajes/141.png"
}