{
    "lang": "en",
    "year": 2021,
    "month": 5,
    "day": 4,
    "title": "May 4, 1825",
    "body": " Biologist Thomas Huxley was born. He was the first to suggest that birds evolved from dinosaurs",
    "eventYear": "1825",
    "image": "https://calendario-cientifico-escolar.github.io/images/personajes/124.png"
}