{
    "lang": "en",
    "year": 2021,
    "month": 5,
    "day": 5,
    "title": "May 5, 1882",
    "body": " Spanish physician and scientist P\u00edo del R\u00edo Ortega was born. He discovered the microglia, a type of cell from the nervous system",
    "eventYear": "1882",
    "image": "https://calendario-cientifico-escolar.github.io/images/personajes/125.png"
}