{
    "lang": "eus",
    "year": 2021,
    "month": 10,
    "day": 12,
    "title": "1920/10/12",
    "body": " Leslie Barnett mikrobiologoa jaio zen. Geneen egituraren eta funtzioen gaineko aurrerapen eta aurkikuntza nagusietako batzuetan lagundu zuen",
    "eventYear": "1920",
    "image": "https://calendario-cientifico-escolar.github.io/images/personajes/285.png"
}