{
    "lang": "eus",
    "year": 2021,
    "month": 10,
    "day": 13,
    "title": "1914/10/13",
    "body": " Garret Morganek gas-maskara patentatu zuen. Urte batzuk geroago, asmatzaile horrek semaforo automatikoa sortu zuen, ohartarazpen-argiaz hornitua",
    "eventYear": "1914",
    "image": "https://calendario-cientifico-escolar.github.io/images/personajes/286.png"
}