{
    "lang": "eus",
    "year": 2021,
    "month": 10,
    "day": 16,
    "title": "1969/10/16",
    "body": " Do\u00f1ana Parke Nazional bihurtu zen. Bertako padura paseko, hazkuntzako eta negu-pasako gunea da Europako eta Afrikako milaka hegaztirentzat",
    "eventYear": "1969",
    "image": "https://calendario-cientifico-escolar.github.io/images/personajes/289.png"
}