{
    "lang": "eus",
    "year": 2021,
    "month": 10,
    "day": 22,
    "title": "1949/10/22",
    "body": " Rafael Matesanz medikua jaio zen. 1989an Organizaci\u00f3n Nacional de Trasplantes (ONT) erakundea sortu zuen, eta, bertan ezarritako protokoloei esker, Espainia liderra da munduan transplanteen alorrean",
    "eventYear": "1949",
    "image": "https://calendario-cientifico-escolar.github.io/images/personajes/295.png"
}