{
    "lang": "eus",
    "year": 2021,
    "month": 10,
    "day": 23,
    "title": "1887/10/23",
    "body": " Espainiako Armada Peral urpekaria eraikitzen hasi zen. Propultsio elektriko bidezko torpedo-urpekari hori historiako lehen urpekari militarra izan zen",
    "eventYear": "1887",
    "image": "https://calendario-cientifico-escolar.github.io/images/personajes/296.png"
}