{
    "lang": "eus",
    "year": 2021,
    "month": 10,
    "day": 28,
    "title": "1848/10/28",
    "body": " Iberiar penintsulako lehen trenbidea inauguratu zen. Bartzelona eta Matar\u00f3 lotzen zituen, eta, eraikuntza-lanetarako, Espainiako lehen trenbide-tunela zulatu behar izan zuten",
    "eventYear": "1848",
    "image": "https://calendario-cientifico-escolar.github.io/images/personajes/301.png"
}