{
    "lang": "eus",
    "year": 2021,
    "month": 10,
    "day": 4,
    "title": "1949/10/4",
    "body": " Mariano Barbacid biokimikaria jaio zen. Lehen giza onkogenea isolatu zuen (H-ras). Onkogeneen eraginez, zelula arrunt bat minbizi bat garatuko duen zelula gaizto bihurtzen da",
    "eventYear": "1949",
    "image": "https://calendario-cientifico-escolar.github.io/images/personajes/277.png"
}