{
    "lang": "eus",
    "year": 2021,
    "month": 10,
    "day": 9,
    "title": "1902/10/9",
    "body": " Nazioarteko komunitate zientifikoak Altamirako kobako Paleolito artearen egiazkotasuna onetsi zuen. Mar\u00eda Sanz de Sautuola neskatoak lehenago aurkituak zituen pintura horiek, Marcelino aitarekin kobazuloan barrena zebilela",
    "eventYear": "1902",
    "image": "https://calendario-cientifico-escolar.github.io/images/personajes/282.png"
}