{
    "lang": "es",
    "year": 2021,
    "month": 1,
    "day": 10,
    "title": "10 de enero de 1860",
    "body": " El metro de Londres qued\u00f3 inaugurado. Este metro es el sistema de transporte p\u00fablico bajo tierra m\u00e1s antiguo del mundo",
    "eventYear": "1860",
    "image": "https://calendario-cientifico-escolar.github.io/images/personajes/10.png"
}