{
    "lang": "es",
    "year": 2021,
    "month": 1,
    "day": 13,
    "title": "13 de enero de 1927",
    "body": " Naci\u00f3 el bi\u00f3logo Sydney Brenner. Recibi\u00f3 un Premio Nobel por sus investigaciones sobre la regulaci\u00f3n gen\u00e9tica del desarrollo y la muerte celular",
    "eventYear": "1927",
    "image": "https://calendario-cientifico-escolar.github.io/images/personajes/13.png"
}