{
    "lang": "es",
    "year": 2021,
    "month": 1,
    "day": 15,
    "title": "15 de enero de 1826",
    "body": " Naci\u00f3 la asistente cient\u00edfica Marie Pasteur. Trabaj\u00f3 como asistente y colaboradora de Louis Pasteur, con quien estaba casada. Su apoyo fue esencial en los descubrimientos del investigador",
    "eventYear": "1826",
    "image": "https://calendario-cientifico-escolar.github.io/images/personajes/15.png"
}