{
    "lang": "es",
    "year": 2021,
    "month": 1,
    "day": 18,
    "title": "18 de enero de 1969",
    "body": " Un equipo de astronom\u00eda de la Universidad de Arizona detect\u00f3 las se\u00f1ales \u00f3pticas de un p\u00falsar por primera vez",
    "eventYear": "1969",
    "image": "https://calendario-cientifico-escolar.github.io/images/personajes/18.png"
}