{
    "lang": "es",
    "year": 2021,
    "month": 1,
    "day": 20,
    "title": "20 de enero de 1944",
    "body": " Se fund\u00f3 la Estaci\u00f3n de Biolog\u00eda Experimental de Cogullada (conocida actualmente como Estaci\u00f3n Experimental de Aula Dei). El objetivo de este instituto del CSIC es mejorar la competitividad y sostenibilidad del sector agr\u00edcola",
    "eventYear": "1944",
    "image": "https://calendario-cientifico-escolar.github.io/images/personajes/20.png"
}