{
    "lang": "es",
    "year": 2021,
    "month": 1,
    "day": 30,
    "title": "30 de enero de 1975",
    "body": " El escultor Ern\u0151 Rubik solicit\u00f3 la patente del cubo m\u00e1gico. Este invento se conoce actualmente como el cubo de Rubik",
    "eventYear": "1975",
    "image": "https://calendario-cientifico-escolar.github.io/images/personajes/30.png"
}