{
    "lang": "es",
    "year": 2021,
    "month": 5,
    "day": 8,
    "title": "8 de mayo de 1980",
    "body": " La OMS certific\u00f3 la erradicaci\u00f3n de la viruela. Este hito se consigui\u00f3 gracias a la vacunaci\u00f3n",
    "eventYear": "1980",
    "image": "https://calendario-cientifico-escolar.github.io/images/personajes/128.png"
}