{
    "lang": "eus",
    "year": 2021,
    "month": 9,
    "day": 12,
    "title": "1958/9/12",
    "body": " Jack Kilby ingeniari elektrikoak munduko lehen zirkuitu integratua aurkeztu zuen. Zirkuitu integratuei txipak edo mikrotxipak ere esaten zaie",
    "eventYear": "1958",
    "image": "https://calendario-cientifico-escolar.github.io/images/personajes/255.png"
}