{
    "lang": "eus",
    "year": 2021,
    "month": 9,
    "day": 5,
    "title": "1885/9/5",
    "body": " Lehen gasolindegia ezarri zen. Indianako garaje batean izan zen, Estatu Batuetan",
    "eventYear": "1885",
    "image": "https://calendario-cientifico-escolar.github.io/images/personajes/248.png"
}