{
    "lang": "eus",
    "year": 2021,
    "month": 9,
    "day": 9,
    "title": "1936/9/9",
    "body": " Daisy Roulland-Dussoix mikrobiologo molekularra jaio zen. Murrizketa-entzimen aurkikuntzan lagundu zuen",
    "eventYear": "1936",
    "image": "https://calendario-cientifico-escolar.github.io/images/personajes/252.png"
}