{
    "lang": "eus",
    "year": 2021,
    "month": 10,
    "day": 10,
    "title": "1966/10/10",
    "body": " Carolyn Bertozzi kimikaria jaio zen. Gluzidoek minbizian, artritisean, tuberkulosian eta beste hainbat gaixotasunetan betetzen duten zeregina aztertu zuen",
    "eventYear": "1966",
    "image": "https://calendario-cientifico-escolar.github.io/images/personajes/283.png"
}