{
    "lang": "gal",
    "year": 2021,
    "month": 10,
    "day": 11,
    "title": "11 de outubro de 1755",
    "body": " Naceu o qu\u00edmico Fausto Delhuyar. Xunto ao seu irm\u00e1n Juan Jos\u00e9, tam\u00e9n qu\u00edmico, foron os primeiros en illar o volframio (n\u00famero at\u00f3mico 74 na t\u00e1boa peri\u00f3dica). Este metal \u00e9 moi escaso e moi cobizado polas s\u00faas m\u00faltiplas aplicaci\u00f3ns",
    "eventYear": "1755",
    "image": "https://calendario-cientifico-escolar.github.io/images/personajes/284.png"
}