{
    "lang": "es",
    "year": 2021,
    "month": 10,
    "day": 12,
    "title": "12 de octubre de 1920",
    "body": " Naci\u00f3 la microbi\u00f3loga Leslie Barnett. Colabor\u00f3 en algunos de los avances y descubrimientos m\u00e1s importantes sobre la estructura y las funciones de los genes",
    "eventYear": "1920",
    "image": "https://calendario-cientifico-escolar.github.io/images/personajes/285.png"
}