{
    "lang": "cat",
    "year": 2021,
    "month": 10,
    "day": 13,
    "title": "13 de octubre de 1914",
    "body": " Garret Morgan va patentar la m\u00e0scara de gas. Uns anys despr\u00e9s, aquest inventor va crear el sem\u00e0for autom\u00e0tic amb llum d'advert\u00e8ncia",
    "eventYear": "1914",
    "image": "https://calendario-cientifico-escolar.github.io/images/personajes/286.png"
}