{
    "lang": "gal",
    "year": 2021,
    "month": 10,
    "day": 15,
    "title": "15 de outubro de 1902",
    "body": " Naceu a m\u00e9dica Amparo Poch y Gasc\u00f3n. Especializouse en puericultura e realizou un gran labor educativo entre as clases sociais m\u00e1is modestas para evitar enfermidades de tipo ven\u00e9reo",
    "eventYear": "1902",
    "image": "https://calendario-cientifico-escolar.github.io/images/personajes/288.png"
}