{
    "lang": "en",
    "year": 2021,
    "month": 10,
    "day": 17,
    "title": "October 17, 1919",
    "body": " The first underground line in Spain started to operate. It ran between Puerta del Sol and Cuatro Caminos, in Madrid",
    "eventYear": "1919",
    "image": "https://calendario-cientifico-escolar.github.io/images/personajes/290.png"
}