{
    "lang": "gal",
    "year": 2021,
    "month": 10,
    "day": 18,
    "title": "18 de outubro de 1799",
    "body": " Naceu o qu\u00edmico Christian Schoenbein. Descubriu a nitrocelulosa e puxo nome ao ozono",
    "eventYear": "1799",
    "image": "https://calendario-cientifico-escolar.github.io/images/personajes/291.png"
}