{
    "lang": "es",
    "year": 2021,
    "month": 10,
    "day": 20,
    "title": "20 de octubre de 1850",
    "body": " Naci\u00f3 la naturalista Alice Blanche Balfour. Trabaj\u00f3 en el campo de la entomolog\u00eda y fue pionera en gen\u00e9tica. Estudi\u00f3 c\u00f3mo se hereda el patr\u00f3n de rayas de las cebras",
    "eventYear": "1850",
    "image": "https://calendario-cientifico-escolar.github.io/images/personajes/293.png"
}