{
    "lang": "arag",
    "year": 2021,
    "month": 10,
    "day": 21,
    "title": "21 d'octubre de 1879",
    "body": " Thomas Edison presenta la bombilla electrica",
    "eventYear": "1879",
    "image": "https://calendario-cientifico-escolar.github.io/images/personajes/294.png"
}