{
    "lang": "en",
    "year": 2021,
    "month": 10,
    "day": 21,
    "title": "October 21, 1879",
    "body": " Thomas Edison introduced the electric light bulb",
    "eventYear": "1879",
    "image": "https://calendario-cientifico-escolar.github.io/images/personajes/294.png"
}