{
    "lang": "arag",
    "year": 2021,
    "month": 10,
    "day": 22,
    "title": "22 d'octubre de 1949",
    "body": " Naixe lo medico Rafael Matesanz. En 1989 va fundar la Organizaci\u00f3n Nacional de Trasplants (ONT), en do se van establir los protocolos responsables de que Espanya s\u00eda lider mundial en trasplants",
    "eventYear": "1949",
    "image": "https://calendario-cientifico-escolar.github.io/images/personajes/295.png"
}