{
    "lang": "gal",
    "year": 2021,
    "month": 10,
    "day": 22,
    "title": "22 de outubro de 1949",
    "body": " Naceu o m\u00e9dico Rafael Matesanz. En 1989 fundou a Organizaci\u00f3n Nacional de Transplantes (ONT), onde se estableceron os protocolos responsables de que Espa\u00f1a sexa l\u00edder mundial en transplantes",
    "eventYear": "1949",
    "image": "https://calendario-cientifico-escolar.github.io/images/personajes/295.png"
}