{
    "lang": "arag",
    "year": 2021,
    "month": 10,
    "day": 23,
    "title": "23 d'octubre de 1887",
    "body": " L'Armada Espanyola prencipia a construyir lo submarino Peral. Este submerchible torpedero a propulsi\u00f3n electrica esti\u00f3 lo primer submarino militar d'a historia",
    "eventYear": "1887",
    "image": "https://calendario-cientifico-escolar.github.io/images/personajes/296.png"
}