{
    "lang": "es",
    "year": 2021,
    "month": 10,
    "day": 23,
    "title": "23 de octubre de 1887",
    "body": " La Armada Espa\u00f1ola comenz\u00f3 a construir el submarino Peral. Este sumergible torpedero a propulsi\u00f3n el\u00e9ctrica fue el primer submarino militar de la historia",
    "eventYear": "1887",
    "image": "https://calendario-cientifico-escolar.github.io/images/personajes/296.png"
}