{
    "lang": "es",
    "year": 2021,
    "month": 10,
    "day": 25,
    "title": "25 de octubre de 1906",
    "body": " Santiago Ram\u00f3n y Cajal recibi\u00f3 la notificaci\u00f3n de que hab\u00eda ganado el premio Nobel de Medicina. Al parecer, su primera reacci\u00f3n fue comentar que se trataba de una broma de los estudiantes. Al d\u00eda siguiente lo ley\u00f3 en los peri\u00f3dicos",
    "eventYear": "1906",
    "image": "https://calendario-cientifico-escolar.github.io/images/personajes/298.png"
}