{
    "lang": "astu",
    "year": 2021,
    "month": 10,
    "day": 27,
    "title": "27 d\u2019ochobre de 1904",
    "body": " Philip Downing invent\u00f3 l\u2019apart\u00e1u de correos, inda g\u00fcei n\u2019usu",
    "eventYear": "1904",
    "image": "https://calendario-cientifico-escolar.github.io/images/personajes/300.png"
}