{
    "lang": "cat",
    "year": 2021,
    "month": 10,
    "day": 27,
    "title": "27 de octubre de 1904",
    "body": " Philip Downing va inventar l'apartat de correus, encara en \u00fas en l'actualitat",
    "eventYear": "1904",
    "image": "https://calendario-cientifico-escolar.github.io/images/personajes/300.png"
}