{
    "lang": "es",
    "year": 2021,
    "month": 10,
    "day": 27,
    "title": "27 de octubre de 1904",
    "body": " Philip Downing invent\u00f3 el apartado de correos, todav\u00eda en uso en la actualidad",
    "eventYear": "1904",
    "image": "https://calendario-cientifico-escolar.github.io/images/personajes/300.png"
}