{
    "lang": "en",
    "year": 2021,
    "month": 10,
    "day": 28,
    "title": "October 28, 1848",
    "body": " The first railway in the Iberian Peninsula was inaugurated. It connected Barcelona with Matar\u00f3. This construction forced to drill the first railway tunnel in Spain",
    "eventYear": "1848",
    "image": "https://calendario-cientifico-escolar.github.io/images/personajes/301.png"
}