{
    "lang": "gal",
    "year": 2021,
    "month": 10,
    "day": 28,
    "title": "28 de outubro de 1848",
    "body": " Inaug\u00farase o primeiro ferrocarril da pen\u00ednsula Ib\u00e9rica. Conectaba Barcelona con Matar\u00f3 e a s\u00faa construci\u00f3n obrigou a perforar o primeiro t\u00fanel ferroviario de Espa\u00f1a",
    "eventYear": "1848",
    "image": "https://calendario-cientifico-escolar.github.io/images/personajes/301.png"
}