{
    "lang": "astu",
    "year": 2021,
    "month": 10,
    "day": 30,
    "title": "30 d\u2019ochobre de 1900",
    "body": " Naci\u00f3\u2019l cient\u00edficu Ragnar Granit. Gan\u00f3\u2019l Premiu Nobel polos sos descubrimientos de los procesos fisiol\u00f3xicos y qu\u00edmicos nel g\u00fceyu",
    "eventYear": "1900",
    "image": "https://calendario-cientifico-escolar.github.io/images/personajes/303.png"
}