{
    "lang": "es",
    "year": 2021,
    "month": 10,
    "day": 31,
    "title": "31 de octubre de 1798",
    "body": " John Dalton descubri\u00f3 la discromatopsia. Esta enfermedad de la vista se conoce vulgarmente como daltonismo",
    "eventYear": "1798",
    "image": "https://calendario-cientifico-escolar.github.io/images/personajes/304.png"
}