{
    "lang": "eus",
    "year": 2021,
    "month": 10,
    "day": 3,
    "title": "1946/10/3",
    "body": " Rosalind Franklin kimikari eta kristalografoak ikatzaren kimikaren gaineko doktorego-lana argitaratu zuen. DNAren egitura molekularra ulertzeko funtsezko lana izan zen",
    "eventYear": "1946",
    "image": "https://calendario-cientifico-escolar.github.io/images/personajes/276.png"
}