{
    "lang": "arag",
    "year": 2021,
    "month": 10,
    "day": 4,
    "title": "4 d'octubre de 1949",
    "body": " Naixe lo bioquimico Mariano Barbacid. Va isolar lo primer oncoch\u00e9n humano (H-ras). Los oncochens son los responsables de que una celula normal se transforme en una celula maligna que esdevendr\u00e1 un cancer",
    "eventYear": "1949",
    "image": "https://calendario-cientifico-escolar.github.io/images/personajes/277.png"
}