{
    "lang": "en",
    "year": 2021,
    "month": 10,
    "day": 4,
    "title": "October 4, 1949",
    "body": " Biochemist Mariano Barbacid was born. He isolated the first human oncogene (H-ras). Oncogenes are responsible for transforming a normal cell into a malignant cell that will develop cancer",
    "eventYear": "1949",
    "image": "https://calendario-cientifico-escolar.github.io/images/personajes/277.png"
}