{
    "lang": "es",
    "year": 2021,
    "month": 10,
    "day": 4,
    "title": "4 de octubre de 1949",
    "body": " Naci\u00f3 el bioqu\u00edmico Mariano Barbacid. Aisl\u00f3 el primer oncog\u00e9n humano (H-ras). Los oncogenes son los responsables de que una c\u00e9lula normal se transforme en una c\u00e9lula maligna que desarrollar\u00e1 un c\u00e1ncer",
    "eventYear": "1949",
    "image": "https://calendario-cientifico-escolar.github.io/images/personajes/277.png"
}