{
    "lang": "en",
    "year": 2021,
    "month": 10,
    "day": 7,
    "title": "October 7, 1948",
    "body": " Naturalist and writer Diane Ackerman was born. Her scientific divulgation works combine poetry and simplicity, which has given her great editorial success",
    "eventYear": "1948",
    "image": "https://calendario-cientifico-escolar.github.io/images/personajes/280.png"
}