{
    "lang": "en",
    "year": 2021,
    "month": 10,
    "day": 8,
    "title": "October 8, 1958",
    "body": " The Swedish surgeon Ake Senning implanted the first pacemaker",
    "eventYear": "1958",
    "image": "https://calendario-cientifico-escolar.github.io/images/personajes/281.png"
}