{
    "lang": "eus",
    "year": 2021,
    "month": 10,
    "day": 8,
    "title": "1958/10/8",
    "body": " Ake Senning zirujau suediarrak lehen taupada-markagailua inplantatu zuen",
    "eventYear": "1958",
    "image": "https://calendario-cientifico-escolar.github.io/images/personajes/281.png"
}