{
    "lang": "gal",
    "year": 2021,
    "month": 10,
    "day": 8,
    "title": "8 de outubro de 1958",
    "body": " O cirurxi\u00e1n sueco Ake Senning implantou o primeiro marcapasos",
    "eventYear": "1958",
    "image": "https://calendario-cientifico-escolar.github.io/images/personajes/281.png"
}