{
    "lang": "arag",
    "year": 2021,
    "month": 9,
    "day": 1,
    "title": "1 de setiembre de 1914",
    "body": " Muere Martha, la zaguer paloma migratoria (Ectopistes migratorius). Teneba 29 anyos y viviba en cautividat en o zoolochico de Cincinnati (EUA). En nom\u00e1s un sieglo pas\u00f3 d'estar l'au mas abundant de Norteamerica a extinguir-se",
    "eventYear": "1914",
    "image": "https://calendario-cientifico-escolar.github.io/images/personajes/244.png"
}