{
    "lang": "arag",
    "year": 2021,
    "month": 9,
    "day": 10,
    "title": "10 de setiembre de 1984",
    "body": " Se posa a punto la tecnica de ditalada chenetica, que permite d'identificar a las personas seguntes lo suyo ADN. Esta tecnica se va encomenzar a fer servir en criminoloch\u00eda poco dimpuesas",
    "eventYear": "1984",
    "image": "https://calendario-cientifico-escolar.github.io/images/personajes/253.png"
}