{
    "lang": "arag",
    "year": 2021,
    "month": 9,
    "day": 13,
    "title": "13 de setiembre de 1956",
    "body": " La empresa IBM presenta lo primer ordinador comercial que feba servir almagazenamiento en disco",
    "eventYear": "1956",
    "image": "https://calendario-cientifico-escolar.github.io/images/personajes/256.png"
}