{
    "lang": "arag",
    "year": 2021,
    "month": 9,
    "day": 7,
    "title": "7 de setiembre de 2016",
    "body": " Investigadors d'o IGME, l'Instituto de Sciencias d'o Mar (CSIC) y la Universidat de Las Palmas de Gran Canaria descubren que la isla d'El Hierro perdi\u00f3 lo 40% d'o suyo volumen mientres una enorme esbalzada de tierra. Lo megaeslisamiento ocurri\u00f3 fa 80.000 anyos",
    "eventYear": "2016",
    "image": "https://calendario-cientifico-escolar.github.io/images/personajes/250.png"
}