{
    "lang": "eus",
    "year": 2021,
    "month": 3,
    "day": 10,
    "title": "1876/3/10",
    "body": " Alexander Graham Bellek historiako lehen telefono-dei arrakastatsua egin zuen",
    "eventYear": "1876",
    "image": "https://calendario-cientifico-escolar.github.io/images/personajes/69.png"
}