{
    "lang": "eus",
    "year": 2021,
    "month": 3,
    "day": 12,
    "title": "2015/3/12",
    "body": " Alzheimerren gaixotasunaren tratamendu berri bati esker, amiloide-plakak kasuen % 75ean desagerraraztea lortu zuten (saguengan)",
    "eventYear": "2015",
    "image": "https://calendario-cientifico-escolar.github.io/images/personajes/71.png"
}