{
    "lang": "gal",
    "year": 2021,
    "month": 3,
    "day": 12,
    "title": "12 de marzo de 2015",
    "body": " Un novo tratamento da doenza do alzh\u00e9imer conseguiu eliminar as placas de amiloide no 75% dos casos (en ratos)",
    "eventYear": "2015",
    "image": "https://calendario-cientifico-escolar.github.io/images/personajes/71.png"
}