{
    "lang": "arag",
    "year": 2021,
    "month": 3,
    "day": 13,
    "title": "13 de marzo de 1988",
    "body": " S'inaugura lo tunel Seikan entre las ciudatz d'Aomori y Hakodate (Chap\u00f3n). Ye lo tunel submarino mas largo d'o mundo",
    "eventYear": "1988",
    "image": "https://calendario-cientifico-escolar.github.io/images/personajes/72.png"
}