{
    "lang": "cat",
    "year": 2021,
    "month": 3,
    "day": 13,
    "title": "13 de mar\u00e7 de 1988",
    "body": " Es va inaugurar el t\u00fanel Seikan entre les ciutats d'Aomori i Hakodate (Jap\u00f3). \u00c9s el t\u00fanel submar\u00ed m\u00e9s llarg del m\u00f3n",
    "eventYear": "1988",
    "image": "https://calendario-cientifico-escolar.github.io/images/personajes/72.png"
}