{
    "lang": "en",
    "year": 2021,
    "month": 3,
    "day": 14,
    "title": "March 14, 1963",
    "body": " Astronaut, politician and aeronautical engineer Pedro Duque was born. He is known mainly for being the first astronaut of Spanish nationality",
    "eventYear": "1963",
    "image": "https://calendario-cientifico-escolar.github.io/images/personajes/73.png"
}