{
    "lang": "es",
    "year": 2021,
    "month": 3,
    "day": 14,
    "title": "14 de marzo de 1963",
    "body": " Naci\u00f3 el astronauta, pol\u00edtico e ingeniero aeron\u00e1utico Pedro Duque. Es conocido principalmente por haber sido el primer astronauta de nacionalidad espa\u00f1ola",
    "eventYear": "1963",
    "image": "https://calendario-cientifico-escolar.github.io/images/personajes/73.png"
}