{
    "lang": "eus",
    "year": 2021,
    "month": 3,
    "day": 14,
    "title": "1963/3/14",
    "body": " Pedro Duque astronauta, politikari eta ingeniari aeronautikoa jaio zen. Batez ere, nazionalitate espainiarreko lehen astronauta izan zelako da ezaguna",
    "eventYear": "1963",
    "image": "https://calendario-cientifico-escolar.github.io/images/personajes/73.png"
}