{
    "lang": "cat",
    "year": 2021,
    "month": 3,
    "day": 15,
    "title": "15 de mar\u00e7 de 1985",
    "body": " Es va registrar el primer domini \"punt com\" a Internet: Symbolics.com",
    "eventYear": "1985",
    "image": "https://calendario-cientifico-escolar.github.io/images/personajes/74.png"
}