{
    "lang": "cat",
    "year": 2021,
    "month": 3,
    "day": 16,
    "title": "16 de mar\u00e7 de 1799",
    "body": " Va n\u00e9ixer la bot\u00e0nica Anna Atkins. \u00c9s reconeguda com la primera dona fot\u00f2grafa",
    "eventYear": "1799",
    "image": "https://calendario-cientifico-escolar.github.io/images/personajes/75.png"
}