{
    "lang": "eus",
    "year": 2021,
    "month": 3,
    "day": 16,
    "title": "1799/3/16",
    "body": " Anna Atkins botanikaria jaio zen. Lehen emakume argazkilaria izan zen",
    "eventYear": "1799",
    "image": "https://calendario-cientifico-escolar.github.io/images/personajes/75.png"
}