{
    "lang": "cat",
    "year": 2021,
    "month": 3,
    "day": 17,
    "title": "17 de mar\u00e7 de 1963",
    "body": " Mar\u00eda Elisa \u00c1lvarez Obaya va realitzar les an\u00e0lisis que van destapar el cas del met\u00edlic. Des de la seva modesta farm\u00e0cia de Lanzarote, Mar\u00eda Elisa va demostrar que una s\u00e8rie d'estranyes morts es devien al consum de licors adulterats amb metanol",
    "eventYear": "1963",
    "image": "https://calendario-cientifico-escolar.github.io/images/personajes/76.png"
}