{
    "lang": "en",
    "year": 2021,
    "month": 3,
    "day": 18,
    "title": "March 18, 1987",
    "body": " The discovery of superconductivity at high-temperature was announced. It was announced at a scientific conference in New York",
    "eventYear": "1987",
    "image": "https://calendario-cientifico-escolar.github.io/images/personajes/77.png"
}