{
    "lang": "cat",
    "year": 2021,
    "month": 3,
    "day": 19,
    "title": "19 de mar\u00e7 de 2019",
    "body": " Un estudi internacional amb participaci\u00f3 del CSIC va determinar que els oceans absorbeixen el 31% del CO2 produ\u00eft per l'activitat humana",
    "eventYear": "2019",
    "image": "https://calendario-cientifico-escolar.github.io/images/personajes/78.png"
}