{
    "lang": "astu",
    "year": 2021,
    "month": 3,
    "day": 22,
    "title": "22 de marzu de 1920",
    "body": " Naci\u00f3 la xeoqu\u00edmica Katsuko Saruhashi. fixo les primeres mid\u00edes de los niveles de di\u00f3xidu de carbonu (CO2) nel agua de mar. Amos\u00f3 evidencies de los peligros del agua radiactivo nel mar y l\u2019atm\u00f3sfera",
    "eventYear": "1920",
    "image": "https://calendario-cientifico-escolar.github.io/images/personajes/81.png"
}