{
    "lang": "gal",
    "year": 2021,
    "month": 3,
    "day": 22,
    "title": "22 de marzo de 1920",
    "body": " Naceu a xeoqu\u00edmica Katsuko Saruhashi. Realizou as primeiras medici\u00f3ns dos niveis de di\u00f3xido de carbono (CO2) na auga do mar. Mostrou evidencias dos perigos da chuvia radioactiva no mar e a atmosfera",
    "eventYear": "1920",
    "image": "https://calendario-cientifico-escolar.github.io/images/personajes/81.png"
}