{
    "lang": "es",
    "year": 2021,
    "month": 3,
    "day": 23,
    "title": "23 de marzo de 2005",
    "body": " Jos\u00e9 Luis Carrascosa y su equipo del Centro Nacional de Biotecnolog\u00eda describieron por primera vez la estructura del virus de la viruela",
    "eventYear": "2005",
    "image": "https://calendario-cientifico-escolar.github.io/images/personajes/82.png"
}