{
    "lang": "astu",
    "year": 2021,
    "month": 3,
    "day": 25,
    "title": "25 de marzu de 1914",
    "body": " Naci\u00f3 l\u2019agr\u00f3nomu Norman Borlaug. Nom\u00e1u\u2019l \u00abPadre de la Revoluci\u00f3n Verde\u00bb, recibi\u00f3\u2019l Premiu Nobel de la Paz polos sos esfuercios pa introducir la grana h\u00edbrido na producci\u00f3n agr\u00edcola en M\u00e9xicu, Paquist\u00e1n y La India. Esto aument\u00f3 la productivid\u00e1 agr\u00edcola y salv\u00e1ronse millones de vides humanes",
    "eventYear": "1914",
    "image": "https://calendario-cientifico-escolar.github.io/images/personajes/84.png"
}