{
    "lang": "gal",
    "year": 2021,
    "month": 3,
    "day": 25,
    "title": "25 de marzo de 1914",
    "body": " Naceu o agr\u00f3nomo Norman Borlaug. Alcumado o pai da Revoluci\u00f3n Verde, recibiu o Premio Nobel da Paz polos seus esforzos para introducir as sementes h\u00edbridas na produci\u00f3n agr\u00edcola en M\u00e9xico, Paquist\u00e1n e A India. Isto aumentou a produtividade agr\u00edcola e salv\u00e1ronse mill\u00f3ns de vidas humanas",
    "eventYear": "1914",
    "image": "https://calendario-cientifico-escolar.github.io/images/personajes/84.png"
}