{
    "lang": "arag",
    "year": 2021,
    "month": 3,
    "day": 26,
    "title": "26 de marzo de 1953",
    "body": " L'investigador Jonas Salk anuncia lo descubrimiento d'a vacuna contra la poliomielitis. Gracias a la vacunaci\u00f3n, esta malot\u00eda infecciosa, conoixida como paralisi infantil, ha estau erradicada d'Europa, America, Ocean\u00eda y Africa",
    "eventYear": "1953",
    "image": "https://calendario-cientifico-escolar.github.io/images/personajes/85.png"
}