{
    "lang": "eus",
    "year": 2021,
    "month": 3,
    "day": 26,
    "title": "1953/3/26",
    "body": " Jonas Salk ikertzaileak, poliomielitisaren aurkako txertoaren aurkikuntza iragarri zuen. Txertaketari esker, haur-paralisia esaten zaion gaixotasun infekzioso hori desagerrarazi da, Europan, Amerikan, Ozeanian eta Afrikan",
    "eventYear": "1953",
    "image": "https://calendario-cientifico-escolar.github.io/images/personajes/85.png"
}