{
    "lang": "arag",
    "year": 2021,
    "month": 3,
    "day": 27,
    "title": "27 de marzo de 1827",
    "body": " Charles Darwin, con 18 anyos, presenta lo suyo primer descubrimiento scientifico. Tractaba sobre la bioloch\u00eda de chicotz animals marinos",
    "eventYear": "1827",
    "image": "https://calendario-cientifico-escolar.github.io/images/personajes/86.png"
}