{
    "lang": "gal",
    "year": 2021,
    "month": 3,
    "day": 28,
    "title": "28 de marzo de 2013",
    "body": " A Universidade de Stanford fixo p\u00fablico o desenvolvemento dun transistor biol\u00f3xico realizado a partir de mol\u00e9culas de ADN e ARN",
    "eventYear": "2013",
    "image": "https://calendario-cientifico-escolar.github.io/images/personajes/87.png"
}