{
    "lang": "eus",
    "year": 2021,
    "month": 3,
    "day": 2,
    "title": "1922/3/2",
    "body": " Frances Bilas Spence programatzailea jaio zen. ENIAC xede orokorreko lehen ordenagailu digitalaren jatorrizko sei programatzaileetako bat izan zen",
    "eventYear": "1922",
    "image": "https://calendario-cientifico-escolar.github.io/images/personajes/61.png"
}