{
    "lang": "gal",
    "year": 2021,
    "month": 3,
    "day": 2,
    "title": "2 de marzo de 1922",
    "body": " Naceu a programadora Frances Bilas Spence. Foi unha das seis programadoras orixinais da primeira computadora dixital de prop\u00f3sito xeral ENIAC",
    "eventYear": "1922",
    "image": "https://calendario-cientifico-escolar.github.io/images/personajes/61.png"
}