{
    "lang": "es",
    "year": 2021,
    "month": 3,
    "day": 30,
    "title": "30 de marzo de 1900",
    "body": " Naci\u00f3 la bibliotecaria, fil\u00f3loga y lexic\u00f3grafa espa\u00f1ola Mar\u00eda Moliner. Fue la autora del Diccionario de uso del espa\u00f1ol",
    "eventYear": "1900",
    "image": "https://calendario-cientifico-escolar.github.io/images/personajes/89.png"
}