{
    "lang": "astu",
    "year": 2021,
    "month": 3,
    "day": 31,
    "title": "31 de marzu de 1596",
    "body": " Naci\u00f3 Ren\u00e9 Descartes, el famosu fil\u00f3sofu y matem\u00e1ticu franc\u00e9s. Foi l\u2019autor del conceutu \u00abPienso, llueu esisto\u00bb",
    "eventYear": "1596",
    "image": "https://calendario-cientifico-escolar.github.io/images/personajes/90.png"
}