{
    "lang": "en",
    "year": 2021,
    "month": 3,
    "day": 31,
    "title": "March 31, 1596",
    "body": " Ren\u00e9 Descartes, the famous French philosopher and mathematician, was born. He was the author of the concept \"I think, therefore I am\"",
    "eventYear": "1596",
    "image": "https://calendario-cientifico-escolar.github.io/images/personajes/90.png"
}