{
    "lang": "en",
    "year": 2021,
    "month": 3,
    "day": 4,
    "title": "March 4, 1877",
    "body": " Ethnologist Robert Fritz Graebner was born. He developed the theory of Kulturkreis or Cultural Circle. This theory postulated the expansion of primitive cultures derived from a single archaic type",
    "eventYear": "1877",
    "image": "https://calendario-cientifico-escolar.github.io/images/personajes/63.png"
}