{
    "lang": "en",
    "year": 2021,
    "month": 3,
    "day": 5,
    "title": "March 5, 2013",
    "body": " The Human Connectome Project published highly detailed images of human brains. These images made it possible to study the complexity of brain structures and to identify causes of neuronal disorders",
    "eventYear": "2013",
    "image": "https://calendario-cientifico-escolar.github.io/images/personajes/64.png"
}