{
    "lang": "es",
    "year": 2021,
    "month": 3,
    "day": 5,
    "title": "5 de marzo de 2013",
    "body": " El Proyecto Human Connectome public\u00f3 im\u00e1genes muy detalladas de cerebros humanos. Estas im\u00e1genes permitieron estudiar la complejidad de las estructuras cerebrales e identificar causas de los trastornos neuronales",
    "eventYear": "2013",
    "image": "https://calendario-cientifico-escolar.github.io/images/personajes/64.png"
}