{
    "lang": "arag",
    "year": 2021,
    "month": 3,
    "day": 6,
    "title": "6 de marzo de 1937",
    "body": " Naixe la inchenyera y cosmonauta Valentina Tereshkova. Va estar la primer muller en viachar ta lo espacio exterior, a bordo d'a nau Vostok 6",
    "eventYear": "1937",
    "image": "https://calendario-cientifico-escolar.github.io/images/personajes/65.png"
}