{
    "lang": "astu",
    "year": 2021,
    "month": 3,
    "day": 7,
    "title": "7 de marzu de 2009",
    "body": " Llanz\u00f3se l\u2019observatoriu espacial Kepler. La so misi\u00f3n yera afayar planetes asemeyaos a la Tierra alredor d\u2019otres estrelles",
    "eventYear": "2009",
    "image": "https://calendario-cientifico-escolar.github.io/images/personajes/66.png"
}