{
    "lang": "en",
    "year": 2021,
    "month": 3,
    "day": 7,
    "title": "March 7, 2009",
    "body": " The Kepler space observatory was launched. Its mission was to discover Earth-like planets around other stars",
    "eventYear": "2009",
    "image": "https://calendario-cientifico-escolar.github.io/images/personajes/66.png"
}