{
    "lang": "eus",
    "year": 2021,
    "month": 3,
    "day": 7,
    "title": "2009/3/7",
    "body": " Kepler lehen behatoki espaziala jaurti zuten. Beste izar batzuen inguruan Lurraren antzeko planetak aurkitzeko eginkizuna zuen",
    "eventYear": "2009",
    "image": "https://calendario-cientifico-escolar.github.io/images/personajes/66.png"
}