{
    "lang": "gal",
    "year": 2021,
    "month": 3,
    "day": 7,
    "title": "7 de marzo de 2009",
    "body": " Lanzouse o observatorio espacial Kepler. A s\u00faa misi\u00f3n era descubrir planetas similares \u00e1 Terra ao redor doutras estrelas",
    "eventYear": "2009",
    "image": "https://calendario-cientifico-escolar.github.io/images/personajes/66.png"
}