{
    "lang": "arag",
    "year": 2021,
    "month": 3,
    "day": 8,
    "title": "8 de marzo de 1839",
    "body": " Naixe Josephine Cochrane. Va estar la inventora d'a primer maquina fregaplatos que va tener exito",
    "eventYear": "1839",
    "image": "https://calendario-cientifico-escolar.github.io/images/personajes/67.png"
}