{
    "lang": "eus",
    "year": 2021,
    "month": 3,
    "day": 8,
    "title": "1839/3/8",
    "body": " Josephine Cochrane jaio zen. Lehen ontzi-garbigailu arrakastatsua asmatu zuen",
    "eventYear": "1839",
    "image": "https://calendario-cientifico-escolar.github.io/images/personajes/67.png"
}