{
    "lang": "gal",
    "year": 2021,
    "month": 12,
    "day": 15,
    "title": "15 de decembro de 2010",
    "body": " Arrancou a Expedici\u00f3n de Circunnavegaci\u00f3n Malaspina. Os buques Hesp\u00e9rides e Sarmiento de Gamboa (CSIC) deron a volta ao mundo para realizar investigaci\u00f3n cient\u00edfica, formar mozos investigadores e fomentar as ciencias mari\u00f1as. O seu nome \u00e9 unha homenaxe \u00e1 expedici\u00f3n que dirixiu Alejandro Malaspina no s\u00e9culo XVIII",
    "eventYear": "2010",
    "image": "https://calendario-cientifico-escolar.github.io/images/personajes/349.png"
}