{
    "lang": "gal",
    "year": 2021,
    "month": 12,
    "day": 27,
    "title": "27 de decembro de 1822",
    "body": " Naceu o qu\u00edmico e microbi\u00f3logo Louis Pasteur. Demostrou que a fermentaci\u00f3n era causada por microorganismos e inventou a pasteurizaci\u00f3n. Este m\u00e9todo permite o control dos microbios en l\u00edquidos, como o leite",
    "eventYear": "1822",
    "image": "https://calendario-cientifico-escolar.github.io/images/personajes/361.png"
}