{
    "lang": "gal",
    "year": 2021,
    "month": 12,
    "day": 8,
    "title": "8 de decembro de 2013",
    "body": " Na Universidade de Lyon mostrouse un novo m\u00e9todo para extraer hidr\u00f3xeno das rochas e a auga. Esta t\u00e9cnica poder\u00eda converterse nunha nova fonte de enerx\u00eda verde",
    "eventYear": "2013",
    "image": "https://calendario-cientifico-escolar.github.io/images/personajes/342.png"
}