{
    "lang": "en",
    "year": 2021,
    "month": 6,
    "day": 10,
    "title": "June 10, 1948",
    "body": " The television was publicly shown for the first time in Spain. It was during the International Trade Fair of Barcelona",
    "eventYear": "1948",
    "image": "https://calendario-cientifico-escolar.github.io/images/personajes/161.png"
}