{
    "lang": "es",
    "year": 2021,
    "month": 6,
    "day": 10,
    "title": "10 de junio de 1948",
    "body": " Se efectu\u00f3 la primera demostraci\u00f3n de la televisi\u00f3n en Espa\u00f1a. Fue durante la Feria Internacional de Muestras de Barcelona",
    "eventYear": "1948",
    "image": "https://calendario-cientifico-escolar.github.io/images/personajes/161.png"
}