{
    "lang": "es",
    "year": 2021,
    "month": 6,
    "day": 11,
    "title": "11 de junio de 1910",
    "body": " Naci\u00f3 el ocean\u00f3grafo y explorador Jacques-Yves Cousteau. Es uno de los divulgadores del mundo submarino m\u00e1s c\u00e9lebres. Ha grabado numerosas pel\u00edculas y documentales a bordo de su buque Calypso. Tambi\u00e9n fue una de las primeras personas en defender el ambiente marino frente a la contaminaci\u00f3n",
    "eventYear": "1910",
    "image": "https://calendario-cientifico-escolar.github.io/images/personajes/162.png"
}