{
    "lang": "cat",
    "year": 2021,
    "month": 6,
    "day": 12,
    "title": "12 de juny de 1985",
    "body": " Va n\u00e9ixer l'enginyer de software Blake Ross. \u00c9s conegut per treballar en la creaci\u00f3 dels navegadors Mozilla",
    "eventYear": "1985",
    "image": "https://calendario-cientifico-escolar.github.io/images/personajes/163.png"
}