{
    "lang": "es",
    "year": 2021,
    "month": 6,
    "day": 13,
    "title": "13 de junio de 1868",
    "body": " Naci\u00f3 el f\u00edsico Wallace Clement Sabine. Fue el fundador de la ac\u00fastica arquitect\u00f3nica y el consultor ac\u00fastico del Boston's Symphony Hall. Esta sala de consciertos se considera una de las mejores del mundo por su excelente ac\u00fastica",
    "eventYear": "1868",
    "image": "https://calendario-cientifico-escolar.github.io/images/personajes/164.png"
}