{
    "lang": "gal",
    "year": 2021,
    "month": 6,
    "day": 14,
    "title": "14 de xu\u00f1o de 1880",
    "body": " Naceu o neurocient\u00edfico Nicol\u00e1s Ach\u00facarro. Foi un dos disc\u00edpulos de Ram\u00f3n y Cajal e especializouse no estudo das c\u00e9lulas gliais",
    "eventYear": "1880",
    "image": "https://calendario-cientifico-escolar.github.io/images/personajes/165.png"
}