{
    "lang": "cat",
    "year": 2021,
    "month": 6,
    "day": 15,
    "title": "15 de juny de 1962",
    "body": " Es va descobrir que la talidomida causava deformacions en el desenvolupament fetal. Aquest sedant s'utilitzava per calmar les n\u00e0usees durant els primers mesos d'embar\u00e0s",
    "eventYear": "1962",
    "image": "https://calendario-cientifico-escolar.github.io/images/personajes/166.png"
}