{
    "lang": "gal",
    "year": 2021,
    "month": 6,
    "day": 16,
    "title": "16 de xu\u00f1o de 1963",
    "body": " A cosmonauta Valentina Tereshkova foi a primeira muller en viaxar ao espazo",
    "eventYear": "1963",
    "image": "https://calendario-cientifico-escolar.github.io/images/personajes/167.png"
}