{
    "lang": "arag",
    "year": 2021,
    "month": 6,
    "day": 19,
    "title": "19 de chunyo de 1903",
    "body": " Naixe la bioquimica Rebeca Gerschman. Postul\u00f3 la teor\u00eda Gerschman sobre la toxicidat de l'oxicheno per medio de radicals libres y revolucion\u00f3 l'ambient scientifico d'a epoca",
    "eventYear": "1903",
    "image": "https://calendario-cientifico-escolar.github.io/images/personajes/170.png"
}