{
    "lang": "cat",
    "year": 2021,
    "month": 6,
    "day": 20,
    "title": "20 de juny de 2019",
    "body": " La investigadora Margarita Salas va rebre el Premi a l'Inventor Europeu 2019. Entre les seves majors contribucions destaca la patent de l'ADN polimerasa viral, la m\u00e9s productiva del CSIC",
    "eventYear": "2019",
    "image": "https://calendario-cientifico-escolar.github.io/images/personajes/171.png"
}