{
    "lang": "es",
    "year": 2021,
    "month": 6,
    "day": 20,
    "title": "20 de junio de 2019",
    "body": " La investigadora Margarita Salas recibi\u00f3 el Premio al Inventor Europeo 2019. Entre sus mayores contribuciones destaca la patente de la DNA polimerasa viral, la m\u00e1s productiva del CSIC",
    "eventYear": "2019",
    "image": "https://calendario-cientifico-escolar.github.io/images/personajes/171.png"
}