{
    "lang": "en",
    "year": 2021,
    "month": 6,
    "day": 21,
    "title": "June 21, 1997",
    "body": " The International Day of Amyotrophic Lateral Sclerosis (ALS) was established. It is promoted by patient associations around the world and aims to inform and raise awareness about this still incurable disease",
    "eventYear": "1997",
    "image": "https://calendario-cientifico-escolar.github.io/images/personajes/172.png"
}