{
    "lang": "es",
    "year": 2021,
    "month": 6,
    "day": 21,
    "title": "21 de junio de 1997",
    "body": " Se instaur\u00f3 el D\u00eda Internacional de la Esclerosis Lateral Amiotr\u00f3fica (ELA). Est\u00e1 impulsado por asociaciones de pacientes de todo el mundo y tiene como objetivo informar y sensibilizar sobre esta enfermedad a\u00fan incurable",
    "eventYear": "1997",
    "image": "https://calendario-cientifico-escolar.github.io/images/personajes/172.png"
}