{
    "lang": "arag",
    "year": 2021,
    "month": 6,
    "day": 22,
    "title": "22 de chunyo de 1939",
    "body": " Naixe la cristalografa Ada Yonath. Va ganar lo Premio Nobel de Quimica per los suyos treballos pioners sobre la estructura d'os ribosomas",
    "eventYear": "1939",
    "image": "https://calendario-cientifico-escolar.github.io/images/personajes/173.png"
}