{
    "lang": "astu",
    "year": 2021,
    "month": 6,
    "day": 25,
    "title": "25 de xunu de 1866",
    "body": " Naci\u00f3 Elo\u00edsa D\u00edaz, la primer m\u00e9dica d\u2019Am\u00e9rica del Sur. Como direutora del Serviciu M\u00e9dicu Escolar de Chile, Elo\u00edsa llogr\u00f3 la vacunaci\u00f3n de gran parte del alumn\u00e1u y lluch\u00f3 contra\u2019l raquitismu y la tuberculosis",
    "eventYear": "1866",
    "image": "https://calendario-cientifico-escolar.github.io/images/personajes/176.png"
}