{
    "lang": "eus",
    "year": 2021,
    "month": 6,
    "day": 28,
    "title": "2013/6/28",
    "body": " MITen, X izpien bidez ikusteko eskuzko gailu bat asmatu zuten, horman barrena mugimendua detektatzen duena",
    "eventYear": "2013",
    "image": "https://calendario-cientifico-escolar.github.io/images/personajes/179.png"
}