{
    "lang": "en",
    "year": 2021,
    "month": 6,
    "day": 28,
    "title": "June 28, 2013",
    "body": " A handheld X-ray vision device that detects movement through walls was invented at MIT",
    "eventYear": "2013",
    "image": "https://calendario-cientifico-escolar.github.io/images/personajes/179.png"
}