{
    "lang": "es",
    "year": 2021,
    "month": 6,
    "day": 29,
    "title": "29 de junio de 1954",
    "body": " Stanley Cohen, Rita Levi-Montalcini y Viktor Hamburger publicaron el descubrimiento del primer factor de crecimiento nervioso. Los dos primeros recibieron el Premio Nobel de Fisiolog\u00eda o Medicina en 1986",
    "eventYear": "1954",
    "image": "https://calendario-cientifico-escolar.github.io/images/personajes/180.png"
}