{
    "lang": "cat",
    "year": 2021,
    "month": 6,
    "day": 2,
    "title": "2 de juny de 1911",
    "body": " Els principals diaris es van fer ress\u00f2 de l'electrificaci\u00f3 del ferrocarril Gergal-Santa Fe de Mond\u00fajar. Va ser la primera l\u00ednia de tren de via ampla electrificada d'Espanya",
    "eventYear": "1911",
    "image": "https://calendario-cientifico-escolar.github.io/images/personajes/153.png"
}