{
    "lang": "arag",
    "year": 2021,
    "month": 6,
    "day": 4,
    "title": "4 de chunyo de 1927",
    "body": " Se fa lo primer vuelo comercial de pasachers transatlantico. Lo viache se va producir a bordo d'un Wright-Bellanca WB-2, dende Estaus Unius dica Alemanya",
    "eventYear": "1927",
    "image": "https://calendario-cientifico-escolar.github.io/images/personajes/155.png"
}