{
    "lang": "eus",
    "year": 2021,
    "month": 6,
    "day": 5,
    "title": "2002/6/5",
    "body": " AMIT Asociaci\u00f3n de Mujeres Investigadoras y Tecn\u00f3logas elkartea ofizialki aurkeztu zen. Elkarte horrek zera sustatzen du, emakumeek ikertze-jardueretan berdintasunean sartzeko aukera izatea, jakintzaren adar guztietan eta sektore teknologikoan",
    "eventYear": "2002",
    "image": "https://calendario-cientifico-escolar.github.io/images/personajes/156.png"
}