{
    "lang": "en",
    "year": 2021,
    "month": 4,
    "day": 1,
    "title": "April 1, 1940",
    "body": " Biologist and ecologist Wangari Muta Maathai was born. She received the Nobel Peace Prize in 2004 for her contributions to sustainable development and democracy. She was the first African to obtain this award",
    "eventYear": "1940",
    "image": "https://calendario-cientifico-escolar.github.io/images/personajes/91.png"
}