{
    "lang": "en",
    "year": 2021,
    "month": 4,
    "day": 10,
    "title": "April 10, 2011",
    "body": " A study by the IGME, CIATF, and the Complutense and Lisbon Universities discovered tsunamis deposits in Tenerife. The tsunamis caused waves of more than 50 meters in height and were associated with the destruction of the volcanic building of Las Ca\u00f1adas, the precedent of the current Teide",
    "eventYear": "2011",
    "image": "https://calendario-cientifico-escolar.github.io/images/personajes/100.png"
}