{
    "lang": "en",
    "year": 2021,
    "month": 4,
    "day": 14,
    "title": "April 14, 1977",
    "body": " Rosemary Hutton published an article on how the electrical conductivity of rocks can be used to investigate geological history",
    "eventYear": "1977",
    "image": "https://calendario-cientifico-escolar.github.io/images/personajes/104.png"
}