{
    "lang": "en",
    "year": 2021,
    "month": 4,
    "day": 27,
    "title": "April 27, 1993",
    "body": " Trombonist John Kenny became the first musician to play a carnyx since Celtic times. To do this, he used a reconstruction of the Deskford carnyx by the musicologist John Purser and the goldsmith John Creed. The original instrument and the reconstruction are displayed in the National Museum of Scotland",
    "eventYear": "1993",
    "image": "https://calendario-cientifico-escolar.github.io/images/personajes/117.png"
}