{
    "lang": "en",
    "year": 2021,
    "month": 4,
    "day": 28,
    "title": "April 28, 1932",
    "body": " The yellow fever vaccine was discovered",
    "eventYear": "1932",
    "image": "https://calendario-cientifico-escolar.github.io/images/personajes/118.png"
}