{
    "lang": "en",
    "year": 2021,
    "month": 4,
    "day": 29,
    "title": "April 29, 1894",
    "body": " Physicist Marietta Blau was born. She was a pioneer in the registration and identification of atomic particles using photographic emulsion plates. Her work contributed to a better understanding of nuclear reactions",
    "eventYear": "1894",
    "image": "https://calendario-cientifico-escolar.github.io/images/personajes/119.png"
}