{
    "lang": "en",
    "year": 2021,
    "month": 4,
    "day": 6,
    "title": "April 6, 1846",
    "body": " Antonio Machado y \u00c1lvarez (Dem\u00f3filo) was born. He was one of the first folklorists to scientifically study flamenco. He was also the father of the poets Antonio and Manuel Machado",
    "eventYear": "1846",
    "image": "https://calendario-cientifico-escolar.github.io/images/personajes/96.png"
}