{
    "lang": "en",
    "year": 2021,
    "month": 4,
    "day": 9,
    "title": "April 9, 1860",
    "body": " Inventor \u00c9douard-L\u00e9on Scott of Martinville made the first known recording of the human voice. It was a soprano voice that interpreted the song \"Au clair de la Lune\"",
    "eventYear": "1860",
    "image": "https://calendario-cientifico-escolar.github.io/images/personajes/99.png"
}