{
    "lang": "astu",
    "year": 2021,
    "month": 4,
    "day": 25,
    "title": "25 d\u2019abril de 1945",
    "body": " Naci\u00f3 la embri\u00f3loga Jean Marian Purdy. Foi una de les responsables del desendolcu de la fecundaci\u00f3n in vitro",
    "eventYear": "1945",
    "image": "https://calendario-cientifico-escolar.github.io/images/personajes/115.png"
}