{
    "lang": "astu",
    "year": 2021,
    "month": 4,
    "day": 30,
    "title": "30 d\u2019abril de 2010",
    "body": " Investigadores del IXME alcuentren en mapes del sieglu XVIII y XIX un llamorgal que se sumiere del rexistru hist\u00f3ricu",
    "eventYear": "2010",
    "image": "https://calendario-cientifico-escolar.github.io/images/personajes/120.png"
}