{
    "lang": "astu",
    "year": 2021,
    "month": 4,
    "day": 4,
    "title": "4 d\u2019abril de 1868",
    "body": " Naci\u00f3 la matem\u00e1tica Philippa Garrett Fawcett. Gan\u00f3 una beca na Universid\u00e1 de Cambridge gracies a el so estraordinariu \u00e9situ nel Mathematical Tripos (1890). Investig\u00f3 sobre din\u00e1mica de fluy\u00edos",
    "eventYear": "1868",
    "image": "https://calendario-cientifico-escolar.github.io/images/personajes/94.png"
}