{
    "lang": "astu",
    "year": 2021,
    "month": 4,
    "day": 5,
    "title": "5 d\u2019abril de 1952",
    "body": " Naci\u00f3\u2019l qu\u00edmicu Venki Ramakrishnan. Recibi\u00f3\u2019l Premiu Nobel pol estudiu de la estructura y funci\u00f3n del ribosoma",
    "eventYear": "1952",
    "image": "https://calendario-cientifico-escolar.github.io/images/personajes/95.png"
}