{
    "lang": "cat",
    "year": 2021,
    "month": 1,
    "day": 13,
    "title": "13 de gener de 1927",
    "body": " Va n\u00e9ixer el bi\u00f2leg Sydney Brenner. Va rebre un Premi Nobel per les seves investigacions sobre la regulaci\u00f3 gen\u00e8tica del desenvolupament i la mort cel\u00b7lular",
    "eventYear": "1927",
    "image": "https://calendario-cientifico-escolar.github.io/images/personajes/13.png"
}