{
    "lang": "cat",
    "year": 2021,
    "month": 1,
    "day": 27,
    "title": "27 de gener de 1876",
    "body": " L'enginyer el\u00e8ctric Elisha Gray va sol\u00b7licitar la patent del tel\u00e8graf musical. Va ser un dels primers instruments musicals el\u00e8ctrics",
    "eventYear": "1876",
    "image": "https://calendario-cientifico-escolar.github.io/images/personajes/27.png"
}