{
    "lang": "cat",
    "year": 2021,
    "month": 1,
    "day": 9,
    "title": "9 de gener de 1923",
    "body": " L'inventor Juan de la Cierva va utilitzar amb \u00e8xit l'autogir. Aquesta aeronau \u00e9s una barreja d'avi\u00f3 i helic\u00f2pter",
    "eventYear": "1923",
    "image": "https://calendario-cientifico-escolar.github.io/images/personajes/9.png"
}