{
    "lang": "es",
    "year": 2021,
    "month": 11,
    "day": 22,
    "title": "22 de noviembre de 2013",
    "body": " Un equipo de investigaci\u00f3n de la Universidad de B\u00f6nn descubri\u00f3 un gen de origen neandertal en personas actuales. Se trata de un gen de la inmunidad que permite reconocer intrusos peligrosos y defenderse antes ellos mediante una respuesta inmune",
    "eventYear": "2013",
    "image": "https://calendario-cientifico-escolar.github.io/images/personajes/326.png"
}