{
    "lang": "es",
    "year": 2021,
    "month": 11,
    "day": 23,
    "title": "23 de noviembre de 2002",
    "body": " Falleci\u00f3 el bioqu\u00edmico \u00c1ngel Mart\u00edn Municio, el primer miembro espa\u00f1ol de la Organizaci\u00f3n Europea de Biolog\u00eda Molecular. Fue presidente de la Real Academia de Ciencias Exactas, F\u00edsicas y Naturales durante 17 a\u00f1os",
    "eventYear": "2002",
    "image": "https://calendario-cientifico-escolar.github.io/images/personajes/327.png"
}