{
    "lang": "es",
    "year": 2021,
    "month": 11,
    "day": 25,
    "title": "25 de noviembre de 1884",
    "body": " Se patent\u00f3 un m\u00e9todo para producir leche evaporada, para poder conservar la leche m\u00e1s tiempo. Ese mismo d\u00eda, se patent\u00f3 una m\u00e1quina para esterilizar las latas en las que se conservaba esta leche",
    "eventYear": "1884",
    "image": "https://calendario-cientifico-escolar.github.io/images/personajes/329.png"
}