{
    "lang": "eus",
    "year": 2021,
    "month": 1,
    "day": 14,
    "title": "1973/1/14",
    "body": " Elvis Presleyk satelite bidez transmititutako lehen kontzertua eman zuen. Honoluluko Nazioarteko Zentrotik egin zen, eta 40 herrialdetan ikusteko aukera izan zuten",
    "eventYear": "1973",
    "image": "https://calendario-cientifico-escolar.github.io/images/personajes/14.png"
}