{
    "lang": "eus",
    "year": 2021,
    "month": 1,
    "day": 19,
    "title": "1915/1/19",
    "body": " Georges Claudek neoizko lehen hodia patentatu zuen. Asmakizun hori laster egin zen ezagun, publizitate-karteletan eman zitzaion erabilerari esker",
    "eventYear": "1915",
    "image": "https://calendario-cientifico-escolar.github.io/images/personajes/19.png"
}