{
    "lang": "eus",
    "year": 2021,
    "month": 1,
    "day": 22,
    "title": "1909/1/22",
    "body": " Faustino Cord\u00f3n farmazialari eta biologoa jaio zen. Eboluzioaren eremuan ardaztutako ikerketak egin zituen. 1979an, Biologia Eboluzionistari buruzko Ikerketarako Fundazioa sortu zuen",
    "eventYear": "1909",
    "image": "https://calendario-cientifico-escolar.github.io/images/personajes/22.png"
}