{
    "lang": "eus",
    "year": 2021,
    "month": 1,
    "day": 31,
    "title": "1925/1/31",
    "body": " Manuel Jal\u00f3n jaio zen. Patente ugari egin zituen, zenbait tresna oso ezagun barne, hala nola lanbasa edo fregona, edo erabili eta botatzeko xiringa hipodermikoa",
    "eventYear": "1925",
    "image": "https://calendario-cientifico-escolar.github.io/images/personajes/31.png"
}