{
    "lang": "eus",
    "year": 2021,
    "month": 1,
    "day": 7,
    "title": "1992/1/7",
    "body": " AT&T enpresak bideofonoa aurkeztu zuen. Bideo-pantaila zuen lehen telefonoa izan zen",
    "eventYear": "1992",
    "image": "https://calendario-cientifico-escolar.github.io/images/personajes/7.png"
}