{
    "lang": "arag",
    "year": 2021,
    "month": 6,
    "day": 10,
    "title": "10 de chunyo de 1948",
    "body": " Se fa la primer demostraci\u00f3n d'a televisi\u00f3n en Espanya. Va estar en a Feria Internacional de Muestras de Barcelona",
    "eventYear": "1948",
    "image": "https://calendario-cientifico-escolar.github.io/images/personajes/161.png"
}