{
    "lang": "arag",
    "year": 2021,
    "month": 6,
    "day": 11,
    "title": "11 de chunyo de 1910",
    "body": " Naixe lo oceanografo y explorador Jacques-Yves Cousteau. Ye un d'os divulgadors mas celebres d'o mundo submarino. Ha gravau a-saber-las cintas y documentals a bordo d'o suyo buque Calypso. Tami\u00e9n esti\u00f3 una d'as primeras personas en desfender l'ambient marino debant d'a contaminaci\u00f3n",
    "eventYear": "1910",
    "image": "https://calendario-cientifico-escolar.github.io/images/personajes/162.png"
}