{
    "lang": "arag",
    "year": 2021,
    "month": 6,
    "day": 12,
    "title": "12 de chunyo de 1985",
    "body": " Naixe l'inchenyero de software Blake Ross. Ye conoixiu per treballar en a creaci\u00f3n d'os navegadors Mozilla",
    "eventYear": "1985",
    "image": "https://calendario-cientifico-escolar.github.io/images/personajes/163.png"
}