{
    "lang": "arag",
    "year": 2021,
    "month": 6,
    "day": 15,
    "title": "15 de chunyo de 1962",
    "body": " Se descubre que la talidomida causa deformacions en o desenrollo fetal. Este sedant se feba servir pa calmar las ansias en os primers meses d'embrazo",
    "eventYear": "1962",
    "image": "https://calendario-cientifico-escolar.github.io/images/personajes/166.png"
}