{
    "lang": "arag",
    "year": 2021,
    "month": 6,
    "day": 17,
    "title": "17 de chunyo de 2017",
    "body": " L'astronauta Sunita Williams esdeviene la muller que mas tiempo seguiu heba estau en o espacio (en a Estaci\u00f3n Espacial Internacional), en completar 188 d\u00edas y 4 horas difuera d'a Tierra",
    "eventYear": "2017",
    "image": "https://calendario-cientifico-escolar.github.io/images/personajes/168.png"
}