{
    "lang": "arag",
    "year": 2021,
    "month": 6,
    "day": 27,
    "title": "27 de chunyo de 1915",
    "body": " Naixe la fisica Traude Bernert. Chunto a la quimica Berta Karlik, identificoron los isotopos 215, 216 y 218 de l'astato. Tami\u00e9n descubrioron que este elemento se produciba a partir d'a descomposici\u00f3n d'o radio, d'o torio y de l'actinio",
    "eventYear": "1915",
    "image": "https://calendario-cientifico-escolar.github.io/images/personajes/178.png"
}