{
    "lang": "arag",
    "year": 2021,
    "month": 6,
    "day": 28,
    "title": "28 de chunyo de 2013",
    "body": " S'inventa, en o MIT, un dispositivo portable de visi\u00f3n de rayos X que detecta lo movimiento a travi\u00e9s d'as paretz",
    "eventYear": "2013",
    "image": "https://calendario-cientifico-escolar.github.io/images/personajes/179.png"
}