{
    "lang": "arag",
    "year": 2021,
    "month": 6,
    "day": 30,
    "title": "30 de chunyo de 1905",
    "body": " Albert Einstein publica \u00abSobre la electrodinamica d'os cuerpos en movimiento\u00bb. Ye l'inicio d'a teor\u00eda d'a relatividat especial",
    "eventYear": "1905",
    "image": "https://calendario-cientifico-escolar.github.io/images/personajes/181.png"
}