{
    "lang": "arag",
    "year": 2021,
    "month": 12,
    "day": 18,
    "title": "18 d'aviento de 2019",
    "body": " Se describe una nueva especie de parasito en marsupials. Lo suyo nombre ye Theileria lupei en reconoixencia a l'albeitar Guadalupe Mir\u00f3, per la suya contribuci\u00f3n a lo campo d'a parasitoloch\u00eda",
    "eventYear": "2019",
    "image": "https://calendario-cientifico-escolar.github.io/images/personajes/352.png"
}