{
    "lang": "arag",
    "year": 2021,
    "month": 12,
    "day": 23,
    "title": "23 d'aviento de 1947",
    "body": " Los fisicos Walter Brattain y John Bardeen desenrollan lo primer transistor. Este dispositivo ye l'alazet d'o funcionamiento d'a mayor\u00eda d'os aparatos electronicos",
    "eventYear": "1947",
    "image": "https://calendario-cientifico-escolar.github.io/images/personajes/357.png"
}