{
    "lang": "arag",
    "year": 2021,
    "month": 12,
    "day": 24,
    "title": "24 d'aviento de 1913",
    "body": " Naixe la quimica Miriam Michael Stimson. Va desenrollar la tecnica de disco de bromuro de potasio. Este metodo de preparaci\u00f3n d'as muestras millora la suya analisi per medio de espectroscop\u00eda infrarroya",
    "eventYear": "1913",
    "image": "https://calendario-cientifico-escolar.github.io/images/personajes/358.png"
}