{
    "lang": "arag",
    "year": 2021,
    "month": 12,
    "day": 5,
    "title": "5 d'aviento de 1854",
    "body": " Aaron H. Allen patenta la butaca con asiento abatible. Hue en d\u00eda, esta mena de butacas se fan servir en quasi totz los teatros y auditorios d'o mundo",
    "eventYear": "1854",
    "image": "https://calendario-cientifico-escolar.github.io/images/personajes/339.png"
}