{
    "lang": "es",
    "year": 2021,
    "month": 2,
    "day": 22,
    "title": "22 de febrero de 1876",
    "body": " Se fund\u00f3 la Universidad Johns Hopkins. Fue la primera universidad dedicada espec\u00edficamente a la investigaci\u00f3n m\u00e9dica en los Estados Unidos. La fundaci\u00f3n fue posible gracias a la herencia del empresario Johns Hopkins",
    "eventYear": "1876",
    "image": "https://calendario-cientifico-escolar.github.io/images/personajes/53.png"
}