{
    "lang": "es",
    "year": 2021,
    "month": 2,
    "day": 27,
    "title": "27 de febrero de 1869",
    "body": " Naci\u00f3 la pat\u00f3loga Alice Hamilton. Investig\u00f3 sobre enfermedades industriales y ayud\u00f3 a conseguir condiciones de trabajo m\u00e1s seguras",
    "eventYear": "1869",
    "image": "https://calendario-cientifico-escolar.github.io/images/personajes/58.png"
}